final_data/6F11.csv

X,CH1,Start,Increment,
Sequence,Volt,-6.000000e-01,2.000000e-05
0,-2.40e-02,
1,-8.00e-03,
2,-8.00e-03,
3,-8.00e-03,
4,-1.20e-02,
5,-8.00e-03,
6,-8.00e-03,
7,-8.00e-03,
8,-8.00e-03,
9,-8.00e-03,
10,-8.00e-03,
11,-8.00e-03,
12,-8.00e-03,
13,-1.20e-02,
14,-8.00e-03,
15,-8.00e-03,
16,-4.00e-03,
17,-1.20e-02,
18,-4.00e-03,
19,-8.00e-03,
20,-8.00e-03,
21,-8.00e-03,
22,-8.00e-03,
23,-8.00e-03,
24,0.00e+00,
25,-1.20e-02,
26,-4.00e-03,
27,-4.00e-03,
28,-4.00e-03,
29,0.00e+00,
30,-8.00e-03,
31,-8.00e-03,
32,-8.00e-03,
33,-8.00e-03,
34,-8.00e-03,
35,-4.00e-03,
36,-8.00e-03,
37,-8.00e-03,
38,-1.20e-02,
39,-1.60e-02,
40,-1.60e-02,
41,-1.20e-02,
42,-1.20e-02,
43,-1.20e-02,
44,-8.00e-03,
45,-8.00e-03,
46,-4.00e-03,
47,-8.00e-03,
48,-8.00e-03,
49,-8.00e-03,
50,-2.40e-02,
51,-4.00e-03,
52,-8.00e-03,
53,-8.00e-03,
54,-8.00e-03,
55,-4.00e-03,
56,0.00e+00,
57,-8.00e-03,
58,-8.00e-03,
59,0.00e+00,
60,-4.00e-03,
61,-1.60e-02,
62,-1.20e-02,
63,-1.60e-02,
64,-1.20e-02,
65,-1.60e-02,
66,-8.00e-03,
67,-8.00e-03,
68,-8.00e-03,
69,-4.00e-03,
70,-8.00e-03,
71,-4.00e-03,
72,-4.00e-03,
73,-8.00e-03,
74,-1.20e-02,
75,-8.00e-03,
76,-1.20e-02,
77,-4.00e-03,
78,0.00e+00,
79,0.00e+00,
80,-4.00e-03,
81,-8.00e-03,
82,-4.00e-03,
83,-8.00e-03,
84,-1.20e-02,
85,-1.20e-02,
86,-1.20e-02,
87,-4.00e-03,
88,-8.00e-03,
89,-8.00e-03,
90,-8.00e-03,
91,-1.60e-02,
92,-8.00e-03,
93,-1.60e-02,
94,-8.00e-03,
95,-1.60e-02,
96,-1.60e-02,
97,-4.00e-03,
98,-8.00e-03,
99,-8.00e-03,
100,-8.00e-03,
101,-8.00e-03,
102,-8.00e-03,
103,-4.00e-03,
104,-4.00e-03,
105,-1.20e-02,
106,-8.00e-03,
107,-1.20e-02,
108,-1.20e-02,
109,-8.00e-03,
110,-8.00e-03,
111,-1.60e-02,
112,-1.60e-02,
113,-1.60e-02,
114,-1.20e-02,
115,-4.00e-03,
116,-4.00e-03,
117,-4.00e-03,
118,-4.00e-03,
119,-1.20e-02,
120,-1.60e-02,
121,-4.00e-03,
122,-8.00e-03,
123,-1.20e-02,
124,-8.00e-03,
125,-4.00e-03,
126,-8.00e-03,
127,-1.20e-02,
128,-8.00e-03,
129,-8.00e-03,
130,-8.00e-03,
131,-8.00e-03,
132,-8.00e-03,
133,-1.20e-02,
134,-8.00e-03,
135,-1.60e-02,
136,-8.00e-03,
137,-8.00e-03,
138,-8.00e-03,
139,-8.00e-03,
140,-8.00e-03,
141,-4.00e-03,
142,-4.00e-03,
143,-4.00e-03,
144,-4.00e-03,
145,-8.00e-03,
146,-1.20e-02,
147,-4.00e-03,
148,-4.00e-03,
149,-8.00e-03,
150,-1.20e-02,
151,-8.00e-03,
152,-8.00e-03,
153,-1.20e-02,
154,-1.20e-02,
155,-1.20e-02,
156,-8.00e-03,
157,-8.00e-03,
158,-1.20e-02,
159,-8.00e-03,
160,-8.00e-03,
161,-1.20e-02,
162,-8.00e-03,
163,-4.00e-03,
164,-1.60e-02,
165,-8.00e-03,
166,-8.00e-03,
167,-4.00e-03,
168,-4.00e-03,
169,-1.20e-02,
170,-8.00e-03,
171,-8.00e-03,
172,-4.00e-03,
173,-8.00e-03,
174,-8.00e-03,
175,-8.00e-03,
176,-8.00e-03,
177,-1.20e-02,
178,-8.00e-03,
179,-8.00e-03,
180,-1.20e-02,
181,-8.00e-03,
182,-8.00e-03,
183,-8.00e-03,
184,0.00e+00,
185,-4.00e-03,
186,-4.00e-03,
187,-8.00e-03,
188,-8.00e-03,
189,-4.00e-03,
190,-8.00e-03,
191,-8.00e-03,
192,-8.00e-03,
193,-1.20e-02,
194,-8.00e-03,
195,1.20e-02,
196,0.00e+00,
197,-8.00e-03,
198,1.20e-02,
199,-8.00e-03,
200,-4.00e-03,
201,-1.20e-02,
202,-8.00e-03,
203,-8.00e-03,
204,-8.00e-03,
205,-8.00e-03,
206,-1.20e-02,
207,8.00e-03,
208,-4.00e-03,
209,-4.00e-03,
210,-8.00e-03,
211,-8.00e-03,
212,-8.00e-03,
213,-1.60e-02,
214,-1.20e-02,
215,-8.00e-03,
216,-8.00e-03,
217,-8.00e-03,
218,-8.00e-03,
219,-8.00e-03,
220,-1.60e-02,
221,-1.20e-02,
222,-1.20e-02,
223,4.00e-03,
224,1.20e-02,
225,4.00e-03,
226,-1.20e-02,
227,-1.20e-02,
228,0.00e+00,
229,-1.20e-02,
230,-8.00e-03,
231,-4.00e-03,
232,-1.20e-02,
233,-2.80e-02,
234,-1.60e-02,
235,-8.00e-03,
236,0.00e+00,
237,-4.00e-03,
238,-1.60e-02,
239,-1.20e-02,
240,0.00e+00,
241,-8.00e-03,
242,-2.40e-02,
243,-8.00e-03,
244,-8.00e-03,
245,-2.40e-02,
246,-1.20e-02,
247,-2.80e-02,
248,4.00e-03,
249,0.00e+00,
250,-1.20e-02,
251,4.00e-03,
252,-4.00e-03,
253,-8.00e-03,
254,0.00e+00,
255,-1.20e-02,
256,0.00e+00,
257,-4.00e-03,
258,-1.60e-02,
259,-8.00e-03,
260,0.00e+00,
261,-4.00e-03,
262,0.00e+00,
263,-8.00e-03,
264,-1.20e-02,
265,-8.00e-03,
266,0.00e+00,
267,-8.00e-03,
268,0.00e+00,
269,-8.00e-03,
270,-1.60e-02,
271,-1.60e-02,
272,-4.00e-03,
273,-8.00e-03,
274,-4.00e-03,
275,0.00e+00,
276,-1.20e-02,
277,-8.00e-03,
278,-1.60e-02,
279,-8.00e-03,
280,-1.60e-02,
281,-1.60e-02,
282,-2.40e-02,
283,-1.20e-02,
284,-1.60e-02,
285,-8.00e-03,
286,-2.40e-02,
287,-1.20e-02,
288,-1.60e-02,
289,-1.20e-02,
290,-2.40e-02,
291,-1.20e-02,
292,-8.00e-03,
293,-8.00e-03,
294,-4.00e-03,
295,-8.00e-03,
296,-1.60e-02,
297,-8.00e-03,
298,-1.60e-02,
299,-8.00e-03,
300,-4.00e-03,
301,-8.00e-03,
302,0.00e+00,
303,-8.00e-03,
304,-1.20e-02,
305,-8.00e-03,
306,-1.60e-02,
307,-1.60e-02,
308,-4.00e-03,
309,-8.00e-03,
310,-8.00e-03,
311,0.00e+00,
312,-8.00e-03,
313,-4.00e-03,
314,0.00e+00,
315,-4.00e-03,
316,-4.00e-03,
317,0.00e+00,
318,-1.20e-02,
319,-4.00e-03,
320,-4.00e-03,
321,-8.00e-03,
322,-4.00e-03,
323,-1.20e-02,
324,-1.20e-02,
325,-8.00e-03,
326,-1.20e-02,
327,0.00e+00,
328,-8.00e-03,
329,-8.00e-03,
330,-4.00e-03,
331,-4.00e-03,
332,-8.00e-03,
333,-8.00e-03,
334,-1.20e-02,
335,-4.00e-03,
336,-8.00e-03,
337,-4.00e-03,
338,-8.00e-03,
339,-4.00e-03,
340,-8.00e-03,
341,-1.20e-02,
342,-8.00e-03,
343,-4.00e-03,
344,-1.20e-02,
345,-4.00e-03,
346,-4.00e-03,
347,-4.00e-03,
348,-8.00e-03,
349,0.00e+00,
350,-8.00e-03,
351,-8.00e-03,
352,-8.00e-03,
353,-4.00e-03,
354,0.00e+00,
355,-8.00e-03,
356,-8.00e-03,
357,-8.00e-03,
358,-8.00e-03,
359,-8.00e-03,
360,-8.00e-03,
361,-8.00e-03,
362,-8.00e-03,
363,-8.00e-03,
364,-8.00e-03,
365,-4.00e-03,
366,-8.00e-03,
367,-8.00e-03,
368,-8.00e-03,
369,-8.00e-03,
370,-8.00e-03,
371,-8.00e-03,
372,-8.00e-03,
373,-8.00e-03,
374,-8.00e-03,
375,-4.00e-03,
376,-8.00e-03,
377,-8.00e-03,
378,-1.20e-02,
379,-8.00e-03,
380,-1.20e-02,
381,-1.20e-02,
382,-1.20e-02,
383,-8.00e-03,
384,-8.00e-03,
385,-4.00e-03,
386,-8.00e-03,
387,-8.00e-03,
388,-4.00e-03,
389,-8.00e-03,
390,-8.00e-03,
391,-8.00e-03,
392,-4.00e-03,
393,-8.00e-03,
394,-8.00e-03,
395,-8.00e-03,
396,-1.20e-02,
397,-8.00e-03,
398,-8.00e-03,
399,-1.20e-02,
400,-8.00e-03,
401,-8.00e-03,
402,-4.00e-03,
403,-8.00e-03,
404,-4.00e-03,
405,-4.00e-03,
406,-4.00e-03,
407,-8.00e-03,
408,-4.00e-03,
409,-8.00e-03,
410,-8.00e-03,
411,-8.00e-03,
412,-8.00e-03,
413,-8.00e-03,
414,-1.20e-02,
415,-4.00e-03,
416,-8.00e-03,
417,-8.00e-03,
418,-8.00e-03,
419,-1.20e-02,
420,-4.00e-03,
421,-4.00e-03,
422,-4.00e-03,
423,-4.00e-03,
424,0.00e+00,
425,-4.00e-03,
426,-4.00e-03,
427,-4.00e-03,
428,-8.00e-03,
429,-8.00e-03,
430,-8.00e-03,
431,-4.00e-03,
432,-1.20e-02,
433,-1.20e-02,
434,-4.00e-03,
435,-1.20e-02,
436,-1.20e-02,
437,-8.00e-03,
438,-1.20e-02,
439,-8.00e-03,
440,-8.00e-03,
441,-8.00e-03,
442,-4.00e-03,
443,-4.00e-03,
444,-8.00e-03,
445,-4.00e-03,
446,-8.00e-03,
447,-4.00e-03,
448,-8.00e-03,
449,-8.00e-03,
450,-8.00e-03,
451,0.00e+00,
452,-8.00e-03,
453,-4.00e-03,
454,-8.00e-03,
455,-8.00e-03,
456,-8.00e-03,
457,-4.00e-03,
458,-4.00e-03,
459,-4.00e-03,
460,-8.00e-03,
461,-1.20e-02,
462,-1.60e-02,
463,-8.00e-03,
464,-8.00e-03,
465,-1.20e-02,
466,-1.20e-02,
467,-4.00e-03,
468,-8.00e-03,
469,-4.00e-03,
470,0.00e+00,
471,-4.00e-03,
472,-4.00e-03,
473,-4.00e-03,
474,-8.00e-03,
475,-4.00e-03,
476,-4.00e-03,
477,-4.00e-03,
478,-8.00e-03,
479,-4.00e-03,
480,-8.00e-03,
481,-8.00e-03,
482,-4.00e-03,
483,-1.20e-02,
484,-8.00e-03,
485,0.00e+00,
486,-4.00e-03,
487,-8.00e-03,
488,-8.00e-03,
489,-1.20e-02,
490,-8.00e-03,
491,-4.00e-03,
492,-8.00e-03,
493,-1.60e-02,
494,-8.00e-03,
495,-8.00e-03,
496,-4.00e-03,
497,-4.00e-03,
498,-1.20e-02,
499,-8.00e-03,
500,-1.20e-02,
501,-8.00e-03,
502,-1.20e-02,
503,-8.00e-03,
504,-8.00e-03,
505,-4.00e-03,
506,-4.00e-03,
507,-1.20e-02,
508,0.00e+00,
509,-8.00e-03,
510,-8.00e-03,
511,-1.20e-02,
512,4.00e-03,
513,-1.20e-02,
514,-8.00e-03,
515,-8.00e-03,
516,-8.00e-03,
517,-8.00e-03,
518,-1.20e-02,
519,-1.20e-02,
520,-1.20e-02,
521,0.00e+00,
522,-8.00e-03,
523,-1.20e-02,
524,-8.00e-03,
525,-1.20e-02,
526,-4.00e-03,
527,-8.00e-03,
528,-8.00e-03,
529,-1.60e-02,
530,-4.00e-03,
531,-8.00e-03,
532,-8.00e-03,
533,-8.00e-03,
534,0.00e+00,
535,-8.00e-03,
536,-4.00e-03,
537,-1.20e-02,
538,-8.00e-03,
539,-8.00e-03,
540,-8.00e-03,
541,0.00e+00,
542,0.00e+00,
543,-1.20e-02,
544,-8.00e-03,
545,-1.20e-02,
546,-4.00e-03,
547,-1.60e-02,
548,-8.00e-03,
549,-8.00e-03,
550,-1.60e-02,
551,-1.20e-02,
552,0.00e+00,
553,-8.00e-03,
554,0.00e+00,
555,-1.20e-02,
556,-4.00e-03,
557,-8.00e-03,
558,-8.00e-03,
559,-1.20e-02,
560,-4.00e-03,
561,-8.00e-03,
562,-1.20e-02,
563,-1.20e-02,
564,-8.00e-03,
565,-8.00e-03,
566,-4.00e-03,
567,-8.00e-03,
568,-4.00e-03,
569,4.00e-03,
570,-4.00e-03,
571,-1.20e-02,
572,-8.00e-03,
573,-1.60e-02,
574,-8.00e-03,
575,-8.00e-03,
576,-8.00e-03,
577,-1.20e-02,
578,0.00e+00,
579,-8.00e-03,
580,-4.00e-03,
581,-4.00e-03,
582,-8.00e-03,
583,-8.00e-03,
584,-1.20e-02,
585,-8.00e-03,
586,-1.20e-02,
587,-4.00e-03,
588,-4.00e-03,
589,-8.00e-03,
590,-8.00e-03,
591,-2.40e-02,
592,-8.00e-03,
593,0.00e+00,
594,-4.00e-03,
595,-1.60e-02,
596,-8.00e-03,
597,-1.20e-02,
598,-8.00e-03,
599,-1.20e-02,
600,-8.00e-03,
601,-4.00e-03,
602,-8.00e-03,
603,-8.00e-03,
604,-4.00e-03,
605,-1.60e-02,
606,-8.00e-03,
607,-2.40e-02,
608,-4.00e-03,
609,-1.60e-02,
610,-1.60e-02,
611,-1.60e-02,
612,-1.60e-02,
613,-8.00e-03,
614,-8.00e-03,
615,-8.00e-03,
616,0.00e+00,
617,-8.00e-03,
618,-1.60e-02,
619,-1.20e-02,
620,-8.00e-03,
621,-1.20e-02,
622,-4.00e-03,
623,-8.00e-03,
624,-4.00e-03,
625,-4.00e-03,
626,-8.00e-03,
627,-4.00e-03,
628,-1.20e-02,
629,0.00e+00,
630,-4.00e-03,
631,4.00e-03,
632,-4.00e-03,
633,-4.00e-03,
634,-1.20e-02,
635,-1.20e-02,
636,-1.20e-02,
637,-4.00e-03,
638,-1.20e-02,
639,-4.00e-03,
640,-4.00e-03,
641,-8.00e-03,
642,-4.00e-03,
643,-8.00e-03,
644,-4.00e-03,
645,-8.00e-03,
646,-4.00e-03,
647,-8.00e-03,
648,-4.00e-03,
649,-1.20e-02,
650,-8.00e-03,
651,-1.20e-02,
652,-1.20e-02,
653,-8.00e-03,
654,-8.00e-03,
655,-4.00e-03,
656,-8.00e-03,
657,-8.00e-03,
658,-1.60e-02,
659,-4.00e-03,
660,-8.00e-03,
661,-8.00e-03,
662,-8.00e-03,
663,-8.00e-03,
664,-8.00e-03,
665,-4.00e-03,
666,-4.00e-03,
667,-4.00e-03,
668,-4.00e-03,
669,0.00e+00,
670,0.00e+00,
671,-8.00e-03,
672,-8.00e-03,
673,-4.00e-03,
674,-8.00e-03,
675,-4.00e-03,
676,-8.00e-03,
677,-8.00e-03,
678,-8.00e-03,
679,-8.00e-03,
680,-8.00e-03,
681,-1.60e-02,
682,-4.00e-03,
683,-8.00e-03,
684,-8.00e-03,
685,-8.00e-03,
686,-4.00e-03,
687,-8.00e-03,
688,-8.00e-03,
689,4.00e-03,
690,-4.00e-03,
691,-8.00e-03,
692,-2.40e-02,
693,-8.00e-03,
694,-8.00e-03,
695,-2.80e-02,
696,-1.20e-02,
697,-8.00e-03,
698,-1.20e-02,
699,-1.20e-02,
700,-8.00e-03,
701,-2.40e-02,
702,-8.00e-03,
703,-8.00e-03,
704,-8.00e-03,
705,-8.00e-03,
706,-8.00e-03,
707,-1.20e-02,
708,-8.00e-03,
709,-8.00e-03,
710,-8.00e-03,
711,-1.20e-02,
712,-8.00e-03,
713,-8.00e-03,
714,-8.00e-03,
715,-8.00e-03,
716,-8.00e-03,
717,-1.20e-02,
718,-1.60e-02,
719,-8.00e-03,
720,-8.00e-03,
721,-1.60e-02,
722,-1.20e-02,
723,0.00e+00,
724,0.00e+00,
725,-2.40e-02,
726,-2.80e-02,
727,-1.60e-02,
728,-4.00e-03,
729,-1.20e-02,
730,-4.00e-03,
731,-8.00e-03,
732,-1.60e-02,
733,-8.00e-03,
734,-1.60e-02,
735,4.00e-03,
736,-8.00e-03,
737,-8.00e-03,
738,-8.00e-03,
739,8.00e-03,
740,-4.00e-03,
741,-4.00e-03,
742,-1.20e-02,
743,-8.00e-03,
744,-1.20e-02,
745,-8.00e-03,
746,0.00e+00,
747,1.20e-02,
748,-1.20e-02,
749,-4.00e-03,
750,-4.00e-03,
751,-1.20e-02,
752,-8.00e-03,
753,-4.00e-03,
754,-8.00e-03,
755,-4.00e-03,
756,0.00e+00,
757,-8.00e-03,
758,-8.00e-03,
759,-8.00e-03,
760,-4.00e-03,
761,-4.00e-03,
762,-1.20e-02,
763,-1.20e-02,
764,-2.40e-02,
765,-1.20e-02,
766,-4.00e-03,
767,-1.20e-02,
768,-2.80e-02,
769,0.00e+00,
770,-1.60e-02,
771,-1.60e-02,
772,0.00e+00,
773,-4.00e-03,
774,-8.00e-03,
775,-4.00e-03,
776,-1.60e-02,
777,-4.00e-03,
778,-2.80e-02,
779,-8.00e-03,
780,-4.00e-03,
781,-4.00e-03,
782,-8.00e-03,
783,-8.00e-03,
784,-4.00e-03,
785,-4.00e-03,
786,-4.00e-03,
787,-1.20e-02,
788,0.00e+00,
789,-8.00e-03,
790,-1.20e-02,
791,-1.20e-02,
792,-1.20e-02,
793,-4.00e-03,
794,-4.00e-03,
795,-8.00e-03,
796,-4.00e-03,
797,-4.00e-03,
798,-8.00e-03,
799,-8.00e-03,
800,-1.60e-02,
801,-4.00e-03,
802,-4.00e-03,
803,-4.00e-03,
804,0.00e+00,
805,-1.60e-02,
806,-1.20e-02,
807,-1.20e-02,
808,-1.60e-02,
809,-8.00e-03,
810,-4.00e-03,
811,-1.20e-02,
812,-1.20e-02,
813,-1.20e-02,
814,-8.00e-03,
815,-8.00e-03,
816,-8.00e-03,
817,-8.00e-03,
818,-1.20e-02,
819,-8.00e-03,
820,-4.00e-03,
821,0.00e+00,
822,-4.00e-03,
823,-8.00e-03,
824,-4.00e-03,
825,0.00e+00,
826,-8.00e-03,
827,-8.00e-03,
828,-8.00e-03,
829,-8.00e-03,
830,-8.00e-03,
831,-8.00e-03,
832,-8.00e-03,
833,-8.00e-03,
834,-1.20e-02,
835,-8.00e-03,
836,-1.20e-02,
837,-8.00e-03,
838,-8.00e-03,
839,-8.00e-03,
840,-8.00e-03,
841,-1.20e-02,
842,-8.00e-03,
843,-8.00e-03,
844,-1.20e-02,
845,-8.00e-03,
846,-8.00e-03,
847,-8.00e-03,
848,-8.00e-03,
849,-1.20e-02,
850,-8.00e-03,
851,-4.00e-03,
852,-8.00e-03,
853,-8.00e-03,
854,-4.00e-03,
855,-8.00e-03,
856,-1.60e-02,
857,-8.00e-03,
858,-8.00e-03,
859,-1.20e-02,
860,-1.20e-02,
861,-1.20e-02,
862,-1.20e-02,
863,-4.00e-03,
864,-8.00e-03,
865,-8.00e-03,
866,-8.00e-03,
867,-8.00e-03,
868,-4.00e-03,
869,-8.00e-03,
870,-8.00e-03,
871,-1.60e-02,
872,-4.00e-03,
873,-4.00e-03,
874,-4.00e-03,
875,-8.00e-03,
876,-8.00e-03,
877,-8.00e-03,
878,-8.00e-03,
879,-1.20e-02,
880,-8.00e-03,
881,-1.20e-02,
882,-8.00e-03,
883,-8.00e-03,
884,-4.00e-03,
885,-8.00e-03,
886,-4.00e-03,
887,0.00e+00,
888,4.00e-03,
889,-1.20e-02,
890,-8.00e-03,
891,-1.20e-02,
892,-4.00e-03,
893,0.00e+00,
894,-1.20e-02,
895,-1.20e-02,
896,-1.20e-02,
897,-1.20e-02,
898,-8.00e-03,
899,-1.60e-02,
900,-1.20e-02,
901,-8.00e-03,
902,-1.20e-02,
903,-1.20e-02,
904,-1.20e-02,
905,-4.00e-03,
906,-8.00e-03,
907,-8.00e-03,
908,-1.20e-02,
909,-1.20e-02,
910,-8.00e-03,
911,-1.20e-02,
912,-8.00e-03,
913,-4.00e-03,
914,-8.00e-03,
915,-8.00e-03,
916,-8.00e-03,
917,-1.20e-02,
918,-1.20e-02,
919,-1.20e-02,
920,-1.20e-02,
921,-2.80e-02,
922,-8.00e-03,
923,-1.20e-02,
924,-4.00e-03,
925,-1.20e-02,
926,-8.00e-03,
927,-8.00e-03,
928,-4.00e-03,
929,-8.00e-03,
930,-4.00e-03,
931,-8.00e-03,
932,-8.00e-03,
933,-8.00e-03,
934,-8.00e-03,
935,-1.20e-02,
936,-1.20e-02,
937,-4.00e-03,
938,-1.20e-02,
939,-1.20e-02,
940,-1.20e-02,
941,-1.20e-02,
942,-1.20e-02,
943,-1.20e-02,
944,-1.20e-02,
945,-1.20e-02,
946,-8.00e-03,
947,-4.00e-03,
948,-8.00e-03,
949,-8.00e-03,
950,-8.00e-03,
951,-8.00e-03,
952,-1.20e-02,
953,-8.00e-03,
954,-1.60e-02,
955,-8.00e-03,
956,-8.00e-03,
957,-4.00e-03,
958,-8.00e-03,
959,-1.20e-02,
960,-8.00e-03,
961,-8.00e-03,
962,-1.20e-02,
963,-8.00e-03,
964,-8.00e-03,
965,-1.20e-02,
966,-1.20e-02,
967,-1.20e-02,
968,-8.00e-03,
969,-8.00e-03,
970,-4.00e-03,
971,-8.00e-03,
972,-8.00e-03,
973,-8.00e-03,
974,-4.00e-03,
975,-4.00e-03,
976,-1.20e-02,
977,-1.20e-02,
978,-8.00e-03,
979,-8.00e-03,
980,-8.00e-03,
981,-8.00e-03,
982,-1.20e-02,
983,-1.20e-02,
984,-8.00e-03,
985,-8.00e-03,
986,-8.00e-03,
987,-1.20e-02,
988,-8.00e-03,
989,-8.00e-03,
990,-8.00e-03,
991,-8.00e-03,
992,-4.00e-03,
993,-4.00e-03,
994,-8.00e-03,
995,-4.00e-03,
996,-8.00e-03,
997,-8.00e-03,
998,-8.00e-03,
999,-8.00e-03,
1000,-8.00e-03,
1001,-8.00e-03,
1002,-4.00e-03,
1003,-4.00e-03,
1004,-1.20e-02,
1005,-8.00e-03,
1006,-4.00e-03,
1007,-4.00e-03,
1008,-1.60e-02,
1009,-1.20e-02,
1010,-8.00e-03,
1011,-8.00e-03,
1012,-8.00e-03,
1013,-8.00e-03,
1014,-8.00e-03,
1015,-4.00e-03,
1016,-4.00e-03,
1017,0.00e+00,
1018,-4.00e-03,
1019,-4.00e-03,
1020,-4.00e-03,
1021,-8.00e-03,
1022,-8.00e-03,
1023,-4.00e-03,
1024,-8.00e-03,
1025,-4.00e-03,
1026,-4.00e-03,
1027,-8.00e-03,
1028,-2.40e-02,
1029,-4.00e-03,
1030,-8.00e-03,
1031,0.00e+00,
1032,-1.20e-02,
1033,-8.00e-03,
1034,-4.00e-03,
1035,-1.20e-02,
1036,0.00e+00,
1037,-4.00e-03,
1038,-4.00e-03,
1039,-4.00e-03,
1040,-4.00e-03,
1041,0.00e+00,
1042,-4.00e-03,
1043,4.00e-03,
1044,-8.00e-03,
1045,-8.00e-03,
1046,-8.00e-03,
1047,0.00e+00,
1048,-8.00e-03,
1049,-8.00e-03,
1050,-4.00e-03,
1051,0.00e+00,
1052,-8.00e-03,
1053,0.00e+00,
1054,-1.60e-02,
1055,-1.20e-02,
1056,-8.00e-03,
1057,-8.00e-03,
1058,-8.00e-03,
1059,-8.00e-03,
1060,-8.00e-03,
1061,-4.00e-03,
1062,-8.00e-03,
1063,-1.60e-02,
1064,-8.00e-03,
1065,-1.20e-02,
1066,-8.00e-03,
1067,-8.00e-03,
1068,-1.20e-02,
1069,-1.20e-02,
1070,-8.00e-03,
1071,-8.00e-03,
1072,-8.00e-03,
1073,-8.00e-03,
1074,-8.00e-03,
1075,-8.00e-03,
1076,-8.00e-03,
1077,-8.00e-03,
1078,-1.60e-02,
1079,-8.00e-03,
1080,-1.20e-02,
1081,-8.00e-03,
1082,-1.20e-02,
1083,-1.20e-02,
1084,-4.00e-03,
1085,-8.00e-03,
1086,-8.00e-03,
1087,-1.20e-02,
1088,-1.20e-02,
1089,-8.00e-03,
1090,-8.00e-03,
1091,-4.00e-03,
1092,-1.20e-02,
1093,-1.60e-02,
1094,-8.00e-03,
1095,-1.20e-02,
1096,-1.20e-02,
1097,-8.00e-03,
1098,-8.00e-03,
1099,-8.00e-03,
1100,-1.20e-02,
1101,0.00e+00,
1102,-8.00e-03,
1103,0.00e+00,
1104,-4.00e-03,
1105,-1.20e-02,
1106,-8.00e-03,
1107,-1.60e-02,
1108,-8.00e-03,
1109,-1.20e-02,
1110,-8.00e-03,
1111,-8.00e-03,
1112,-4.00e-03,
1113,-8.00e-03,
1114,-1.20e-02,
1115,-1.20e-02,
1116,-8.00e-03,
1117,-8.00e-03,
1118,-1.60e-02,
1119,-8.00e-03,
1120,-4.00e-03,
1121,-1.20e-02,
1122,-8.00e-03,
1123,-4.00e-03,
1124,-1.20e-02,
1125,-8.00e-03,
1126,-1.20e-02,
1127,-8.00e-03,
1128,-4.00e-03,
1129,-8.00e-03,
1130,-8.00e-03,
1131,-8.00e-03,
1132,-8.00e-03,
1133,-8.00e-03,
1134,-1.60e-02,
1135,-1.20e-02,
1136,-8.00e-03,
1137,-4.00e-03,
1138,-8.00e-03,
1139,-8.00e-03,
1140,-8.00e-03,
1141,-4.00e-03,
1142,-8.00e-03,
1143,0.00e+00,
1144,4.00e-03,
1145,-4.00e-03,
1146,-4.00e-03,
1147,-8.00e-03,
1148,-1.20e-02,
1149,-4.00e-03,
1150,-4.00e-03,
1151,-1.20e-02,
1152,-4.00e-03,
1153,-8.00e-03,
1154,-8.00e-03,
1155,-8.00e-03,
1156,-8.00e-03,
1157,0.00e+00,
1158,-4.00e-03,
1159,-1.20e-02,
1160,-1.20e-02,
1161,-8.00e-03,
1162,-4.00e-03,
1163,-8.00e-03,
1164,-4.00e-03,
1165,-8.00e-03,
1166,-8.00e-03,
1167,-8.00e-03,
1168,-8.00e-03,
1169,-4.00e-03,
1170,-4.00e-03,
1171,-8.00e-03,
1172,-8.00e-03,
1173,-8.00e-03,
1174,-8.00e-03,
1175,-8.00e-03,
1176,-4.00e-03,
1177,-4.00e-03,
1178,-8.00e-03,
1179,-1.20e-02,
1180,-8.00e-03,
1181,-8.00e-03,
1182,-8.00e-03,
1183,-1.20e-02,
1184,-1.20e-02,
1185,4.00e-03,
1186,-4.00e-03,
1187,-8.00e-03,
1188,-8.00e-03,
1189,-8.00e-03,
1190,-4.00e-03,
1191,-8.00e-03,
1192,-8.00e-03,
1193,-8.00e-03,
1194,-1.20e-02,
1195,-1.20e-02,
1196,0.00e+00,
1197,-8.00e-03,
1198,-8.00e-03,
1199,-4.00e-03,
1200,-1.20e-02,
1201,-1.20e-02,
1202,-8.00e-03,
1203,-8.00e-03,
1204,4.00e-03,
1205,-8.00e-03,
1206,-1.20e-02,
1207,-1.20e-02,
1208,-1.20e-02,
1209,-4.00e-03,
1210,-8.00e-03,
1211,-4.00e-03,
1212,4.00e-03,
1213,-8.00e-03,
1214,4.00e-03,
1215,-1.20e-02,
1216,-1.20e-02,
1217,-1.20e-02,
1218,-1.20e-02,
1219,-1.20e-02,
1220,-4.00e-03,
1221,-1.20e-02,
1222,-8.00e-03,
1223,-1.20e-02,
1224,-4.00e-03,
1225,-8.00e-03,
1226,-4.00e-03,
1227,-8.00e-03,
1228,-8.00e-03,
1229,4.00e-03,
1230,-2.80e-02,
1231,-1.60e-02,
1232,-8.00e-03,
1233,-8.00e-03,
1234,-1.20e-02,
1235,-8.00e-03,
1236,-1.60e-02,
1237,4.00e-03,
1238,-4.00e-03,
1239,-4.00e-03,
1240,1.20e-02,
1241,-4.00e-03,
1242,-1.20e-02,
1243,-4.00e-03,
1244,-4.00e-03,
1245,-4.00e-03,
1246,-8.00e-03,
1247,-1.20e-02,
1248,-1.60e-02,
1249,0.00e+00,
1250,-2.40e-02,
1251,-4.00e-03,
1252,-8.00e-03,
1253,-8.00e-03,
1254,-4.00e-03,
1255,-4.00e-03,
1256,-4.00e-03,
1257,-4.00e-03,
1258,-1.60e-02,
1259,-4.00e-03,
1260,-8.00e-03,
1261,-1.60e-02,
1262,-4.00e-03,
1263,-1.60e-02,
1264,-8.00e-03,
1265,-8.00e-03,
1266,4.00e-03,
1267,-1.60e-02,
1268,-1.20e-02,
1269,-4.00e-03,
1270,-8.00e-03,
1271,0.00e+00,
1272,-8.00e-03,
1273,-1.20e-02,
1274,-8.00e-03,
1275,-2.80e-02,
1276,-8.00e-03,
1277,1.20e-02,
1278,-4.00e-03,
1279,-4.00e-03,
1280,0.00e+00,
1281,0.00e+00,
1282,-1.20e-02,
1283,4.00e-03,
1284,-1.20e-02,
1285,4.00e-03,
1286,-8.00e-03,
1287,4.00e-03,
1288,-1.60e-02,
1289,8.00e-03,
1290,-8.00e-03,
1291,8.00e-03,
1292,-1.60e-02,
1293,-4.00e-03,
1294,-8.00e-03,
1295,-1.20e-02,
1296,-8.00e-03,
1297,-4.00e-03,
1298,-4.00e-03,
1299,4.00e-03,
1300,-4.00e-03,
1301,-8.00e-03,
1302,-4.00e-03,
1303,-2.40e-02,
1304,-8.00e-03,
1305,-4.00e-03,
1306,-8.00e-03,
1307,-8.00e-03,
1308,-8.00e-03,
1309,-1.20e-02,
1310,-1.20e-02,
1311,-1.20e-02,
1312,-8.00e-03,
1313,-8.00e-03,
1314,-1.20e-02,
1315,-8.00e-03,
1316,-8.00e-03,
1317,-1.20e-02,
1318,-1.20e-02,
1319,-1.20e-02,
1320,0.00e+00,
