final_data/6F12.csv

X,CH1,Start,Increment,
Sequence,Volt,-6.000000e-01,2.000000e-05
0,-4.00e-03,
1,-1.20e-02,
2,4.00e-03,
3,-4.00e-03,
4,-8.00e-03,
5,-4.00e-03,
6,-8.00e-03,
7,-4.00e-03,
8,-4.00e-03,
9,-1.20e-02,
10,0.00e+00,
11,-4.00e-03,
12,0.00e+00,
13,-4.00e-03,
14,-4.00e-03,
15,-8.00e-03,
16,-4.00e-03,
17,-4.00e-03,
18,-8.00e-03,
19,-4.00e-03,
20,0.00e+00,
21,0.00e+00,
22,-8.00e-03,
23,-8.00e-03,
24,-4.00e-03,
25,-4.00e-03,
26,-8.00e-03,
27,-4.00e-03,
28,-4.00e-03,
29,-8.00e-03,
30,-1.20e-02,
31,-4.00e-03,
32,-4.00e-03,
33,-8.00e-03,
34,0.00e+00,
35,-4.00e-03,
36,-4.00e-03,
37,-4.00e-03,
38,-4.00e-03,
39,-1.60e-02,
40,-8.00e-03,
41,-4.00e-03,
42,-4.00e-03,
43,-8.00e-03,
44,-4.00e-03,
45,-4.00e-03,
46,-8.00e-03,
47,-4.00e-03,
48,-8.00e-03,
49,-4.00e-03,
50,-4.00e-03,
51,-8.00e-03,
52,-4.00e-03,
53,-1.20e-02,
54,-8.00e-03,
55,-8.00e-03,
56,-8.00e-03,
57,-4.00e-03,
58,-4.00e-03,
59,-4.00e-03,
60,-8.00e-03,
61,-4.00e-03,
62,-8.00e-03,
63,-1.20e-02,
64,-8.00e-03,
65,-8.00e-03,
66,-4.00e-03,
67,-8.00e-03,
68,-8.00e-03,
69,-4.00e-03,
70,-4.00e-03,
71,-8.00e-03,
72,-8.00e-03,
73,-4.00e-03,
74,-8.00e-03,
75,-4.00e-03,
76,-4.00e-03,
77,-4.00e-03,
78,-1.20e-02,
79,-1.20e-02,
80,-8.00e-03,
81,-4.00e-03,
82,-4.00e-03,
83,-4.00e-03,
84,-8.00e-03,
85,-4.00e-03,
86,-4.00e-03,
87,0.00e+00,
88,-8.00e-03,
89,-8.00e-03,
90,-1.20e-02,
91,-8.00e-03,
92,-8.00e-03,
93,-8.00e-03,
94,-8.00e-03,
95,-4.00e-03,
96,-4.00e-03,
97,-8.00e-03,
98,-4.00e-03,
99,-8.00e-03,
100,-8.00e-03,
101,-4.00e-03,
102,0.00e+00,
103,-8.00e-03,
104,-4.00e-03,
105,-4.00e-03,
106,-1.20e-02,
107,-4.00e-03,
108,-1.20e-02,
109,-8.00e-03,
110,-4.00e-03,
111,-4.00e-03,
112,-8.00e-03,
113,-4.00e-03,
114,-4.00e-03,
115,-4.00e-03,
116,-4.00e-03,
117,-8.00e-03,
118,-8.00e-03,
119,-8.00e-03,
120,-4.00e-03,
121,-8.00e-03,
122,-4.00e-03,
123,-8.00e-03,
124,0.00e+00,
125,-8.00e-03,
126,-4.00e-03,
127,-8.00e-03,
128,-4.00e-03,
129,-4.00e-03,
130,-1.20e-02,
131,-8.00e-03,
132,-8.00e-03,
133,-8.00e-03,
134,-4.00e-03,
135,-8.00e-03,
136,-8.00e-03,
137,4.00e-03,
138,-8.00e-03,
139,-8.00e-03,
140,0.00e+00,
141,-8.00e-03,
142,-8.00e-03,
143,-8.00e-03,
144,-8.00e-03,
145,-4.00e-03,
146,-4.00e-03,
147,-1.20e-02,
148,-8.00e-03,
149,-8.00e-03,
150,-8.00e-03,
151,0.00e+00,
152,-1.20e-02,
153,-8.00e-03,
154,-8.00e-03,
155,-8.00e-03,
156,-4.00e-03,
157,-4.00e-03,
158,-8.00e-03,
159,-8.00e-03,
160,-4.00e-03,
161,-2.40e-02,
162,0.00e+00,
163,-8.00e-03,
164,-4.00e-03,
165,-4.00e-03,
166,0.00e+00,
167,0.00e+00,
168,-4.00e-03,
169,-4.00e-03,
170,0.00e+00,
171,-4.00e-03,
172,-4.00e-03,
173,-4.00e-03,
174,0.00e+00,
175,-8.00e-03,
176,-8.00e-03,
177,-8.00e-03,
178,0.00e+00,
179,-4.00e-03,
180,-8.00e-03,
181,0.00e+00,
182,-8.00e-03,
183,0.00e+00,
184,0.00e+00,
185,-1.20e-02,
186,-8.00e-03,
187,-4.00e-03,
188,-8.00e-03,
189,-8.00e-03,
190,-4.00e-03,
191,0.00e+00,
192,-4.00e-03,
193,-8.00e-03,
194,-4.00e-03,
195,-8.00e-03,
196,0.00e+00,
197,-4.00e-03,
198,-8.00e-03,
199,0.00e+00,
200,0.00e+00,
201,-4.00e-03,
202,-4.00e-03,
203,-4.00e-03,
204,-4.00e-03,
205,-4.00e-03,
206,0.00e+00,
207,-4.00e-03,
208,-8.00e-03,
209,-4.00e-03,
210,-4.00e-03,
211,0.00e+00,
212,-4.00e-03,
213,-1.20e-02,
214,-4.00e-03,
215,-4.00e-03,
216,-8.00e-03,
217,-1.20e-02,
218,-8.00e-03,
219,-1.60e-02,
220,-8.00e-03,
221,4.00e-03,
222,-4.00e-03,
223,-8.00e-03,
224,-4.00e-03,
225,-4.00e-03,
226,-8.00e-03,
227,0.00e+00,
228,-1.20e-02,
229,-4.00e-03,
230,-4.00e-03,
231,-4.00e-03,
232,-8.00e-03,
233,0.00e+00,
234,-8.00e-03,
235,-4.00e-03,
236,-4.00e-03,
237,0.00e+00,
238,-4.00e-03,
239,-1.20e-02,
240,0.00e+00,
241,-1.20e-02,
242,-1.20e-02,
243,-8.00e-03,
244,-4.00e-03,
245,-1.20e-02,
246,-8.00e-03,
247,-8.00e-03,
248,-4.00e-03,
249,0.00e+00,
250,8.00e-03,
251,-1.20e-02,
252,-8.00e-03,
253,-4.00e-03,
254,-1.60e-02,
255,-8.00e-03,
256,0.00e+00,
257,-4.00e-03,
258,-1.20e-02,
259,-8.00e-03,
260,-4.00e-03,
261,0.00e+00,
262,-4.00e-03,
263,-4.00e-03,
264,0.00e+00,
265,0.00e+00,
266,-4.00e-03,
267,-4.00e-03,
268,-8.00e-03,
269,-1.20e-02,
270,-4.00e-03,
271,-4.00e-03,
272,4.00e-03,
273,-8.00e-03,
274,0.00e+00,
275,0.00e+00,
276,-4.00e-03,
277,-8.00e-03,
278,-4.00e-03,
279,0.00e+00,
280,-8.00e-03,
281,-4.00e-03,
282,-4.00e-03,
283,-8.00e-03,
284,-8.00e-03,
285,-8.00e-03,
286,-1.20e-02,
287,-8.00e-03,
288,-8.00e-03,
289,-4.00e-03,
290,-4.00e-03,
291,-8.00e-03,
292,-8.00e-03,
293,-4.00e-03,
294,-4.00e-03,
295,-8.00e-03,
296,-4.00e-03,
297,-4.00e-03,
298,-4.00e-03,
299,-4.00e-03,
300,-4.00e-03,
301,0.00e+00,
302,-4.00e-03,
303,-8.00e-03,
304,-4.00e-03,
305,-8.00e-03,
306,-1.20e-02,
307,-4.00e-03,
308,-4.00e-03,
309,-4.00e-03,
310,-8.00e-03,
311,-8.00e-03,
312,-4.00e-03,
313,-4.00e-03,
314,0.00e+00,
315,-4.00e-03,
316,-4.00e-03,
317,-4.00e-02,
318,-8.00e-03,
319,0.00e+00,
320,-1.20e-02,
321,-8.00e-03,
322,-4.00e-03,
323,-4.00e-03,
324,-4.00e-03,
325,-2.80e-02,
326,-4.00e-03,
327,-4.00e-03,
328,0.00e+00,
329,-4.00e-03,
330,0.00e+00,
331,0.00e+00,
332,-1.20e-02,
333,-4.00e-03,
334,-8.00e-03,
335,-8.00e-03,
336,0.00e+00,
337,-4.00e-03,
338,0.00e+00,
339,4.00e-03,
340,0.00e+00,
341,-1.20e-02,
342,-8.00e-03,
343,-4.00e-03,
344,-8.00e-03,
345,-4.00e-03,
346,0.00e+00,
347,4.00e-03,
348,-1.20e-02,
349,-2.80e-02,
350,-4.00e-03,
351,0.00e+00,
352,-8.00e-03,
353,-8.00e-03,
354,-8.00e-03,
355,8.00e-03,
356,-8.00e-03,
357,-8.00e-03,
358,-4.00e-03,
359,-2.40e-02,
360,-8.00e-03,
361,-4.00e-03,
362,4.00e-03,
363,-4.00e-03,
364,-4.00e-03,
365,-1.20e-02,
366,-4.00e-03,
367,-1.20e-02,
368,-8.00e-03,
369,-1.20e-02,
370,-4.00e-03,
371,-4.00e-03,
372,0.00e+00,
373,-1.20e-02,
374,0.00e+00,
375,-4.00e-03,
376,-1.60e-02,
377,-4.00e-03,
378,0.00e+00,
379,-8.00e-03,
380,4.00e-03,
381,-4.00e-03,
382,-1.60e-02,
383,-4.00e-03,
384,1.20e-02,
385,-4.00e-03,
386,0.00e+00,
387,-8.00e-03,
388,0.00e+00,
389,-1.20e-02,
390,-2.40e-02,
391,-8.00e-03,
392,-8.00e-03,
393,-4.00e-03,
394,-1.20e-02,
395,-4.00e-03,
396,-1.20e-02,
397,-8.00e-03,
398,-8.00e-03,
399,0.00e+00,
400,-8.00e-03,
401,-4.00e-03,
402,-4.00e-03,
403,-8.00e-03,
404,-8.00e-03,
405,-8.00e-03,
406,0.00e+00,
407,-4.00e-03,
408,-8.00e-03,
409,-8.00e-03,
410,0.00e+00,
411,-8.00e-03,
412,-4.00e-03,
413,-4.00e-03,
414,-4.00e-03,
415,-1.20e-02,
416,-1.60e-02,
417,-8.00e-03,
418,0.00e+00,
419,-4.00e-03,
420,0.00e+00,
421,0.00e+00,
422,-4.00e-03,
423,0.00e+00,
424,-1.20e-02,
425,0.00e+00,
426,4.00e-03,
427,-4.00e-03,
428,0.00e+00,
429,-1.60e-02,
430,-1.20e-02,
431,-1.20e-02,
432,4.00e-03,
433,4.00e-03,
434,0.00e+00,
435,-8.00e-03,
436,-1.20e-02,
437,0.00e+00,
438,-4.00e-03,
439,-4.00e-03,
440,-4.00e-03,
441,-4.00e-03,
442,-8.00e-03,
443,-8.00e-03,
444,-4.00e-03,
445,-8.00e-03,
446,-4.00e-03,
447,0.00e+00,
448,-4.00e-03,
449,-4.00e-03,
450,-8.00e-03,
451,0.00e+00,
452,-8.00e-03,
453,-1.60e-02,
454,-4.00e-03,
455,0.00e+00,
456,-4.00e-03,
457,-4.00e-03,
458,-8.00e-03,
459,-4.00e-03,
460,-8.00e-03,
461,-8.00e-03,
462,-8.00e-03,
463,-1.20e-02,
464,-8.00e-03,
465,-4.00e-03,
466,-4.00e-03,
467,-4.00e-03,
468,-4.00e-03,
469,-8.00e-03,
470,-8.00e-03,
471,-1.20e-02,
472,-8.00e-03,
473,-4.00e-03,
474,-8.00e-03,
475,-4.00e-03,
476,-8.00e-03,
477,-8.00e-03,
478,-4.00e-03,
479,-8.00e-03,
480,-1.60e-02,
481,-4.00e-03,
482,-8.00e-03,
483,-4.00e-03,
484,-8.00e-03,
485,0.00e+00,
486,-8.00e-03,
487,-4.00e-03,
488,-4.00e-03,
489,-4.00e-03,
490,-4.00e-03,
491,-4.00e-03,
492,-4.00e-03,
493,-4.00e-03,
494,-8.00e-03,
495,-4.00e-03,
496,-4.00e-03,
497,-4.00e-03,
498,-8.00e-03,
499,-4.00e-03,
500,-4.00e-03,
501,-8.00e-03,
502,-8.00e-03,
503,-4.00e-03,
504,-4.00e-03,
505,-4.00e-03,
506,-8.00e-03,
507,0.00e+00,
508,-4.00e-03,
509,-8.00e-03,
510,-1.20e-02,
511,-4.00e-03,
512,0.00e+00,
513,4.00e-03,
514,-4.00e-03,
515,-4.00e-03,
516,-4.00e-03,
517,-8.00e-03,
518,-4.00e-03,
519,-4.00e-03,
520,-8.00e-03,
521,-4.00e-03,
522,0.00e+00,
523,-4.00e-03,
524,-4.00e-03,
525,-1.20e-02,
526,-4.00e-03,
527,-8.00e-03,
528,-4.00e-03,
529,-4.00e-03,
530,0.00e+00,
531,-8.00e-03,
532,-8.00e-03,
533,-1.20e-02,
534,-8.00e-03,
535,-4.00e-03,
536,-8.00e-03,
537,-4.00e-03,
538,-8.00e-03,
539,-8.00e-03,
540,-4.00e-03,
541,0.00e+00,
542,-4.00e-03,
543,-1.20e-02,
544,-4.00e-03,
545,-8.00e-03,
546,4.00e-03,
547,-8.00e-03,
548,-8.00e-03,
549,-4.00e-03,
550,-4.00e-03,
551,-8.00e-03,
552,-8.00e-03,
553,-4.00e-03,
554,-4.00e-03,
555,-8.00e-03,
556,0.00e+00,
557,-4.00e-03,
558,-8.00e-03,
559,-4.00e-03,
560,-4.00e-03,
561,-1.20e-02,
562,-8.00e-03,
563,-4.00e-03,
564,-4.00e-03,
565,-4.00e-03,
566,-4.00e-03,
567,-4.00e-03,
568,-4.00e-03,
569,-8.00e-03,
570,-1.60e-02,
571,0.00e+00,
572,-4.00e-03,
573,-4.00e-03,
574,-8.00e-03,
575,-8.00e-03,
576,-4.00e-03,
577,-8.00e-03,
578,-4.00e-03,
579,-4.00e-03,
580,-8.00e-03,
581,-4.00e-03,
582,-4.00e-03,
583,-8.00e-03,
584,-8.00e-03,
585,-4.00e-03,
586,-8.00e-03,
587,-4.00e-03,
588,-4.00e-03,
589,-8.00e-03,
590,-8.00e-03,
591,-4.00e-03,
592,0.00e+00,
593,-8.00e-03,
594,-4.00e-03,
595,-8.00e-03,
596,-4.00e-03,
597,-4.00e-03,
598,-4.00e-03,
599,-8.00e-03,
600,-4.00e-03,
601,-4.00e-03,
602,-4.00e-03,
603,-4.00e-03,
604,0.00e+00,
605,-4.00e-03,
606,-8.00e-03,
607,-8.00e-03,
608,-8.00e-03,
609,-1.20e-02,
610,-4.00e-03,
611,-4.00e-03,
612,-8.00e-03,
613,-8.00e-03,
614,-4.00e-03,
615,-4.00e-03,
616,-8.00e-03,
617,-8.00e-03,
618,0.00e+00,
619,-4.00e-03,
620,-4.00e-03,
621,8.00e-03,
622,0.00e+00,
623,-4.00e-03,
624,0.00e+00,
625,-1.20e-02,
626,-8.00e-03,
627,-4.00e-03,
628,-4.00e-03,
629,-4.00e-03,
630,0.00e+00,
631,-8.00e-03,
632,-8.00e-03,
633,0.00e+00,
634,-4.00e-03,
635,-8.00e-03,
636,-4.00e-03,
637,-4.00e-03,
638,-8.00e-03,
639,-4.00e-03,
640,0.00e+00,
641,-4.00e-03,
642,-8.00e-03,
643,4.00e-03,
644,0.00e+00,
645,-4.00e-03,
646,-4.00e-03,
647,-1.20e-02,
648,-4.00e-03,
649,-1.20e-02,
650,0.00e+00,
651,-8.00e-03,
652,4.00e-03,
653,-4.00e-03,
654,0.00e+00,
655,-8.00e-03,
656,0.00e+00,
657,-4.00e-03,
658,-4.00e-03,
659,0.00e+00,
660,-4.00e-03,
661,-8.00e-03,
662,-1.20e-02,
663,0.00e+00,
664,-4.00e-03,
665,-1.60e-02,
666,-4.00e-03,
667,-1.20e-02,
668,-4.00e-03,
669,-1.60e-02,
670,-4.00e-03,
671,-4.00e-03,
672,-1.60e-02,
673,-1.20e-02,
674,4.00e-03,
675,-8.00e-03,
676,4.00e-03,
677,-4.00e-03,
678,0.00e+00,
679,-4.00e-03,
680,-4.00e-03,
681,-4.00e-03,
682,0.00e+00,
683,-4.00e-03,
684,-4.00e-03,
685,-1.20e-02,
686,-8.00e-03,
687,-4.00e-03,
688,-8.00e-03,
689,0.00e+00,
690,-8.00e-03,
691,-4.00e-03,
692,-8.00e-03,
693,-8.00e-03,
694,4.00e-03,
695,-8.00e-03,
696,-1.20e-02,
697,-8.00e-03,
698,-1.20e-02,
699,-8.00e-03,
700,-8.00e-03,
701,-4.00e-03,
702,-4.00e-03,
703,-4.00e-03,
704,-2.40e-02,
705,-4.00e-03,
706,-4.00e-03,
707,-1.20e-02,
708,-4.00e-03,
709,-4.00e-03,
710,-4.00e-03,
711,-4.00e-03,
712,0.00e+00,
713,-8.00e-03,
714,-4.00e-03,
715,-1.20e-02,
716,0.00e+00,
717,4.00e-03,
718,-4.00e-03,
719,-4.00e-03,
720,-8.00e-03,
721,4.00e-03,
722,-1.20e-02,
723,4.00e-03,
724,-8.00e-03,
725,-8.00e-03,
726,-4.00e-03,
727,-1.20e-02,
728,-1.20e-02,
729,-1.60e-02,
730,-4.00e-03,
731,-4.00e-03,
732,-4.00e-03,
733,0.00e+00,
734,-8.00e-03,
735,-8.00e-03,
736,-8.00e-03,
737,-8.00e-03,
738,-8.00e-03,
739,-8.00e-03,
740,-8.00e-03,
741,0.00e+00,
742,-8.00e-03,
743,-8.00e-03,
744,-8.00e-03,
745,-4.00e-03,
746,-4.00e-03,
747,-4.00e-03,
748,0.00e+00,
749,-4.00e-03,
750,-1.20e-02,
751,-4.00e-03,
752,-4.00e-03,
753,-4.00e-03,
754,-1.20e-02,
755,-4.00e-03,
756,-4.00e-03,
757,0.00e+00,
758,8.00e-03,
759,-8.00e-03,
760,-4.00e-03,
761,-1.20e-02,
762,-1.20e-02,
763,-8.00e-03,
764,-8.00e-03,
765,0.00e+00,
766,-8.00e-03,
767,-4.00e-03,
768,-4.00e-03,
769,8.00e-03,
770,-4.00e-03,
771,-4.00e-03,
772,-8.00e-03,
773,-8.00e-03,
774,-4.00e-03,
775,-8.00e-03,
776,0.00e+00,
777,-1.20e-02,
778,-4.00e-03,
779,-8.00e-03,
780,-4.00e-03,
781,-8.00e-03,
782,-8.00e-03,
783,0.00e+00,
784,-4.00e-03,
785,-4.00e-03,
786,-4.00e-03,
787,-4.00e-03,
788,-8.00e-03,
789,-4.00e-03,
790,-4.00e-03,
791,-4.00e-03,
792,-4.00e-03,
793,-4.00e-03,
794,-4.00e-03,
795,-4.00e-03,
796,-8.00e-03,
797,-8.00e-03,
798,-8.00e-03,
799,-1.20e-02,
800,-8.00e-03,
801,-4.00e-03,
802,-4.00e-03,
803,-8.00e-03,
804,-4.00e-03,
805,0.00e+00,
806,-4.00e-03,
807,-8.00e-03,
808,-8.00e-03,
809,-4.00e-03,
810,0.00e+00,
811,0.00e+00,
812,-4.00e-03,
813,-4.00e-03,
814,4.00e-03,
815,0.00e+00,
816,-4.00e-03,
817,-4.00e-03,
818,0.00e+00,
819,-4.00e-03,
820,-4.00e-03,
821,-8.00e-03,
822,-8.00e-03,
823,-1.20e-02,
824,0.00e+00,
825,2.00e-02,
826,-8.00e-03,
827,-8.00e-03,
828,-8.00e-03,
829,-4.00e-03,
830,-4.00e-03,
831,-8.00e-03,
832,-8.00e-03,
833,-8.00e-03,
834,-1.20e-02,
835,-4.00e-03,
836,-1.20e-02,
837,-8.00e-03,
838,-4.00e-03,
839,0.00e+00,
840,-1.60e-02,
841,-4.00e-03,
842,0.00e+00,
843,-8.00e-03,
844,-4.00e-03,
845,4.00e-03,
846,-1.20e-02,
847,-1.60e-02,
848,-4.00e-03,
849,4.00e-03,
850,-8.00e-03,
851,-8.00e-03,
852,-8.00e-03,
853,-4.00e-03,
854,-8.00e-03,
855,-8.00e-03,
856,-8.00e-03,
857,-4.00e-03,
858,-4.00e-03,
859,-4.00e-03,
860,-4.00e-03,
861,-4.00e-03,
862,0.00e+00,
863,-1.20e-02,
864,-4.00e-03,
865,4.00e-03,
866,-8.00e-03,
867,-2.80e-02,
868,-4.00e-03,
869,8.00e-03,
870,-1.20e-02,
871,0.00e+00,
872,-4.00e-03,
873,0.00e+00,
874,-4.00e-03,
875,-4.00e-03,
876,-4.00e-03,
877,8.00e-03,
878,-1.20e-02,
879,-8.00e-03,
880,-4.00e-03,
881,-8.00e-03,
882,0.00e+00,
883,-4.00e-03,
884,-8.00e-03,
885,-8.00e-03,
886,0.00e+00,
887,-4.00e-03,
888,-1.20e-02,
889,-8.00e-03,
890,8.00e-03,
891,-1.20e-02,
892,4.00e-03,
893,-1.60e-02,
894,-1.60e-02,
895,-4.00e-03,
896,-1.60e-02,
897,-8.00e-03,
898,-1.60e-02,
899,-8.00e-03,
900,-1.20e-02,
901,-8.00e-03,
902,-1.20e-02,
903,-1.60e-02,
904,-8.00e-03,
905,-8.00e-03,
906,-8.00e-03,
907,-8.00e-03,
908,-1.20e-02,
909,-8.00e-03,
910,-1.20e-02,
911,-4.00e-03,
912,-2.40e-02,
913,-4.00e-03,
914,-8.00e-03,
915,-4.00e-03,
916,-8.00e-03,
917,-8.00e-03,
918,-1.60e-02,
919,-8.00e-03,
920,-1.20e-02,
921,0.00e+00,
922,0.00e+00,
923,-4.00e-03,
924,0.00e+00,
925,-1.60e-02,
926,-4.00e-03,
927,-1.20e-02,
928,0.00e+00,
929,-4.00e-03,
930,-4.00e-03,
931,-1.20e-02,
932,-8.00e-03,
933,-4.00e-03,
934,-4.00e-03,
935,-4.00e-03,
936,-4.00e-03,
937,-4.00e-03,
938,-4.00e-03,
939,-4.00e-03,
940,-4.00e-03,
941,-1.20e-02,
942,0.00e+00,
943,0.00e+00,
944,-4.00e-03,
945,-4.00e-03,
946,-4.00e-03,
947,-8.00e-03,
948,0.00e+00,
949,-8.00e-03,
950,-4.00e-03,
951,-4.00e-03,
952,-4.00e-03,
953,-4.00e-03,
954,-8.00e-03,
955,-8.00e-03,
956,-4.00e-03,
957,-4.00e-03,
958,0.00e+00,
959,-4.00e-03,
960,-1.60e-02,
961,-4.00e-03,
962,-8.00e-03,
963,-4.00e-03,
964,0.00e+00,
965,-8.00e-03,
966,-4.00e-03,
967,-4.00e-03,
968,-4.00e-03,
969,-8.00e-03,
970,-4.00e-03,
971,-4.00e-03,
972,-8.00e-03,
973,0.00e+00,
974,-4.00e-03,
975,-8.00e-03,
976,0.00e+00,
977,-8.00e-03,
978,-1.20e-02,
979,-8.00e-03,
980,-8.00e-03,
981,-4.00e-03,
982,-4.00e-03,
983,-8.00e-03,
984,-4.00e-03,
985,-8.00e-03,
986,-4.00e-03,
987,-4.00e-03,
988,-4.00e-03,
989,-4.00e-03,
990,-8.00e-03,
991,-4.00e-03,
992,-8.00e-03,
993,-4.00e-03,
994,-4.00e-03,
995,-8.00e-03,
996,-8.00e-03,
997,-4.00e-03,
998,-4.00e-03,
999,-8.00e-03,
1000,-4.00e-03,
1001,-8.00e-03,
1002,-8.00e-03,
1003,-8.00e-03,
1004,-4.00e-03,
1005,-4.00e-03,
1006,-4.00e-03,
1007,-4.00e-03,
1008,-8.00e-03,
1009,-8.00e-03,
1010,-8.00e-03,
1011,-4.00e-03,
1012,-4.00e-03,
1013,-4.00e-03,
1014,-4.00e-03,
1015,-8.00e-03,
1016,-4.00e-03,
1017,-8.00e-03,
1018,-4.00e-03,
1019,-8.00e-03,
1020,-8.00e-03,
1021,0.00e+00,
1022,-4.00e-03,
1023,-8.00e-03,
1024,-4.00e-03,
1025,-4.00e-03,
1026,-4.00e-03,
1027,-8.00e-03,
1028,-4.00e-03,
1029,-4.00e-03,
1030,-8.00e-03,
1031,-8.00e-03,
1032,-4.00e-03,
1033,-8.00e-03,
1034,-4.00e-03,
1035,-4.00e-03,
1036,-4.00e-03,
1037,-8.00e-03,
1038,-8.00e-03,
1039,-8.00e-03,
1040,-8.00e-03,
1041,0.00e+00,
1042,0.00e+00,
1043,-1.20e-02,
1044,-8.00e-03,
1045,-8.00e-03,
1046,-8.00e-03,
1047,-8.00e-03,
1048,-8.00e-03,
1049,-1.20e-02,
1050,-8.00e-03,
1051,-4.00e-03,
1052,-8.00e-03,
1053,-8.00e-03,
1054,-8.00e-03,
1055,-8.00e-03,
1056,-8.00e-03,
1057,-4.00e-03,
1058,4.00e-03,
1059,-4.00e-03,
1060,-8.00e-03,
1061,-4.00e-03,
1062,-4.00e-03,
1063,-8.00e-03,
1064,-8.00e-03,
1065,-4.00e-03,
1066,-8.00e-03,
1067,-4.00e-03,
1068,-4.00e-03,
1069,-4.00e-03,
1070,-8.00e-03,
1071,0.00e+00,
1072,-4.00e-03,
1073,-4.00e-03,
1074,-4.00e-03,
1075,-8.00e-03,
1076,-4.00e-03,
1077,0.00e+00,
1078,-8.00e-03,
1079,-8.00e-03,
1080,-8.00e-03,
1081,-8.00e-03,
1082,-8.00e-03,
1083,-8.00e-03,
1084,0.00e+00,
1085,-8.00e-03,
1086,-4.00e-03,
1087,0.00e+00,
1088,-8.00e-03,
1089,-8.00e-03,
1090,-8.00e-03,
1091,-4.00e-03,
1092,-4.00e-03,
1093,-4.00e-03,
1094,-4.00e-03,
1095,-4.00e-03,
1096,-8.00e-03,
1097,-4.00e-03,
1098,-4.00e-03,
1099,-4.00e-03,
1100,-8.00e-03,
1101,0.00e+00,
1102,-8.00e-03,
1103,-4.00e-03,
1104,-4.00e-03,
1105,-4.00e-03,
1106,0.00e+00,
1107,-8.00e-03,
1108,-8.00e-03,
1109,-1.20e-02,
1110,-4.00e-03,
1111,-8.00e-03,
1112,-4.00e-03,
1113,-8.00e-03,
1114,-8.00e-03,
1115,-4.00e-03,
1116,-8.00e-03,
1117,-8.00e-03,
1118,-8.00e-03,
1119,0.00e+00,
1120,-8.00e-03,
1121,-1.20e-02,
1122,-4.00e-03,
1123,-8.00e-03,
1124,-4.00e-03,
1125,-8.00e-03,
1126,-4.00e-03,
1127,-8.00e-03,
1128,-1.20e-02,
1129,-8.00e-03,
1130,-8.00e-03,
1131,-8.00e-03,
1132,0.00e+00,
1133,-4.00e-03,
1134,-4.00e-03,
1135,-4.00e-03,
1136,0.00e+00,
1137,-8.00e-03,
1138,-8.00e-03,
1139,-1.20e-02,
1140,-1.20e-02,
1141,-4.00e-03,
1142,-4.00e-03,
1143,-8.00e-03,
1144,-4.00e-03,
1145,-4.00e-03,
1146,-4.00e-03,
1147,-4.00e-03,
1148,-8.00e-03,
1149,0.00e+00,
1150,-1.20e-02,
1151,-4.00e-03,
1152,-4.00e-03,
1153,-4.00e-03,
1154,-8.00e-03,
1155,0.00e+00,
1156,-8.00e-03,
1157,-4.00e-03,
1158,4.00e-03,
1159,-4.00e-03,
1160,-8.00e-03,
1161,4.00e-03,
1162,-8.00e-03,
1163,0.00e+00,
1164,-8.00e-03,
1165,0.00e+00,
1166,-4.00e-03,
1167,-1.20e-02,
1168,0.00e+00,
1169,0.00e+00,
1170,-4.00e-03,
1171,-8.00e-03,
1172,-4.00e-03,
1173,-8.00e-03,
1174,-8.00e-03,
1175,-2.40e-02,
1176,-1.20e-02,
1177,0.00e+00,
1178,-8.00e-03,
1179,-4.00e-03,
1180,0.00e+00,
1181,8.00e-03,
1182,-4.00e-03,
1183,-4.00e-03,
1184,-8.00e-03,
1185,0.00e+00,
1186,-1.20e-02,
1187,-1.60e-02,
1188,-8.00e-03,
1189,-4.00e-03,
1190,-4.00e-03,
1191,-4.00e-03,
1192,-8.00e-03,
1193,4.00e-03,
1194,1.20e-02,
1195,-4.00e-03,
1196,-8.00e-03,
1197,-4.00e-03,
1198,-8.00e-03,
1199,-8.00e-03,
1200,-1.20e-02,
1201,-8.00e-03,
1202,-4.00e-03,
1203,-8.00e-03,
1204,-4.00e-03,
1205,-8.00e-03,
1206,-4.00e-03,
1207,-4.00e-03,
1208,0.00e+00,
1209,-4.00e-03,
1210,-4.00e-03,
1211,-1.20e-02,
1212,-8.00e-03,
1213,-1.20e-02,
1214,-8.00e-03,
1215,0.00e+00,
1216,-1.20e-02,
1217,-4.00e-03,
1218,-4.00e-03,
1219,0.00e+00,
1220,-8.00e-03,
1221,4.00e-03,
1222,-8.00e-03,
1223,4.00e-03,
1224,-8.00e-03,
1225,-8.00e-03,
1226,0.00e+00,
1227,-4.00e-03,
1228,0.00e+00,
1229,-4.00e-03,
1230,-4.00e-03,
1231,-4.00e-03,
1232,-4.00e-03,
1233,-4.00e-03,
1234,-1.20e-02,
1235,-1.20e-02,
1236,-4.00e-03,
1237,-4.00e-03,
1238,-4.00e-03,
1239,-4.00e-03,
1240,-8.00e-03,
1241,-4.00e-03,
1242,-4.00e-03,
1243,-4.00e-03,
1244,-4.00e-03,
1245,-4.00e-03,
1246,-4.00e-03,
1247,0.00e+00,
1248,0.00e+00,
1249,-8.00e-03,
1250,-8.00e-03,
1251,-4.00e-03,
1252,-4.00e-03,
1253,-4.00e-03,
1254,-4.00e-03,
1255,-8.00e-03,
1256,-8.00e-03,
1257,-8.00e-03,
1258,-4.00e-03,
1259,-8.00e-03,
1260,-4.00e-03,
1261,-1.20e-02,
1262,-4.00e-03,
1263,-8.00e-03,
1264,-8.00e-03,
1265,-8.00e-03,
1266,-1.20e-02,
1267,-8.00e-03,
1268,-8.00e-03,
1269,-8.00e-03,
1270,-4.00e-03,
1271,-4.00e-03,
1272,-4.00e-03,
1273,0.00e+00,
1274,-8.00e-03,
1275,0.00e+00,
1276,-4.00e-03,
1277,-4.00e-03,
1278,-4.00e-03,
1279,-4.00e-03,
1280,-4.00e-03,
1281,0.00e+00,
1282,-8.00e-03,
1283,-8.00e-03,
1284,-1.20e-02,
1285,-1.20e-02,
1286,-8.00e-03,
1287,-8.00e-03,
1288,-4.00e-03,
1289,-4.00e-03,
1290,-8.00e-03,
1291,-8.00e-03,
1292,-4.00e-03,
1293,-4.00e-03,
1294,-8.00e-03,
1295,-8.00e-03,
1296,-4.00e-03,
1297,-4.00e-03,
1298,-8.00e-03,
1299,0.00e+00,
1300,-8.00e-03,
1301,-4.00e-03,
1302,-4.00e-03,
1303,-8.00e-03,
1304,-8.00e-03,
1305,-8.00e-03,
1306,0.00e+00,
1307,-4.00e-03,
1308,-4.00e-03,
1309,0.00e+00,
1310,-4.00e-03,
1311,-4.00e-03,
1312,4.00e-03,
1313,-8.00e-03,
1314,-4.00e-03,
1315,-4.00e-03,
1316,-4.00e-03,
1317,-8.00e-03,
1318,-8.00e-03,
1319,-8.00e-03,
1320,0.00e+00,
1321,-8.00e-03,
1322,-4.00e-03,
1323,-4.00e-03,
1324,-8.00e-03,
1325,0.00e+00,
1326,-4.00e-03,
1327,8.00e-03,
