final_data/6F13.csv

X,CH1,Start,Increment,
Sequence,Volt,-6.000000e-01,2.000000e-05
0,-8.00e-03,
1,-1.20e-02,
2,-8.00e-03,
3,-4.00e-03,
4,0.00e+00,
5,-1.20e-02,
6,8.00e-03,
7,-4.00e-03,
8,-8.00e-03,
9,-8.00e-03,
10,-8.00e-03,
11,8.00e-03,
12,-8.00e-03,
13,-1.20e-02,
14,-2.40e-02,
15,-4.00e-03,
16,-8.00e-03,
17,-8.00e-03,
18,-4.00e-03,
19,-2.80e-02,
20,-4.00e-03,
21,-4.00e-03,
22,-1.20e-02,
23,-4.00e-03,
24,-1.20e-02,
25,-8.00e-03,
26,-1.20e-02,
27,0.00e+00,
28,1.20e-02,
29,-4.00e-03,
30,-2.80e-02,
31,-8.00e-03,
32,-4.00e-03,
33,-4.00e-03,
34,0.00e+00,
35,-8.00e-03,
36,-3.20e-02,
37,-4.00e-03,
38,-4.00e-03,
39,-4.00e-03,
40,-4.00e-03,
41,-8.00e-03,
42,-8.00e-03,
43,-1.60e-02,
44,-8.00e-03,
45,-2.40e-02,
46,-8.00e-03,
47,0.00e+00,
48,0.00e+00,
49,-8.00e-03,
50,0.00e+00,
51,-4.00e-03,
52,-8.00e-03,
53,-4.00e-03,
54,-8.00e-03,
55,-4.00e-03,
56,-4.00e-03,
57,0.00e+00,
58,-8.00e-03,
59,-4.00e-03,
60,-4.00e-03,
61,0.00e+00,
62,-4.00e-03,
63,-4.00e-03,
64,-4.00e-03,
65,-4.00e-03,
66,-8.00e-03,
67,-1.60e-02,
68,-1.20e-02,
69,0.00e+00,
70,-8.00e-03,
71,-8.00e-03,
72,-4.00e-03,
73,-4.00e-03,
74,-8.00e-03,
75,0.00e+00,
76,-1.20e-02,
77,-4.00e-03,
78,-1.20e-02,
79,-4.00e-03,
80,-8.00e-03,
81,0.00e+00,
82,0.00e+00,
83,-4.00e-03,
84,-1.20e-02,
85,0.00e+00,
86,-1.60e-02,
87,-4.00e-03,
88,-4.00e-03,
89,0.00e+00,
90,-8.00e-03,
91,-4.00e-03,
92,-8.00e-03,
93,-1.20e-02,
94,0.00e+00,
95,-1.20e-02,
96,-8.00e-03,
97,-4.00e-03,
98,-4.00e-03,
99,0.00e+00,
100,-8.00e-03,
101,-4.00e-03,
102,-8.00e-03,
103,-4.00e-03,
104,-8.00e-03,
105,0.00e+00,
106,-8.00e-03,
107,-8.00e-03,
108,0.00e+00,
109,-8.00e-03,
110,8.00e-03,
111,-4.00e-03,
112,-8.00e-03,
113,-8.00e-03,
114,-4.00e-03,
115,-8.00e-03,
116,-4.00e-03,
117,-4.00e-03,
118,-1.20e-02,
119,-8.00e-03,
120,-8.00e-03,
121,-4.00e-03,
122,-4.00e-03,
123,-8.00e-03,
124,-1.60e-02,
125,-4.00e-03,
126,-8.00e-03,
127,-4.00e-03,
128,-8.00e-03,
129,-8.00e-03,
130,-8.00e-03,
131,-4.00e-03,
132,-4.00e-03,
133,-2.40e-02,
134,0.00e+00,
135,0.00e+00,
136,-4.00e-03,
137,4.00e-03,
138,-8.00e-03,
139,-8.00e-03,
140,-8.00e-03,
141,-4.00e-03,
142,-8.00e-03,
143,-1.20e-02,
144,-8.00e-03,
145,-8.00e-03,
146,-8.00e-03,
147,-4.00e-03,
148,-4.00e-03,
149,-8.00e-03,
150,-4.00e-03,
151,-8.00e-03,
152,-8.00e-03,
153,-8.00e-03,
154,-4.00e-03,
155,-8.00e-03,
156,-8.00e-03,
157,-8.00e-03,
158,-4.00e-03,
159,-4.00e-03,
160,-8.00e-03,
161,-4.00e-03,
162,-4.00e-03,
163,-4.00e-03,
164,-1.20e-02,
165,-8.00e-03,
166,-4.00e-03,
167,-4.00e-03,
168,0.00e+00,
169,-4.00e-03,
170,-8.00e-03,
171,-1.20e-02,
172,-8.00e-03,
173,-1.20e-02,
174,-8.00e-03,
175,-8.00e-03,
176,-8.00e-03,
177,-1.20e-02,
178,-4.00e-03,
179,0.00e+00,
180,-4.00e-03,
181,0.00e+00,
182,-4.00e-03,
183,0.00e+00,
184,-8.00e-03,
185,-8.00e-03,
186,-8.00e-03,
187,-4.00e-03,
188,-8.00e-03,
189,-4.00e-03,
190,-4.00e-03,
191,-4.00e-03,
192,-4.00e-03,
193,-4.00e-03,
194,-8.00e-03,
195,-1.60e-02,
196,-1.20e-02,
197,-4.00e-03,
198,-1.20e-02,
199,-4.00e-03,
200,-4.00e-03,
201,0.00e+00,
202,-4.00e-03,
203,-8.00e-03,
204,-8.00e-03,
205,-4.00e-03,
206,-8.00e-03,
207,-4.00e-03,
208,-8.00e-03,
209,-4.00e-03,
210,-4.00e-03,
211,-4.00e-03,
212,-2.40e-02,
213,-4.00e-03,
214,-8.00e-03,
215,-8.00e-03,
216,-4.00e-03,
217,-4.00e-03,
218,-8.00e-03,
219,-8.00e-03,
220,-1.20e-02,
221,-8.00e-03,
222,-8.00e-03,
223,-8.00e-03,
224,0.00e+00,
225,-4.00e-03,
226,-4.00e-03,
227,-8.00e-03,
228,-8.00e-03,
229,-8.00e-03,
230,-8.00e-03,
231,-4.00e-03,
232,-4.00e-03,
233,-4.00e-03,
234,-4.00e-03,
235,-4.00e-03,
236,-4.00e-03,
237,-4.00e-03,
238,-8.00e-03,
239,-1.20e-02,
240,-4.00e-03,
241,-1.20e-02,
242,-1.60e-02,
243,-1.20e-02,
244,-1.20e-02,
245,-8.00e-03,
246,-4.00e-03,
247,-8.00e-03,
248,-8.00e-03,
249,-4.00e-03,
250,-4.00e-03,
251,-4.00e-03,
252,-4.00e-03,
253,-4.00e-03,
254,-8.00e-03,
255,-4.00e-03,
256,-4.00e-03,
257,-4.00e-03,
258,-4.00e-03,
259,-4.00e-03,
260,-8.00e-03,
261,-8.00e-03,
262,-8.00e-03,
263,-4.00e-03,
264,0.00e+00,
265,-4.00e-03,
266,-8.00e-03,
267,-1.20e-02,
268,0.00e+00,
269,-8.00e-03,
270,-8.00e-03,
271,-8.00e-03,
272,-8.00e-03,
273,-8.00e-03,
274,-8.00e-03,
275,-4.00e-03,
276,-4.00e-03,
277,-8.00e-03,
278,-4.00e-03,
279,-4.00e-03,
280,-8.00e-03,
281,-4.00e-03,
282,-8.00e-03,
283,-4.00e-03,
284,0.00e+00,
285,-8.00e-03,
286,-4.00e-03,
287,4.00e-03,
288,-4.00e-03,
289,0.00e+00,
290,-8.00e-03,
291,-8.00e-03,
292,-4.00e-03,
293,-8.00e-03,
294,-4.00e-03,
295,-4.00e-03,
296,-4.00e-03,
297,0.00e+00,
298,-8.00e-03,
299,-4.00e-03,
300,-8.00e-03,
301,-4.00e-03,
302,0.00e+00,
303,-1.20e-02,
304,-1.20e-02,
305,0.00e+00,
306,-2.40e-02,
307,-1.20e-02,
308,-8.00e-03,
309,-1.20e-02,
310,-1.20e-02,
311,-8.00e-03,
312,-4.00e-03,
313,-8.00e-03,
314,-8.00e-03,
315,-8.00e-03,
316,0.00e+00,
317,-1.60e-02,
318,-4.00e-03,
319,-1.20e-02,
320,-4.00e-03,
321,-4.00e-03,
322,-8.00e-03,
323,0.00e+00,
324,0.00e+00,
325,-4.00e-03,
326,8.00e-03,
327,-8.00e-03,
328,-4.00e-03,
329,-4.00e-03,
330,-4.00e-03,
331,-8.00e-03,
332,-1.20e-02,
333,-8.00e-03,
334,-4.00e-03,
335,-4.00e-03,
336,-8.00e-03,
337,0.00e+00,
338,-4.00e-03,
339,0.00e+00,
340,-4.00e-03,
341,-4.00e-03,
342,-8.00e-03,
343,-4.00e-03,
344,-4.00e-03,
345,-1.20e-02,
346,-4.00e-03,
347,-4.00e-03,
348,-8.00e-03,
349,-1.20e-02,
350,-1.20e-02,
351,-4.00e-03,
352,-8.00e-03,
353,-4.00e-03,
354,-1.20e-02,
355,-1.20e-02,
356,-1.20e-02,
357,-8.00e-03,
358,0.00e+00,
359,-1.20e-02,
360,-4.00e-03,
361,-8.00e-03,
362,-8.00e-03,
363,-1.20e-02,
364,-8.00e-03,
365,0.00e+00,
366,-8.00e-03,
367,0.00e+00,
368,0.00e+00,
369,-8.00e-03,
370,-4.00e-03,
371,-1.60e-02,
372,-8.00e-03,
373,-8.00e-03,
374,-4.00e-03,
375,-4.00e-03,
376,-8.00e-03,
377,-4.00e-03,
378,-8.00e-03,
379,-1.60e-02,
380,-8.00e-03,
381,0.00e+00,
382,-8.00e-03,
383,8.00e-03,
384,-8.00e-03,
385,-8.00e-03,
386,-1.20e-02,
387,-8.00e-03,
388,-4.00e-03,
389,-4.00e-03,
390,-1.20e-02,
391,-4.00e-03,
392,0.00e+00,
393,-4.00e-03,
394,-4.00e-03,
395,-4.00e-03,
396,-1.60e-02,
397,-4.00e-03,
398,-8.00e-03,
399,-8.00e-03,
400,-1.20e-02,
401,-8.00e-03,
402,-8.00e-03,
403,-8.00e-03,
404,-8.00e-03,
405,-8.00e-03,
406,-8.00e-03,
407,-4.00e-03,
408,-4.00e-03,
409,-8.00e-03,
410,-8.00e-03,
411,-4.00e-03,
412,-8.00e-03,
413,-4.00e-03,
414,-4.00e-03,
415,-8.00e-03,
416,-1.20e-02,
417,-8.00e-03,
418,-8.00e-03,
419,-4.00e-03,
420,-8.00e-03,
421,-8.00e-03,
422,-1.20e-02,
423,-8.00e-03,
424,0.00e+00,
425,-8.00e-03,
426,-8.00e-03,
427,-8.00e-03,
428,-8.00e-03,
429,-4.00e-03,
430,-4.00e-03,
431,-4.00e-03,
432,-1.20e-02,
433,-8.00e-03,
434,-8.00e-03,
435,-4.00e-03,
436,-8.00e-03,
437,-1.20e-02,
438,-1.20e-02,
439,-4.00e-03,
440,-4.00e-03,
441,0.00e+00,
442,0.00e+00,
443,-4.00e-03,
444,-8.00e-03,
445,-4.00e-03,
446,-8.00e-03,
447,-4.00e-03,
448,-8.00e-03,
449,0.00e+00,
450,-8.00e-03,
451,-8.00e-03,
452,-1.20e-02,
453,-8.00e-03,
454,-8.00e-03,
455,-1.60e-02,
456,-4.00e-03,
457,-8.00e-03,
458,-8.00e-03,
459,-8.00e-03,
460,-4.00e-03,
461,-4.00e-03,
462,-4.00e-03,
463,0.00e+00,
464,-4.00e-03,
465,-8.00e-03,
466,4.00e-03,
467,-4.00e-03,
468,-1.20e-02,
469,-1.60e-02,
470,-8.00e-03,
471,-8.00e-03,
472,0.00e+00,
473,-4.00e-03,
474,-8.00e-03,
475,-4.00e-03,
476,-1.20e-02,
477,-3.20e-02,
478,-4.00e-03,
479,-8.00e-03,
480,-4.00e-03,
481,-4.00e-03,
482,-8.00e-03,
483,0.00e+00,
484,-8.00e-03,
485,-4.00e-03,
486,0.00e+00,
487,-8.00e-03,
488,4.00e-03,
489,-4.00e-03,
490,-4.00e-03,
491,-4.00e-03,
492,-8.00e-03,
493,-1.20e-02,
494,-8.00e-03,
495,-8.00e-03,
496,-1.20e-02,
497,-4.00e-03,
498,4.00e-03,
499,-2.80e-02,
500,0.00e+00,
501,-4.00e-03,
502,0.00e+00,
503,0.00e+00,
504,-8.00e-03,
505,-8.00e-03,
506,-4.00e-03,
507,-4.00e-03,
508,4.00e-03,
509,4.00e-03,
510,-4.00e-03,
511,-1.60e-02,
512,-4.00e-03,
513,0.00e+00,
514,0.00e+00,
515,0.00e+00,
516,-4.00e-03,
517,1.20e-02,
518,-4.00e-03,
519,-1.20e-02,
520,-4.00e-03,
521,-1.20e-02,
522,-4.00e-03,
523,-8.00e-03,
524,-8.00e-03,
525,-4.00e-03,
526,-1.60e-02,
527,-4.00e-03,
528,8.00e-03,
529,4.00e-03,
530,-1.20e-02,
531,-4.00e-03,
532,-1.60e-02,
533,-4.00e-03,
534,0.00e+00,
535,-4.00e-03,
536,-1.20e-02,
537,-8.00e-03,
538,-1.60e-02,
539,-1.20e-02,
540,-1.60e-02,
541,-8.00e-03,
542,-8.00e-03,
543,0.00e+00,
544,-4.00e-03,
545,-4.00e-03,
546,-4.00e-03,
547,-4.00e-03,
548,-8.00e-03,
549,-4.00e-03,
550,0.00e+00,
551,-4.00e-03,
552,-4.00e-03,
553,-4.00e-03,
554,0.00e+00,
555,-8.00e-03,
556,-8.00e-03,
557,-4.00e-03,
558,-1.20e-02,
559,-8.00e-03,
560,4.00e-03,
561,-4.00e-03,
562,-8.00e-03,
563,-4.00e-03,
564,0.00e+00,
565,-8.00e-03,
566,-4.00e-03,
567,-8.00e-03,
568,-4.00e-03,
569,-8.00e-03,
570,-8.00e-03,
571,0.00e+00,
572,-2.80e-02,
573,-4.00e-03,
574,-4.00e-03,
575,-8.00e-03,
576,-8.00e-03,
577,-4.00e-03,
578,-4.00e-03,
579,-8.00e-03,
580,-1.60e-02,
581,-8.00e-03,
582,-4.00e-03,
583,-4.00e-03,
584,0.00e+00,
585,-1.20e-02,
586,-1.60e-02,
587,-8.00e-03,
588,-4.00e-03,
589,-4.00e-03,
590,4.00e-03,
591,-4.00e-03,
592,-4.00e-03,
593,-4.00e-03,
594,0.00e+00,
595,-4.00e-03,
596,-8.00e-03,
597,-4.00e-03,
598,-4.00e-03,
599,-4.00e-03,
600,-4.00e-03,
601,0.00e+00,
602,-8.00e-03,
603,-1.20e-02,
604,-8.00e-03,
605,0.00e+00,
606,-8.00e-03,
607,-8.00e-03,
608,-8.00e-03,
609,-4.00e-03,
610,-8.00e-03,
611,-8.00e-03,
612,-8.00e-03,
613,-8.00e-03,
614,-4.00e-03,
615,-4.00e-03,
616,-8.00e-03,
617,-4.00e-03,
618,-4.00e-03,
619,-4.00e-03,
620,-4.00e-03,
621,0.00e+00,
622,-4.00e-03,
623,-4.00e-03,
624,0.00e+00,
625,-8.00e-03,
626,-4.00e-03,
627,-4.00e-03,
628,-4.00e-03,
629,-8.00e-03,
630,-4.00e-03,
631,-4.00e-03,
632,-4.00e-03,
633,-4.00e-03,
634,-8.00e-03,
635,-4.00e-03,
636,-4.00e-03,
637,-4.00e-03,
638,-4.00e-03,
639,-4.00e-03,
640,-4.00e-03,
641,-1.20e-02,
642,-4.00e-03,
643,-8.00e-03,
644,-4.00e-03,
645,0.00e+00,
646,-8.00e-03,
647,-4.00e-03,
648,-8.00e-03,
649,-4.00e-03,
650,-1.20e-02,
651,-8.00e-03,
652,-8.00e-03,
653,-8.00e-03,
654,-8.00e-03,
655,-4.00e-03,
656,0.00e+00,
657,-8.00e-03,
658,-1.20e-02,
659,-8.00e-03,
660,-1.20e-02,
661,-4.00e-03,
662,-8.00e-03,
663,-4.00e-03,
664,-8.00e-03,
665,-8.00e-03,
666,-4.00e-03,
667,-4.00e-03,
668,-8.00e-03,
669,-8.00e-03,
670,-8.00e-03,
671,-4.00e-03,
672,-8.00e-03,
673,-4.00e-03,
674,-8.00e-03,
675,-8.00e-03,
676,-4.00e-03,
677,-8.00e-03,
678,-8.00e-03,
679,-8.00e-03,
680,0.00e+00,
681,-4.00e-03,
682,-8.00e-03,
683,-8.00e-03,
684,-8.00e-03,
685,-8.00e-03,
686,-4.00e-03,
687,-8.00e-03,
688,-4.00e-03,
689,0.00e+00,
690,-4.00e-03,
691,-4.00e-03,
692,-4.00e-03,
693,-8.00e-03,
694,-8.00e-03,
695,-4.00e-03,
696,-8.00e-03,
697,-4.00e-03,
698,-4.00e-03,
699,-8.00e-03,
700,-4.00e-03,
701,-8.00e-03,
702,-4.00e-03,
703,-4.00e-03,
704,-4.00e-03,
705,-4.00e-03,
706,-8.00e-03,
707,-4.00e-03,
708,0.00e+00,
709,-8.00e-03,
710,-4.00e-03,
711,-8.00e-03,
712,-8.00e-03,
713,-8.00e-03,
714,-8.00e-03,
715,-1.20e-02,
716,-4.00e-03,
717,-4.00e-03,
718,-4.00e-03,
719,-4.00e-03,
720,-8.00e-03,
721,-1.20e-02,
722,-4.00e-03,
723,-4.00e-03,
724,-8.00e-03,
725,-1.20e-02,
726,-4.00e-03,
727,-4.00e-03,
728,0.00e+00,
729,-4.00e-03,
730,-4.00e-03,
731,-4.00e-03,
732,-8.00e-03,
733,-4.00e-03,
734,-4.00e-03,
735,-4.00e-03,
736,0.00e+00,
737,4.00e-03,
738,-4.00e-03,
739,0.00e+00,
740,-4.00e-03,
741,-4.00e-03,
742,-8.00e-03,
743,-8.00e-03,
744,-4.00e-03,
745,0.00e+00,
746,-4.00e-03,
747,-4.00e-03,
748,-4.00e-03,
749,-4.00e-03,
750,-8.00e-03,
751,-4.00e-03,
752,-4.00e-03,
753,-8.00e-03,
754,-4.00e-03,
755,-4.00e-03,
756,0.00e+00,
757,-4.00e-03,
758,-8.00e-03,
759,-4.00e-03,
760,-4.00e-03,
761,-8.00e-03,
762,-8.00e-03,
763,-4.00e-03,
764,-4.00e-03,
765,-8.00e-03,
766,-8.00e-03,
767,-8.00e-03,
768,-4.00e-03,
769,-4.00e-03,
770,-8.00e-03,
771,-1.20e-02,
772,-8.00e-03,
773,-4.00e-03,
774,-8.00e-03,
775,-4.00e-03,
776,-4.00e-03,
777,0.00e+00,
778,-8.00e-03,
779,-4.00e-03,
780,-4.00e-03,
781,-4.00e-03,
782,-4.00e-03,
783,-8.00e-03,
784,-2.40e-02,
785,-8.00e-03,
786,8.00e-03,
787,-4.00e-03,
788,-4.00e-03,
789,-4.00e-03,
790,-4.00e-03,
791,-8.00e-03,
792,-4.00e-03,
793,-4.00e-03,
794,-8.00e-03,
795,-1.20e-02,
796,-8.00e-03,
797,0.00e+00,
798,-1.20e-02,
799,-4.00e-03,
800,-8.00e-03,
801,-8.00e-03,
802,-8.00e-03,
803,-8.00e-03,
804,-8.00e-03,
805,-1.20e-02,
806,-1.20e-02,
807,-8.00e-03,
808,-1.60e-02,
809,-4.00e-03,
810,-2.40e-02,
811,0.00e+00,
812,-8.00e-03,
813,-1.20e-02,
814,-8.00e-03,
815,-8.00e-03,
816,0.00e+00,
817,-8.00e-03,
818,4.00e-03,
819,-4.00e-03,
820,-4.00e-03,
821,-4.00e-03,
822,-8.00e-03,
823,-8.00e-03,
824,-4.00e-03,
825,-8.00e-03,
826,-8.00e-03,
827,-1.20e-02,
828,-4.00e-03,
829,-4.00e-03,
830,-1.60e-02,
831,-4.00e-03,
832,-8.00e-03,
833,-4.00e-03,
834,-8.00e-03,
835,-4.00e-03,
836,-4.00e-03,
837,0.00e+00,
838,-8.00e-03,
839,-8.00e-03,
840,-8.00e-03,
841,-1.20e-02,
842,4.00e-03,
843,-2.40e-02,
844,-4.00e-03,
845,0.00e+00,
846,-4.00e-03,
847,-8.00e-03,
848,-4.00e-03,
849,-8.00e-03,
850,-8.00e-03,
851,-4.00e-03,
852,-8.00e-03,
853,-8.00e-03,
854,4.00e-03,
855,-1.60e-02,
856,4.00e-03,
857,-8.00e-03,
858,-4.00e-03,
859,-8.00e-03,
860,-1.20e-02,
861,-4.00e-03,
862,-1.20e-02,
863,-8.00e-03,
864,-8.00e-03,
865,-8.00e-03,
866,-4.00e-03,
867,-1.20e-02,
868,-8.00e-03,
869,-8.00e-03,
870,-8.00e-03,
871,-1.20e-02,
872,-8.00e-03,
873,-1.60e-02,
874,-8.00e-03,
875,0.00e+00,
876,-4.00e-03,
877,-1.20e-02,
878,0.00e+00,
879,0.00e+00,
880,-4.00e-03,
881,-4.00e-03,
882,-8.00e-03,
883,-4.00e-03,
884,-8.00e-03,
885,-4.00e-03,
886,-4.00e-03,
887,-4.00e-03,
888,-4.00e-03,
889,-4.00e-03,
890,4.00e-03,
891,-4.00e-03,
892,-4.00e-03,
893,-4.00e-03,
894,-4.00e-03,
895,-4.00e-03,
896,4.00e-03,
897,-8.00e-03,
898,0.00e+00,
899,0.00e+00,
900,-4.00e-03,
901,-8.00e-03,
902,-1.20e-02,
903,-8.00e-03,
904,-4.00e-03,
905,-8.00e-03,
906,-8.00e-03,
907,-4.00e-03,
908,-8.00e-03,
909,-1.20e-02,
910,-8.00e-03,
911,-4.00e-03,
912,-4.00e-03,
913,-1.20e-02,
914,-8.00e-03,
915,-1.60e-02,
916,-8.00e-03,
917,-8.00e-03,
918,-8.00e-03,
919,-4.00e-03,
920,0.00e+00,
921,-4.00e-03,
922,-8.00e-03,
923,-1.60e-02,
924,-8.00e-03,
925,-8.00e-03,
926,-8.00e-03,
927,-8.00e-03,
928,-8.00e-03,
929,0.00e+00,
930,-8.00e-03,
931,-1.20e-02,
932,-4.00e-03,
933,-4.00e-03,
934,-4.00e-03,
935,0.00e+00,
936,-8.00e-03,
937,-8.00e-03,
938,-8.00e-03,
939,-8.00e-03,
940,-4.00e-03,
941,-4.00e-03,
942,-8.00e-03,
943,-8.00e-03,
944,-4.00e-03,
945,-1.60e-02,
946,0.00e+00,
947,-8.00e-03,
948,-8.00e-03,
949,-8.00e-03,
950,-8.00e-03,
951,-8.00e-03,
952,-8.00e-03,
953,-8.00e-03,
954,-1.20e-02,
955,-1.20e-02,
956,-8.00e-03,
957,-1.60e-02,
958,-1.20e-02,
959,-4.00e-03,
960,-8.00e-03,
961,-8.00e-03,
962,-8.00e-03,
963,0.00e+00,
964,-4.00e-03,
965,-4.00e-03,
966,-4.00e-03,
967,-3.20e-02,
968,-8.00e-03,
969,-4.00e-03,
970,-4.00e-03,
971,-4.00e-03,
972,-2.80e-02,
973,-8.00e-03,
974,-8.00e-03,
975,-1.20e-02,
976,0.00e+00,
977,-2.80e-02,
978,0.00e+00,
979,0.00e+00,
980,-4.00e-03,
981,-4.00e-03,
982,-1.20e-02,
983,-4.00e-03,
984,-8.00e-03,
985,-8.00e-03,
986,-8.00e-03,
987,-8.00e-03,
988,-4.00e-03,
989,0.00e+00,
990,-4.00e-03,
991,-8.00e-03,
992,0.00e+00,
993,-4.00e-03,
994,-1.20e-02,
995,-8.00e-03,
996,-4.00e-03,
997,-4.00e-03,
998,-8.00e-03,
999,2.00e-02,
1000,-1.20e-02,
1001,-4.00e-03,
1002,-1.20e-02,
1003,0.00e+00,
1004,-4.00e-03,
1005,-1.20e-02,
1006,-2.40e-02,
1007,-4.00e-03,
1008,0.00e+00,
1009,-4.00e-03,
1010,-8.00e-03,
1011,-1.60e-02,
1012,-1.20e-02,
1013,-8.00e-03,
1014,0.00e+00,
1015,0.00e+00,
1016,0.00e+00,
1017,-4.00e-03,
1018,-1.20e-02,
1019,0.00e+00,
1020,-1.20e-02,
1021,-1.60e-02,
1022,-8.00e-03,
1023,-8.00e-03,
1024,-8.00e-03,
1025,4.00e-03,
1026,-8.00e-03,
1027,-8.00e-03,
1028,0.00e+00,
1029,-8.00e-03,
1030,-1.20e-02,
1031,-8.00e-03,
1032,0.00e+00,
1033,1.20e-02,
1034,0.00e+00,
1035,0.00e+00,
1036,-2.40e-02,
1037,-8.00e-03,
1038,-1.20e-02,
1039,-8.00e-03,
1040,-2.80e-02,
1041,-8.00e-03,
1042,-1.60e-02,
1043,-8.00e-03,
1044,-8.00e-03,
1045,-8.00e-03,
1046,-1.60e-02,
1047,0.00e+00,
1048,-8.00e-03,
1049,0.00e+00,
1050,-8.00e-03,
1051,-4.00e-03,
1052,-2.40e-02,
1053,-4.00e-03,
1054,-1.60e-02,
1055,-8.00e-03,
1056,-1.20e-02,
1057,-4.00e-03,
1058,-8.00e-03,
1059,-4.00e-03,
1060,-1.20e-02,
1061,0.00e+00,
1062,-4.00e-03,
1063,-4.00e-03,
1064,0.00e+00,
1065,-4.00e-03,
1066,-1.20e-02,
1067,-8.00e-03,
1068,-1.20e-02,
1069,-4.00e-03,
1070,-1.20e-02,
1071,-4.00e-03,
1072,0.00e+00,
1073,-8.00e-03,
1074,-1.20e-02,
1075,-1.20e-02,
1076,-2.40e-02,
1077,-8.00e-03,
1078,-4.00e-03,
1079,-8.00e-03,
1080,-1.20e-02,
1081,-4.00e-03,
1082,-8.00e-03,
1083,-4.00e-03,
1084,0.00e+00,
1085,-1.20e-02,
1086,-8.00e-03,
1087,-8.00e-03,
1088,-4.00e-03,
1089,-4.00e-03,
1090,-8.00e-03,
1091,-8.00e-03,
1092,-1.20e-02,
1093,-8.00e-03,
1094,-8.00e-03,
1095,-4.00e-03,
1096,-4.00e-03,
1097,-4.00e-03,
1098,-4.00e-03,
1099,-8.00e-03,
1100,-4.00e-03,
1101,-8.00e-03,
1102,-4.00e-03,
1103,-8.00e-03,
1104,-4.00e-03,
1105,-8.00e-03,
1106,-8.00e-03,
1107,-4.00e-03,
1108,-1.20e-02,
1109,-8.00e-03,
1110,-4.00e-03,
1111,-8.00e-03,
1112,-8.00e-03,
1113,-4.00e-03,
1114,-8.00e-03,
1115,0.00e+00,
1116,-8.00e-03,
1117,-8.00e-03,
1118,-4.00e-03,
1119,-8.00e-03,
1120,-8.00e-03,
1121,-4.00e-03,
1122,-8.00e-03,
1123,-8.00e-03,
1124,-4.00e-03,
1125,-8.00e-03,
1126,-4.00e-03,
1127,-4.00e-03,
1128,-4.00e-03,
1129,-8.00e-03,
1130,-4.00e-03,
1131,0.00e+00,
1132,-8.00e-03,
1133,-4.00e-03,
1134,-8.00e-03,
1135,-8.00e-03,
1136,-4.00e-03,
1137,-4.00e-03,
1138,-8.00e-03,
1139,-4.00e-03,
1140,-1.20e-02,
1141,-4.00e-03,
1142,-8.00e-03,
1143,-8.00e-03,
1144,-8.00e-03,
1145,0.00e+00,
1146,-4.00e-03,
1147,-4.00e-03,
1148,-8.00e-03,
1149,-1.20e-02,
1150,-4.00e-03,
1151,-1.20e-02,
1152,-8.00e-03,
1153,-4.00e-03,
1154,-8.00e-03,
1155,-8.00e-03,
1156,-4.00e-03,
1157,-8.00e-03,
1158,-8.00e-03,
1159,-8.00e-03,
1160,-4.00e-03,
1161,-8.00e-03,
1162,-4.00e-03,
1163,-4.00e-03,
1164,-4.00e-03,
1165,-1.20e-02,
1166,-4.00e-03,
1167,-4.00e-03,
1168,-1.20e-02,
1169,-8.00e-03,
1170,-4.00e-03,
1171,-8.00e-03,
1172,-4.00e-03,
1173,-1.20e-02,
1174,-8.00e-03,
1175,-4.00e-03,
1176,-8.00e-03,
1177,-4.00e-03,
1178,-8.00e-03,
1179,-8.00e-03,
1180,-8.00e-03,
1181,-4.00e-03,
1182,0.00e+00,
1183,-4.00e-03,
1184,-4.00e-03,
1185,-4.00e-03,
1186,-1.20e-02,
1187,-8.00e-03,
1188,0.00e+00,
1189,-8.00e-03,
1190,-4.00e-03,
1191,-8.00e-03,
1192,0.00e+00,
1193,-8.00e-03,
1194,-1.20e-02,
1195,-8.00e-03,
1196,-4.00e-03,
1197,-8.00e-03,
1198,-4.00e-03,
1199,-8.00e-03,
1200,-4.00e-03,
1201,-4.00e-03,
1202,-4.00e-03,
1203,-4.00e-03,
1204,-8.00e-03,
1205,-4.00e-03,
1206,-4.00e-03,
1207,-4.00e-03,
1208,-4.00e-03,
1209,-8.00e-03,
1210,-8.00e-03,
1211,-8.00e-03,
1212,-4.00e-03,
1213,-8.00e-03,
1214,-8.00e-03,
1215,-4.00e-03,
1216,-4.00e-03,
1217,-4.00e-03,
1218,-4.00e-03,
1219,-8.00e-03,
1220,-8.00e-03,
1221,-8.00e-03,
1222,-8.00e-03,
1223,-8.00e-03,
1224,-8.00e-03,
1225,-8.00e-03,
1226,-4.00e-03,
1227,-8.00e-03,
1228,-4.00e-03,
1229,-4.00e-03,
1230,-1.20e-02,
1231,-8.00e-03,
1232,-8.00e-03,
1233,-8.00e-03,
1234,-4.00e-03,
1235,-4.00e-03,
1236,-4.00e-03,
1237,-8.00e-03,
1238,-8.00e-03,
1239,-4.00e-03,
1240,-4.00e-03,
1241,-4.00e-03,
1242,-8.00e-03,
1243,-8.00e-03,
1244,0.00e+00,
1245,-8.00e-03,
1246,-8.00e-03,
1247,-8.00e-03,
1248,-8.00e-03,
1249,-4.00e-03,
1250,-4.00e-03,
1251,-8.00e-03,
1252,-8.00e-03,
1253,-4.00e-03,
1254,-8.00e-03,
1255,-4.00e-03,
1256,-8.00e-03,
1257,-8.00e-03,
1258,-4.00e-03,
1259,-4.00e-03,
1260,-1.20e-02,
1261,-8.00e-03,
1262,-8.00e-03,
1263,-8.00e-03,
1264,-8.00e-03,
1265,0.00e+00,
1266,-4.00e-03,
1267,-4.00e-03,
1268,0.00e+00,
1269,-4.00e-03,
1270,-8.00e-03,
1271,-4.00e-03,
1272,-4.00e-03,
1273,-4.00e-03,
1274,-4.00e-03,
1275,-8.00e-03,
1276,-8.00e-03,
1277,-4.00e-03,
1278,-8.00e-03,
1279,-4.00e-03,
1280,-8.00e-03,
1281,-4.00e-03,
1282,-8.00e-03,
1283,-4.00e-03,
1284,-4.00e-03,
1285,-4.00e-03,
1286,-8.00e-03,
1287,-4.00e-03,
1288,-8.00e-03,
1289,-8.00e-03,
1290,-8.00e-03,
1291,-2.40e-02,
1292,-8.00e-03,
1293,-4.00e-03,
1294,-1.20e-02,
1295,-4.00e-03,
1296,-8.00e-03,
1297,-4.00e-03,
1298,-4.00e-03,
1299,-1.20e-02,
1300,-1.20e-02,
1301,-8.00e-03,
1302,-1.20e-02,
1303,-1.20e-02,
1304,-8.00e-03,
1305,-8.00e-03,
1306,-4.00e-03,
1307,-4.00e-03,
1308,-8.00e-03,
1309,-8.00e-03,
1310,-1.20e-02,
1311,-2.40e-02,
1312,-8.00e-03,
1313,-4.00e-03,
1314,-8.00e-03,
1315,-8.00e-03,
1316,-8.00e-03,
1317,-8.00e-03,
1318,-8.00e-03,
1319,-4.00e-03,
1320,0.00e+00,
1321,0.00e+00,
1322,-8.00e-03,
1323,-8.00e-03,
1324,0.00e+00,
