final_data/6G12.csv

X,CH1,Start,Increment,
Sequence,Volt,-6.000000e-01,2.000000e-05
0,-8.00e-03,
1,-8.00e-03,
2,0.00e+00,
3,-8.00e-03,
4,-8.00e-03,
5,-8.00e-03,
6,-8.00e-03,
7,-8.00e-03,
8,-1.20e-02,
9,-8.00e-03,
10,-1.20e-02,
11,-1.20e-02,
12,-8.00e-03,
13,-1.60e-02,
14,-1.20e-02,
15,-8.00e-03,
16,-8.00e-03,
17,0.00e+00,
18,-1.20e-02,
19,-8.00e-03,
20,-8.00e-03,
21,-1.20e-02,
22,-8.00e-03,
23,-1.20e-02,
24,-1.60e-02,
25,-4.00e-03,
26,-4.00e-03,
27,-8.00e-03,
28,-1.20e-02,
29,-4.00e-03,
30,-8.00e-03,
31,-8.00e-03,
32,0.00e+00,
33,-1.20e-02,
34,-8.00e-03,
35,-1.20e-02,
36,-2.80e-02,
37,1.20e-02,
38,-8.00e-03,
39,-2.40e-02,
40,0.00e+00,
41,-4.00e-03,
42,4.00e-03,
43,-1.20e-02,
44,-2.80e-02,
45,0.00e+00,
46,2.00e-02,
47,0.00e+00,
48,-3.20e-02,
49,-1.60e-02,
50,-8.00e-03,
51,-8.00e-03,
52,-4.00e-03,
53,-8.00e-03,
54,-1.20e-02,
55,-1.20e-02,
56,-1.20e-02,
57,0.00e+00,
58,-1.60e-02,
59,-2.40e-02,
60,-8.00e-03,
61,-1.20e-02,
62,-1.20e-02,
63,-4.00e-03,
64,-2.40e-02,
65,-1.60e-02,
66,-1.20e-02,
67,-8.00e-03,
68,-8.00e-03,
69,-1.60e-02,
70,-8.00e-03,
71,-1.20e-02,
72,-1.20e-02,
73,-1.20e-02,
74,-8.00e-03,
75,-4.00e-03,
76,-1.20e-02,
77,-1.20e-02,
78,-4.00e-03,
79,-8.00e-03,
80,-4.00e-03,
81,-4.00e-03,
82,-8.00e-03,
83,-4.00e-03,
84,-8.00e-03,
85,-8.00e-03,
86,-1.20e-02,
87,-1.20e-02,
88,-4.00e-03,
89,-1.20e-02,
90,-4.00e-03,
91,-2.40e-02,
92,-8.00e-03,
93,-8.00e-03,
94,-4.00e-03,
95,-1.60e-02,
96,-1.20e-02,
97,-4.00e-03,
98,-1.20e-02,
99,0.00e+00,
100,0.00e+00,
101,-2.40e-02,
102,0.00e+00,
103,-2.40e-02,
104,-8.00e-03,
105,-2.40e-02,
106,-8.00e-03,
107,-4.00e-03,
108,-1.20e-02,
109,-4.00e-03,
110,-4.00e-03,
111,0.00e+00,
112,-8.00e-03,
113,4.00e-03,
114,-8.00e-03,
115,4.00e-03,
116,-8.00e-03,
117,-4.00e-03,
118,-8.00e-03,
119,-1.20e-02,
120,-1.20e-02,
121,-1.20e-02,
122,-4.00e-03,
123,-8.00e-03,
124,-8.00e-03,
125,-4.00e-03,
126,-8.00e-03,
127,-1.60e-02,
128,-4.00e-03,
129,-1.60e-02,
130,-4.00e-03,
131,0.00e+00,
132,-4.00e-03,
133,-4.00e-03,
134,-1.20e-02,
135,-1.60e-02,
136,-4.00e-03,
137,-4.00e-03,
138,-8.00e-03,
139,-8.00e-03,
140,-1.20e-02,
141,-1.60e-02,
142,-1.20e-02,
143,-1.20e-02,
144,-8.00e-03,
145,-1.20e-02,
146,-8.00e-03,
147,-1.20e-02,
148,-4.00e-03,
149,-8.00e-03,
150,-4.00e-03,
151,-4.00e-03,
152,-8.00e-03,
153,-8.00e-03,
154,0.00e+00,
155,-1.20e-02,
156,-8.00e-03,
157,-1.60e-02,
158,-4.00e-03,
159,-1.60e-02,
160,-8.00e-03,
161,-4.00e-03,
162,-8.00e-03,
163,-4.00e-03,
164,-8.00e-03,
165,-1.20e-02,
166,-8.00e-03,
167,-1.20e-02,
168,-8.00e-03,
169,-8.00e-03,
170,-8.00e-03,
171,-4.00e-03,
172,-8.00e-03,
173,-8.00e-03,
174,-8.00e-03,
175,-8.00e-03,
176,-4.00e-03,
177,-8.00e-03,
178,-1.20e-02,
179,-8.00e-03,
180,-8.00e-03,
181,-8.00e-03,
182,-8.00e-03,
183,-8.00e-03,
184,-8.00e-03,
185,-1.20e-02,
186,-8.00e-03,
187,-8.00e-03,
188,-8.00e-03,
189,-1.20e-02,
190,-8.00e-03,
191,-4.00e-03,
192,-8.00e-03,
193,-8.00e-03,
194,-8.00e-03,
195,-4.00e-03,
196,-8.00e-03,
197,-4.00e-03,
198,-8.00e-03,
199,-8.00e-03,
200,-8.00e-03,
201,-8.00e-03,
202,-4.00e-03,
203,-8.00e-03,
204,-4.00e-03,
205,-4.00e-03,
206,-8.00e-03,
207,-8.00e-03,
208,-1.20e-02,
209,-4.00e-03,
210,-8.00e-03,
211,-1.20e-02,
212,-1.20e-02,
213,-4.00e-03,
214,-1.20e-02,
215,-4.00e-03,
216,-8.00e-03,
217,-8.00e-03,
218,-8.00e-03,
219,-8.00e-03,
220,-8.00e-03,
221,-4.00e-03,
222,-8.00e-03,
223,-8.00e-03,
224,-8.00e-03,
225,-1.20e-02,
226,-1.20e-02,
227,-1.20e-02,
228,-8.00e-03,
229,-8.00e-03,
230,-4.00e-03,
231,-4.00e-03,
232,-4.00e-03,
233,-1.20e-02,
234,-8.00e-03,
235,-8.00e-03,
236,-8.00e-03,
237,0.00e+00,
238,-4.00e-03,
239,-4.00e-03,
240,-8.00e-03,
241,-8.00e-03,
242,-4.00e-03,
243,-8.00e-03,
244,-1.20e-02,
245,-4.00e-03,
246,-8.00e-03,
247,-4.00e-03,
248,-4.00e-03,
249,-8.00e-03,
250,-1.20e-02,
251,-4.00e-03,
252,-4.00e-03,
253,-8.00e-03,
254,-1.20e-02,
255,-8.00e-03,
256,-8.00e-03,
257,0.00e+00,
258,-8.00e-03,
259,0.00e+00,
260,-8.00e-03,
261,-1.20e-02,
262,-4.00e-03,
263,-4.00e-03,
264,-4.00e-03,
265,-4.00e-03,
266,-8.00e-03,
267,-1.20e-02,
268,-1.20e-02,
269,-8.00e-03,
270,-8.00e-03,
271,-1.20e-02,
272,-1.20e-02,
273,-8.00e-03,
274,-4.00e-03,
275,-1.20e-02,
276,-1.20e-02,
277,-8.00e-03,
278,-8.00e-03,
279,-8.00e-03,
280,-8.00e-03,
281,-4.00e-03,
282,-8.00e-03,
283,-8.00e-03,
284,-8.00e-03,
285,-8.00e-03,
286,-4.00e-03,
287,-4.00e-03,
288,-8.00e-03,
289,-8.00e-03,
290,-8.00e-03,
291,-8.00e-03,
292,-1.20e-02,
293,-8.00e-03,
294,-1.20e-02,
295,-1.20e-02,
296,-8.00e-03,
297,-8.00e-03,
298,-4.00e-03,
299,-4.00e-03,
300,-4.00e-03,
301,-8.00e-03,
302,-8.00e-03,
303,-4.00e-03,
304,-8.00e-03,
305,-8.00e-03,
306,-8.00e-03,
307,-8.00e-03,
308,-1.20e-02,
309,-8.00e-03,
310,-8.00e-03,
311,-8.00e-03,
312,-8.00e-03,
313,-4.00e-03,
314,-8.00e-03,
315,-8.00e-03,
316,-8.00e-03,
317,0.00e+00,
318,-8.00e-03,
319,-4.00e-03,
320,-8.00e-03,
321,-8.00e-03,
322,-1.20e-02,
323,-8.00e-03,
324,-4.00e-03,
325,-8.00e-03,
326,-8.00e-03,
327,-8.00e-03,
328,-4.00e-03,
329,-8.00e-03,
330,-8.00e-03,
331,-1.60e-02,
332,-8.00e-03,
333,-1.20e-02,
334,-8.00e-03,
335,-8.00e-03,
336,-1.20e-02,
337,-1.20e-02,
338,-4.00e-03,
339,-8.00e-03,
340,-8.00e-03,
341,-1.20e-02,
342,-8.00e-03,
343,-4.00e-03,
344,-8.00e-03,
345,-8.00e-03,
346,-4.00e-03,
347,-4.00e-03,
348,-2.40e-02,
349,-8.00e-03,
350,-8.00e-03,
351,-8.00e-03,
352,-4.00e-03,
353,-1.20e-02,
354,-8.00e-03,
355,-1.20e-02,
356,-8.00e-03,
357,-1.60e-02,
358,-8.00e-03,
359,-1.20e-02,
360,-1.20e-02,
361,-1.20e-02,
362,-8.00e-03,
363,-4.00e-03,
364,-8.00e-03,
365,-8.00e-03,
366,-4.00e-03,
367,-4.00e-03,
368,-1.20e-02,
369,-4.00e-03,
370,4.00e-03,
371,-8.00e-03,
372,-4.00e-03,
373,-4.00e-03,
374,-4.00e-03,
375,-8.00e-03,
376,-8.00e-03,
377,0.00e+00,
378,-1.20e-02,
379,-1.20e-02,
380,-1.20e-02,
381,-1.60e-02,
382,-1.60e-02,
383,-1.60e-02,
384,-8.00e-03,
385,-8.00e-03,
386,-8.00e-03,
387,-8.00e-03,
388,-8.00e-03,
389,-4.00e-03,
390,-4.00e-03,
391,-4.00e-03,
392,-8.00e-03,
393,-8.00e-03,
394,0.00e+00,
395,-8.00e-03,
396,-1.20e-02,
397,-8.00e-03,
398,-8.00e-03,
399,-8.00e-03,
400,-1.20e-02,
401,-4.00e-03,
402,-8.00e-03,
403,0.00e+00,
404,-8.00e-03,
405,-1.60e-02,
406,0.00e+00,
407,0.00e+00,
408,-4.00e-03,
409,0.00e+00,
410,-8.00e-03,
411,-4.00e-03,
412,-8.00e-03,
413,-4.00e-03,
414,-8.00e-03,
415,-1.20e-02,
416,-8.00e-03,
417,-4.00e-03,
418,0.00e+00,
419,-8.00e-03,
420,-2.40e-02,
421,-8.00e-03,
422,-1.20e-02,
423,-1.60e-02,
424,-1.60e-02,
425,-8.00e-03,
426,-1.20e-02,
427,-8.00e-03,
428,-8.00e-03,
429,-1.60e-02,
430,-4.00e-03,
431,-8.00e-03,
432,-8.00e-03,
433,-1.20e-02,
434,-4.00e-03,
435,-4.00e-03,
436,-4.00e-03,
437,-1.20e-02,
438,-8.00e-03,
439,-8.00e-03,
440,-4.00e-03,
441,-4.00e-03,
442,-8.00e-03,
443,-8.00e-03,
444,-8.00e-03,
445,-8.00e-03,
446,-8.00e-03,
447,-8.00e-03,
448,0.00e+00,
449,-1.20e-02,
450,-1.20e-02,
451,-1.20e-02,
452,-8.00e-03,
453,-8.00e-03,
454,-8.00e-03,
455,-8.00e-03,
456,-8.00e-03,
457,-1.20e-02,
458,-1.20e-02,
459,-1.20e-02,
460,-4.00e-03,
461,-4.00e-03,
462,-8.00e-03,
463,-4.00e-03,
464,-8.00e-03,
465,-1.60e-02,
466,-4.00e-03,
467,-4.00e-03,
468,-8.00e-03,
469,-1.20e-02,
470,0.00e+00,
471,-8.00e-03,
472,-8.00e-03,
473,0.00e+00,
474,-1.20e-02,
475,-1.20e-02,
476,-8.00e-03,
477,-8.00e-03,
478,-1.20e-02,
479,-1.20e-02,
480,0.00e+00,
481,-1.20e-02,
482,-1.20e-02,
483,-4.00e-03,
484,-4.00e-03,
485,0.00e+00,
486,-4.00e-03,
487,-8.00e-03,
488,-1.60e-02,
489,-8.00e-03,
490,-4.00e-03,
491,-4.00e-03,
492,-4.00e-03,
493,-1.20e-02,
494,-8.00e-03,
495,-8.00e-03,
496,-8.00e-03,
497,-8.00e-03,
498,-8.00e-03,
499,-8.00e-03,
500,-1.20e-02,
501,-8.00e-03,
502,-8.00e-03,
503,-4.00e-03,
504,-8.00e-03,
505,-1.60e-02,
506,-4.00e-03,
507,-8.00e-03,
508,-8.00e-03,
509,-8.00e-03,
510,-1.20e-02,
511,-4.00e-03,
512,-8.00e-03,
513,-4.00e-03,
514,-1.20e-02,
515,-8.00e-03,
516,-8.00e-03,
517,-4.00e-03,
518,-8.00e-03,
519,0.00e+00,
520,-8.00e-03,
521,-8.00e-03,
522,4.00e-03,
523,-8.00e-03,
524,-4.00e-03,
525,-8.00e-03,
526,-8.00e-03,
527,-1.20e-02,
528,0.00e+00,
529,-8.00e-03,
530,-4.00e-03,
531,-1.20e-02,
532,-1.20e-02,
533,0.00e+00,
534,-1.60e-02,
535,-8.00e-03,
536,-1.20e-02,
537,-8.00e-03,
538,-1.20e-02,
539,-8.00e-03,
540,-8.00e-03,
541,-1.20e-02,
542,-4.00e-03,
543,-8.00e-03,
544,-8.00e-03,
545,-4.00e-03,
546,-8.00e-03,
547,-4.00e-03,
548,-8.00e-03,
549,-1.20e-02,
550,-1.60e-02,
551,-1.20e-02,
552,-4.00e-03,
553,-2.40e-02,
554,-1.60e-02,
555,-8.00e-03,
556,-1.60e-02,
557,-8.00e-03,
558,-4.00e-03,
559,-8.00e-03,
560,-8.00e-03,
561,-2.40e-02,
562,-8.00e-03,
563,-4.00e-03,
564,-8.00e-03,
565,-1.20e-02,
566,-2.40e-02,
567,-4.00e-03,
568,-8.00e-03,
569,0.00e+00,
570,0.00e+00,
571,-4.00e-03,
572,4.00e-03,
573,-1.20e-02,
574,-4.00e-03,
575,-8.00e-03,
576,0.00e+00,
577,-1.60e-02,
578,-8.00e-03,
579,-1.20e-02,
580,-8.00e-03,
581,4.00e-03,
582,-8.00e-03,
583,-1.20e-02,
584,-4.00e-03,
585,8.00e-03,
586,-1.20e-02,
587,-8.00e-03,
588,-1.20e-02,
589,-1.20e-02,
590,-8.00e-03,
591,-1.20e-02,
592,-4.00e-03,
593,-1.20e-02,
594,-4.00e-03,
595,-1.20e-02,
596,-2.40e-02,
597,-8.00e-03,
598,-1.20e-02,
599,-1.60e-02,
600,-4.00e-03,
601,-8.00e-03,
602,-8.00e-03,
603,-8.00e-03,
604,-2.40e-02,
605,-4.00e-03,
606,-1.20e-02,
607,-1.20e-02,
608,-1.20e-02,
609,-8.00e-03,
610,-1.60e-02,
611,-8.00e-03,
612,-8.00e-03,
613,-8.00e-03,
614,-1.20e-02,
615,-8.00e-03,
616,-1.20e-02,
617,-1.20e-02,
618,-2.40e-02,
619,-4.00e-03,
620,-2.80e-02,
621,-8.00e-03,
622,-8.00e-03,
623,-8.00e-03,
624,-4.00e-03,
625,-8.00e-03,
626,-8.00e-03,
627,-8.00e-03,
628,-1.60e-02,
629,-1.20e-02,
630,-1.20e-02,
631,-1.20e-02,
632,-1.60e-02,
633,-4.00e-03,
634,-8.00e-03,
635,-8.00e-03,
636,-8.00e-03,
637,-4.00e-03,
638,-1.60e-02,
639,-1.60e-02,
640,-1.60e-02,
641,-4.00e-03,
642,-8.00e-03,
643,0.00e+00,
644,0.00e+00,
645,-2.80e-02,
646,-1.20e-02,
647,0.00e+00,
648,-8.00e-03,
649,-1.20e-02,
650,-8.00e-03,
651,-4.00e-03,
652,-2.40e-02,
653,-8.00e-03,
654,-8.00e-03,
655,-8.00e-03,
656,-4.00e-03,
657,-8.00e-03,
658,-4.00e-03,
659,-8.00e-03,
660,-4.00e-03,
661,-1.20e-02,
662,-8.00e-03,
663,-1.20e-02,
664,-4.00e-03,
665,-8.00e-03,
666,-4.00e-03,
667,-8.00e-03,
668,-8.00e-03,
669,-8.00e-03,
670,-8.00e-03,
671,-4.00e-03,
672,-4.00e-03,
673,-4.00e-03,
674,-8.00e-03,
675,-4.00e-03,
676,-8.00e-03,
677,-1.20e-02,
678,-8.00e-03,
679,-8.00e-03,
680,-8.00e-03,
681,-1.20e-02,
682,-4.00e-03,
683,-4.00e-03,
684,-8.00e-03,
685,0.00e+00,
686,-8.00e-03,
687,-8.00e-03,
688,-4.00e-03,
689,-8.00e-03,
690,-1.20e-02,
691,-4.00e-03,
692,-4.00e-03,
693,4.00e-03,
694,-1.20e-02,
695,-1.20e-02,
696,-8.00e-03,
697,-8.00e-03,
698,-8.00e-03,
699,-8.00e-03,
700,-8.00e-03,
701,-4.00e-03,
702,-4.00e-03,
703,-8.00e-03,
704,-4.00e-03,
705,-8.00e-03,
706,-8.00e-03,
707,-8.00e-03,
708,-8.00e-03,
709,-8.00e-03,
710,-1.20e-02,
711,-8.00e-03,
712,-8.00e-03,
713,-8.00e-03,
714,-8.00e-03,
715,-8.00e-03,
716,-8.00e-03,
717,-8.00e-03,
718,-1.20e-02,
719,-8.00e-03,
720,-8.00e-03,
721,-8.00e-03,
722,-8.00e-03,
723,-4.00e-03,
724,-1.20e-02,
725,-8.00e-03,
726,-8.00e-03,
727,-8.00e-03,
728,-4.00e-03,
729,-8.00e-03,
730,-8.00e-03,
731,-1.20e-02,
732,-8.00e-03,
733,-8.00e-03,
734,-4.00e-03,
735,-4.00e-03,
736,-8.00e-03,
737,-4.00e-03,
738,-4.00e-03,
739,-4.00e-03,
740,-8.00e-03,
741,-8.00e-03,
742,-4.00e-03,
743,-1.20e-02,
744,-8.00e-03,
745,-8.00e-03,
746,-1.20e-02,
747,-1.20e-02,
748,-8.00e-03,
749,-8.00e-03,
750,-4.00e-03,
751,-8.00e-03,
752,-8.00e-03,
753,-8.00e-03,
754,-4.00e-03,
755,-8.00e-03,
756,-4.00e-03,
757,-8.00e-03,
758,-8.00e-03,
759,-8.00e-03,
760,-8.00e-03,
761,-4.00e-03,
762,-8.00e-03,
763,-1.20e-02,
764,-4.00e-03,
765,-8.00e-03,
766,-8.00e-03,
767,-1.20e-02,
768,-1.20e-02,
769,-1.20e-02,
770,-8.00e-03,
771,-8.00e-03,
772,4.00e-03,
773,-4.00e-03,
774,-4.00e-03,
775,-1.60e-02,
776,-8.00e-03,
777,-8.00e-03,
778,-1.20e-02,
779,-1.20e-02,
780,-1.20e-02,
781,-8.00e-03,
782,-4.00e-03,
783,-8.00e-03,
784,-8.00e-03,
785,0.00e+00,
786,-8.00e-03,
787,-1.20e-02,
788,-8.00e-03,
789,-8.00e-03,
790,-4.00e-03,
791,-8.00e-03,
792,-4.00e-03,
793,-4.00e-03,
794,-1.60e-02,
795,-8.00e-03,
796,-1.20e-02,
797,-1.20e-02,
798,-8.00e-03,
799,-8.00e-03,
800,-4.00e-03,
801,-8.00e-03,
802,-8.00e-03,
803,-8.00e-03,
804,-8.00e-03,
805,-1.20e-02,
806,-4.00e-03,
807,-8.00e-03,
808,0.00e+00,
809,-8.00e-03,
810,-4.00e-03,
811,-8.00e-03,
812,-8.00e-03,
813,-8.00e-03,
814,-1.20e-02,
815,-1.20e-02,
816,-1.20e-02,
817,-8.00e-03,
818,-8.00e-03,
819,-8.00e-03,
820,-1.60e-02,
821,-1.60e-02,
822,-1.20e-02,
823,-1.60e-02,
824,-1.20e-02,
825,-8.00e-03,
826,-1.20e-02,
827,-8.00e-03,
828,-1.20e-02,
829,-8.00e-03,
830,-4.00e-03,
831,-8.00e-03,
832,-8.00e-03,
833,-1.20e-02,
834,-1.20e-02,
835,-8.00e-03,
836,-4.00e-03,
837,-8.00e-03,
838,-4.00e-03,
839,-4.00e-03,
840,-8.00e-03,
841,-8.00e-03,
842,-8.00e-03,
843,-8.00e-03,
844,-1.20e-02,
845,-1.20e-02,
846,-1.20e-02,
847,-8.00e-03,
848,-8.00e-03,
849,-1.20e-02,
850,-8.00e-03,
851,-1.20e-02,
852,0.00e+00,
853,-8.00e-03,
854,-4.00e-03,
855,-1.60e-02,
856,-1.60e-02,
857,-4.00e-03,
858,-1.20e-02,
859,-1.20e-02,
860,-8.00e-03,
861,-4.00e-03,
862,-4.00e-03,
863,-8.00e-03,
864,-8.00e-03,
865,4.00e-03,
866,-1.20e-02,
867,0.00e+00,
868,-8.00e-03,
869,-8.00e-03,
870,-8.00e-03,
871,-8.00e-03,
872,-1.60e-02,
873,-1.20e-02,
874,-2.40e-02,
875,-1.20e-02,
876,-1.20e-02,
877,-8.00e-03,
878,-1.20e-02,
879,-8.00e-03,
880,-8.00e-03,
881,-4.00e-03,
882,-1.20e-02,
883,-4.00e-03,
884,-4.00e-03,
885,-8.00e-03,
886,-8.00e-03,
887,-4.00e-03,
888,-8.00e-03,
889,0.00e+00,
890,-1.20e-02,
891,-1.60e-02,
892,-8.00e-03,
893,-1.20e-02,
894,-4.00e-03,
895,-1.20e-02,
896,-8.00e-03,
897,-8.00e-03,
898,-1.20e-02,
899,-1.60e-02,
900,-1.60e-02,
901,-8.00e-03,
902,-4.00e-03,
903,4.00e-03,
904,-8.00e-03,
905,-4.00e-03,
906,-8.00e-03,
907,-1.20e-02,
908,-8.00e-03,
909,-8.00e-03,
910,-1.20e-02,
911,-4.00e-03,
912,-4.00e-03,
913,-1.20e-02,
914,-8.00e-03,
915,0.00e+00,
916,-4.00e-03,
917,-8.00e-03,
918,0.00e+00,
919,-8.00e-03,
920,-8.00e-03,
921,-8.00e-03,
922,-4.00e-03,
923,-8.00e-03,
924,-8.00e-03,
925,-1.60e-02,
926,-8.00e-03,
927,-4.00e-03,
928,-4.00e-03,
929,-1.20e-02,
930,-1.20e-02,
931,-8.00e-03,
932,-1.60e-02,
933,-1.20e-02,
934,-8.00e-03,
935,-2.40e-02,
936,-8.00e-03,
937,-8.00e-03,
938,-8.00e-03,
939,-1.60e-02,
940,-1.60e-02,
941,-1.20e-02,
942,-4.00e-03,
943,-8.00e-03,
944,0.00e+00,
945,-4.00e-03,
946,-1.20e-02,
947,-8.00e-03,
948,-8.00e-03,
949,-8.00e-03,
950,-4.00e-03,
951,-4.00e-03,
952,-8.00e-03,
953,-8.00e-03,
954,-8.00e-03,
955,-8.00e-03,
956,-8.00e-03,
957,-8.00e-03,
958,-4.00e-03,
959,-4.00e-03,
960,-8.00e-03,
961,-1.60e-02,
962,-1.60e-02,
963,-1.60e-02,
964,-8.00e-03,
965,-1.20e-02,
966,-1.20e-02,
967,-1.20e-02,
968,-8.00e-03,
969,-8.00e-03,
970,-4.00e-03,
971,-1.20e-02,
972,-1.60e-02,
973,-8.00e-03,
974,-1.20e-02,
975,-1.20e-02,
976,-1.60e-02,
977,-8.00e-03,
978,-1.20e-02,
979,-8.00e-03,
980,-1.60e-02,
981,-8.00e-03,
982,-8.00e-03,
983,-8.00e-03,
984,-1.20e-02,
985,-4.00e-03,
986,-4.00e-03,
987,-8.00e-03,
988,-8.00e-03,
989,-8.00e-03,
990,-8.00e-03,
991,-8.00e-03,
992,-8.00e-03,
993,-8.00e-03,
994,-4.00e-03,
995,-8.00e-03,
996,-8.00e-03,
997,-4.00e-03,
998,-4.00e-03,
999,-8.00e-03,
1000,-8.00e-03,
1001,-1.20e-02,
1002,-1.20e-02,
1003,-8.00e-03,
1004,-8.00e-03,
1005,-8.00e-03,
1006,-8.00e-03,
1007,-8.00e-03,
1008,-8.00e-03,
1009,-8.00e-03,
1010,-8.00e-03,
1011,-1.20e-02,
1012,-8.00e-03,
1013,-8.00e-03,
1014,-8.00e-03,
1015,-8.00e-03,
1016,-8.00e-03,
1017,-8.00e-03,
1018,-1.60e-02,
1019,0.00e+00,
1020,-1.20e-02,
1021,-2.80e-02,
1022,-8.00e-03,
1023,-1.20e-02,
1024,-8.00e-03,
1025,-4.00e-03,
1026,-8.00e-03,
1027,8.00e-03,
1028,-8.00e-03,
1029,-1.20e-02,
1030,-4.00e-03,
1031,-8.00e-03,
1032,-3.20e-02,
1033,0.00e+00,
1034,-4.00e-03,
1035,-8.00e-03,
1036,-8.00e-03,
1037,-8.00e-03,
1038,-1.20e-02,
1039,-1.20e-02,
1040,-8.00e-03,
1041,-8.00e-03,
1042,-8.00e-03,
1043,0.00e+00,
1044,0.00e+00,
1045,-1.20e-02,
1046,-1.20e-02,
1047,-4.00e-03,
1048,-8.00e-03,
1049,-1.20e-02,
1050,-8.00e-03,
1051,4.00e-03,
1052,-3.20e-02,
1053,8.00e-03,
1054,-2.40e-02,
1055,-8.00e-03,
1056,-1.20e-02,
1057,-8.00e-03,
1058,-4.00e-03,
1059,-8.00e-03,
1060,-2.80e-02,
1061,-8.00e-03,
1062,0.00e+00,
1063,-8.00e-03,
1064,-1.20e-02,
1065,-8.00e-03,
1066,-2.80e-02,
1067,-1.20e-02,
1068,-8.00e-03,
1069,-8.00e-03,
1070,-1.20e-02,
1071,-1.60e-02,
1072,1.20e-02,
1073,-8.00e-03,
1074,-1.20e-02,
1075,-4.00e-03,
1076,-4.00e-03,
1077,-8.00e-03,
1078,-4.00e-03,
1079,-4.00e-03,
1080,-4.00e-03,
1081,-1.60e-02,
1082,-1.20e-02,
1083,-8.00e-03,
1084,-8.00e-03,
1085,-2.40e-02,
1086,-8.00e-03,
1087,4.00e-03,
1088,-1.60e-02,
1089,-8.00e-03,
1090,-1.20e-02,
1091,-4.00e-03,
1092,-1.20e-02,
1093,-8.00e-03,
1094,-4.00e-03,
1095,-8.00e-03,
1096,-8.00e-03,
1097,-4.00e-03,
1098,-8.00e-03,
1099,-8.00e-03,
1100,-4.00e-03,
1101,-1.20e-02,
1102,-8.00e-03,
1103,-8.00e-03,
1104,-1.20e-02,
1105,-4.00e-03,
1106,-8.00e-03,
1107,-8.00e-03,
1108,-8.00e-03,
1109,-8.00e-03,
1110,-8.00e-03,
1111,-8.00e-03,
1112,-1.20e-02,
1113,-1.20e-02,
1114,-4.00e-03,
1115,-8.00e-03,
1116,-1.20e-02,
1117,-4.00e-03,
1118,-8.00e-03,
1119,-4.00e-03,
1120,-8.00e-03,
1121,-8.00e-03,
1122,-8.00e-03,
1123,-8.00e-03,
1124,-8.00e-03,
1125,8.00e-03,
1126,-1.20e-02,
1127,-4.00e-03,
1128,-1.20e-02,
1129,-1.20e-02,
1130,-8.00e-03,
1131,-8.00e-03,
1132,-8.00e-03,
1133,-8.00e-03,
1134,-8.00e-03,
1135,-1.20e-02,
1136,-4.00e-03,
1137,-1.20e-02,
1138,-8.00e-03,
1139,-4.00e-03,
1140,-8.00e-03,
1141,-1.20e-02,
1142,-8.00e-03,
1143,-1.20e-02,
1144,-8.00e-03,
1145,-1.20e-02,
1146,-1.60e-02,
1147,-1.20e-02,
1148,-1.20e-02,
1149,-8.00e-03,
1150,-1.60e-02,
1151,-4.00e-03,
1152,-4.00e-03,
1153,-8.00e-03,
1154,-8.00e-03,
1155,-8.00e-03,
1156,-4.00e-03,
1157,-4.00e-03,
1158,-4.00e-03,
1159,-1.20e-02,
1160,-1.20e-02,
1161,-1.20e-02,
1162,-8.00e-03,
1163,-8.00e-03,
1164,-4.00e-03,
1165,-8.00e-03,
1166,-8.00e-03,
1167,-8.00e-03,
1168,-8.00e-03,
1169,-4.00e-03,
1170,-1.20e-02,
1171,-8.00e-03,
1172,-8.00e-03,
1173,-8.00e-03,
1174,-8.00e-03,
1175,-1.20e-02,
1176,-8.00e-03,
1177,-8.00e-03,
1178,-8.00e-03,
1179,-8.00e-03,
1180,-8.00e-03,
1181,-8.00e-03,
1182,-8.00e-03,
1183,-8.00e-03,
1184,-4.00e-03,
1185,-1.20e-02,
1186,-8.00e-03,
1187,-4.00e-03,
1188,-1.20e-02,
1189,-4.00e-03,
1190,-8.00e-03,
1191,-1.20e-02,
1192,-1.20e-02,
1193,-1.60e-02,
1194,-8.00e-03,
1195,-8.00e-03,
1196,-4.00e-03,
1197,-8.00e-03,
1198,-8.00e-03,
1199,-1.20e-02,
1200,-8.00e-03,
1201,-8.00e-03,
1202,-8.00e-03,
1203,-1.20e-02,
1204,-1.20e-02,
1205,-8.00e-03,
1206,-1.20e-02,
1207,-8.00e-03,
1208,-8.00e-03,
1209,-1.20e-02,
1210,0.00e+00,
1211,-1.60e-02,
1212,-1.60e-02,
1213,-8.00e-03,
1214,-8.00e-03,
1215,-8.00e-03,
1216,-4.00e-03,
1217,-8.00e-03,
1218,-1.20e-02,
1219,-4.00e-03,
1220,-1.20e-02,
1221,-8.00e-03,
1222,-1.20e-02,
1223,-8.00e-03,
1224,-1.20e-02,
1225,-8.00e-03,
1226,-8.00e-03,
1227,-8.00e-03,
1228,-1.60e-02,
1229,-8.00e-03,
1230,-8.00e-03,
1231,-8.00e-03,
1232,-8.00e-03,
1233,-1.20e-02,
1234,-8.00e-03,
1235,-8.00e-03,
1236,-1.20e-02,
1237,-4.00e-03,
1238,-8.00e-03,
1239,-4.00e-03,
1240,-8.00e-03,
1241,-8.00e-03,
1242,-8.00e-03,
1243,-4.00e-03,
1244,-1.20e-02,
1245,-4.00e-03,
1246,-8.00e-03,
1247,-4.00e-03,
1248,-1.20e-02,
1249,-4.00e-03,
1250,-1.20e-02,
1251,-4.00e-03,
1252,-8.00e-03,
1253,-8.00e-03,
1254,-4.00e-03,
1255,-8.00e-03,
1256,-8.00e-03,
1257,-1.20e-02,
1258,-8.00e-03,
1259,4.00e-03,
1260,-8.00e-03,
1261,-8.00e-03,
1262,-8.00e-03,
1263,-1.20e-02,
1264,-1.60e-02,
1265,-1.20e-02,
1266,-8.00e-03,
1267,-8.00e-03,
1268,-1.20e-02,
1269,-1.20e-02,
1270,-8.00e-03,
1271,-4.00e-03,
1272,-8.00e-03,
1273,-1.20e-02,
1274,-1.20e-02,
1275,-8.00e-03,
1276,-8.00e-03,
1277,-8.00e-03,
1278,-8.00e-03,
1279,-4.00e-03,
1280,-1.20e-02,
1281,-4.00e-03,
1282,-8.00e-03,
1283,-8.00e-03,
1284,-4.00e-03,
1285,-8.00e-03,
1286,-8.00e-03,
1287,-4.00e-03,
1288,-1.20e-02,
1289,-1.20e-02,
1290,-8.00e-03,
1291,-4.00e-03,
1292,-3.20e-02,
1293,-8.00e-03,
1294,-8.00e-03,
1295,-4.00e-03,
1296,-4.00e-03,
1297,-8.00e-03,
1298,-8.00e-03,
1299,0.00e+00,
1300,-1.20e-02,
1301,-8.00e-03,
1302,-8.00e-03,
1303,-4.00e-03,
1304,-8.00e-03,
1305,-8.00e-03,
1306,-8.00e-03,
1307,-1.20e-02,
1308,-8.00e-03,
1309,-8.00e-03,
1310,-1.20e-02,
1311,-8.00e-03,
1312,-8.00e-03,
1313,-8.00e-03,
1314,-8.00e-03,
1315,-4.00e-03,
1316,-8.00e-03,
1317,-8.00e-03,
1318,-8.00e-03,
1319,-8.00e-03,
