final_data/6G13.csv

X,CH1,Start,Increment,
Sequence,Volt,-6.000000e-01,2.000000e-05
0,-4.00e-03,
1,-4.00e-03,
2,-8.00e-03,
3,0.00e+00,
4,-4.00e-03,
5,-4.00e-03,
6,-1.20e-02,
7,0.00e+00,
8,-4.00e-03,
9,-4.00e-03,
10,-8.00e-03,
11,-8.00e-03,
12,-8.00e-03,
13,4.00e-03,
14,-1.20e-02,
15,-4.00e-03,
16,-4.00e-03,
17,0.00e+00,
18,-8.00e-03,
19,-8.00e-03,
20,-1.20e-02,
21,-4.00e-03,
22,-4.00e-03,
23,-4.00e-03,
24,-4.00e-03,
25,-8.00e-03,
26,-8.00e-03,
27,0.00e+00,
28,-8.00e-03,
29,-4.00e-03,
30,-4.00e-03,
31,-4.00e-03,
32,-1.20e-02,
33,-8.00e-03,
34,-8.00e-03,
35,-1.20e-02,
36,-8.00e-03,
37,-4.00e-03,
38,-1.20e-02,
39,-8.00e-03,
40,-8.00e-03,
41,-8.00e-03,
42,-4.00e-03,
43,-4.00e-03,
44,-4.00e-03,
45,-4.00e-03,
46,-1.20e-02,
47,-4.00e-03,
48,-8.00e-03,
49,-8.00e-03,
50,-4.00e-03,
51,-8.00e-03,
52,-4.00e-03,
53,-8.00e-03,
54,-8.00e-03,
55,-4.00e-03,
56,-8.00e-03,
57,-4.00e-03,
58,-4.00e-03,
59,-4.00e-03,
60,-8.00e-03,
61,-8.00e-03,
62,-4.00e-03,
63,-8.00e-03,
64,-8.00e-03,
65,-4.00e-03,
66,-1.60e-02,
67,-4.00e-03,
68,-4.00e-03,
69,-8.00e-03,
70,-8.00e-03,
71,-8.00e-03,
72,-1.20e-02,
73,0.00e+00,
74,-4.00e-03,
75,0.00e+00,
76,-8.00e-03,
77,-4.00e-03,
78,-4.00e-03,
79,-4.00e-03,
80,-1.20e-02,
81,-2.40e-02,
82,1.20e-02,
83,8.00e-03,
84,-1.20e-02,
85,-8.00e-03,
86,-8.00e-03,
87,-4.00e-03,
88,-4.00e-03,
89,0.00e+00,
90,0.00e+00,
91,-8.00e-03,
92,-4.00e-03,
93,-4.00e-03,
94,-3.20e-02,
95,-8.00e-03,
96,-1.60e-02,
97,-8.00e-03,
98,0.00e+00,
99,0.00e+00,
100,-1.20e-02,
101,-4.00e-03,
102,-4.00e-03,
103,-4.00e-03,
104,1.20e-02,
105,2.00e-02,
106,0.00e+00,
107,0.00e+00,
108,-4.00e-03,
109,0.00e+00,
110,-8.00e-03,
111,-2.40e-02,
112,-8.00e-03,
113,-4.00e-03,
114,-1.20e-02,
115,-8.00e-03,
116,-1.20e-02,
117,-1.20e-02,
118,-4.00e-03,
119,-8.00e-03,
120,-1.20e-02,
121,0.00e+00,
122,-1.20e-02,
123,4.00e-03,
124,0.00e+00,
125,-4.00e-03,
126,-8.00e-03,
127,0.00e+00,
128,-1.60e-02,
129,-8.00e-03,
130,-1.20e-02,
131,0.00e+00,
132,-8.00e-03,
133,-1.20e-02,
134,4.00e-03,
135,-8.00e-03,
136,-4.00e-03,
137,-1.20e-02,
138,0.00e+00,
139,-1.20e-02,
140,0.00e+00,
141,-8.00e-03,
142,0.00e+00,
143,0.00e+00,
144,-4.00e-03,
145,0.00e+00,
146,0.00e+00,
147,-8.00e-03,
148,-4.00e-03,
149,4.00e-03,
150,-1.20e-02,
151,8.00e-03,
152,-8.00e-03,
153,-8.00e-03,
154,4.00e-03,
155,-4.00e-03,
156,-4.00e-03,
157,-1.20e-02,
158,-4.00e-03,
159,-4.00e-03,
160,-4.00e-03,
161,-1.20e-02,
162,0.00e+00,
163,4.00e-03,
164,-4.00e-03,
165,0.00e+00,
166,-4.00e-03,
167,1.20e-02,
168,-4.00e-03,
169,0.00e+00,
170,4.00e-03,
171,-4.00e-03,
172,-4.00e-03,
173,1.20e-02,
174,8.00e-03,
175,1.20e-02,
176,-4.00e-03,
177,0.00e+00,
178,-8.00e-03,
179,-4.00e-03,
180,-4.00e-03,
181,8.00e-03,
182,-4.00e-03,
183,-4.00e-03,
184,-4.00e-03,
185,-4.00e-03,
186,-8.00e-03,
187,-4.00e-03,
188,-4.00e-03,
189,-4.00e-03,
190,-4.00e-03,
191,-4.00e-03,
192,-1.20e-02,
193,-1.20e-02,
194,-4.00e-03,
195,-4.00e-03,
196,-4.00e-03,
197,-4.00e-03,
198,4.00e-03,
199,0.00e+00,
200,0.00e+00,
201,-4.00e-03,
202,-4.00e-03,
203,-4.00e-03,
204,-4.00e-03,
205,0.00e+00,
206,-4.00e-03,
207,-4.00e-03,
208,-1.20e-02,
209,0.00e+00,
210,0.00e+00,
211,-4.00e-03,
212,-4.00e-03,
213,-4.00e-03,
214,-4.00e-03,
215,0.00e+00,
216,0.00e+00,
217,-4.00e-03,
218,-8.00e-03,
219,-4.00e-03,
220,0.00e+00,
221,-4.00e-03,
222,-4.00e-03,
223,0.00e+00,
224,-8.00e-03,
225,0.00e+00,
226,-4.00e-03,
227,-4.00e-03,
228,-8.00e-03,
229,0.00e+00,
230,-4.00e-03,
231,-4.00e-03,
232,-4.00e-03,
233,0.00e+00,
234,0.00e+00,
235,0.00e+00,
236,0.00e+00,
237,-4.00e-03,
238,-4.00e-03,
239,0.00e+00,
240,-4.00e-03,
241,0.00e+00,
242,-4.00e-03,
243,4.00e-03,
244,-4.00e-03,
245,-1.20e-02,
246,-8.00e-03,
247,-4.00e-03,
248,-4.00e-03,
249,4.00e-03,
250,0.00e+00,
251,-8.00e-03,
252,-4.00e-03,
253,-4.00e-03,
254,0.00e+00,
255,-4.00e-03,
256,-4.00e-03,
257,-4.00e-03,
258,0.00e+00,
259,-1.20e-02,
260,-8.00e-03,
261,-8.00e-03,
262,-4.00e-03,
263,-4.00e-03,
264,0.00e+00,
265,0.00e+00,
266,-4.00e-03,
267,-8.00e-03,
268,-4.00e-03,
269,-1.20e-02,
270,-8.00e-03,
271,-8.00e-03,
272,-4.00e-03,
273,0.00e+00,
274,-4.00e-03,
275,-8.00e-03,
276,4.00e-03,
277,-8.00e-03,
278,-8.00e-03,
279,-8.00e-03,
280,-4.00e-03,
281,-4.00e-03,
282,-4.00e-03,
283,-4.00e-03,
284,-4.00e-03,
285,-8.00e-03,
286,-8.00e-03,
287,-4.00e-03,
288,-4.00e-03,
289,-8.00e-03,
290,-8.00e-03,
291,-1.20e-02,
292,0.00e+00,
293,0.00e+00,
294,-8.00e-03,
295,-8.00e-03,
296,-1.20e-02,
297,-4.00e-03,
298,-4.00e-03,
299,-8.00e-03,
300,0.00e+00,
301,-4.00e-03,
302,-4.00e-03,
303,0.00e+00,
304,-4.00e-03,
305,-4.00e-03,
306,-8.00e-03,
307,-8.00e-03,
308,-8.00e-03,
309,-4.00e-03,
310,-8.00e-03,
311,-4.00e-03,
312,-4.00e-03,
313,-4.00e-03,
314,0.00e+00,
315,4.00e-03,
316,0.00e+00,
317,-4.00e-03,
318,-8.00e-03,
319,-4.00e-03,
320,-4.00e-03,
321,-4.00e-03,
322,0.00e+00,
323,-4.00e-03,
324,-4.00e-03,
325,-4.00e-03,
326,-4.00e-03,
327,0.00e+00,
328,-4.00e-03,
329,0.00e+00,
330,0.00e+00,
331,-8.00e-03,
332,0.00e+00,
333,-4.00e-03,
334,-4.00e-03,
335,-4.00e-03,
336,-4.00e-03,
337,-8.00e-03,
338,-4.00e-03,
339,0.00e+00,
340,0.00e+00,
341,-4.00e-03,
342,-4.00e-03,
343,-4.00e-03,
344,-4.00e-03,
345,0.00e+00,
346,-4.00e-03,
347,-8.00e-03,
348,-4.00e-03,
349,0.00e+00,
350,-4.00e-03,
351,-8.00e-03,
352,0.00e+00,
353,0.00e+00,
354,-4.00e-03,
355,0.00e+00,
356,-4.00e-03,
357,-4.00e-03,
358,-4.00e-03,
359,-4.00e-03,
360,-4.00e-03,
361,-4.00e-03,
362,-8.00e-03,
363,-4.00e-03,
364,-4.00e-03,
365,-4.00e-03,
366,-4.00e-03,
367,0.00e+00,
368,0.00e+00,
369,-4.00e-03,
370,-4.00e-03,
371,0.00e+00,
372,-4.00e-03,
373,-4.00e-03,
374,-8.00e-03,
375,-4.00e-03,
376,-4.00e-03,
377,-4.00e-03,
378,-4.00e-03,
379,0.00e+00,
380,-8.00e-03,
381,-4.00e-03,
382,-8.00e-03,
383,-8.00e-03,
384,-4.00e-03,
385,-4.00e-03,
386,-4.00e-03,
387,-4.00e-03,
388,-4.00e-03,
389,0.00e+00,
390,-1.20e-02,
391,-4.00e-03,
392,-4.00e-03,
393,4.00e-03,
394,-4.00e-03,
395,-4.00e-03,
396,-8.00e-03,
397,-1.20e-02,
398,0.00e+00,
399,8.00e-03,
400,-8.00e-03,
401,4.00e-03,
402,-8.00e-03,
403,0.00e+00,
404,0.00e+00,
405,-4.00e-03,
406,-4.00e-03,
407,0.00e+00,
408,-8.00e-03,
409,-4.00e-03,
410,0.00e+00,
411,-8.00e-03,
412,-4.00e-03,
413,-8.00e-03,
414,-8.00e-03,
415,-8.00e-03,
416,-8.00e-03,
417,-4.00e-03,
418,-1.20e-02,
419,-8.00e-03,
420,-8.00e-03,
421,-1.20e-02,
422,-8.00e-03,
423,-4.00e-03,
424,-4.00e-03,
425,-4.00e-03,
426,-4.00e-03,
427,4.00e-03,
428,-4.00e-03,
429,-8.00e-03,
430,-8.00e-03,
431,-4.00e-03,
432,-8.00e-03,
433,-8.00e-03,
434,-1.20e-02,
435,-8.00e-03,
436,-1.20e-02,
437,-4.00e-03,
438,-2.40e-02,
439,-8.00e-03,
440,8.00e-03,
441,-4.00e-03,
442,-4.00e-03,
443,-8.00e-03,
444,-8.00e-03,
445,-8.00e-03,
446,-4.00e-03,
447,-1.60e-02,
448,-8.00e-03,
449,4.00e-03,
450,-4.00e-03,
451,-4.00e-03,
452,-4.00e-03,
453,-8.00e-03,
454,-8.00e-03,
455,-8.00e-03,
456,-4.00e-03,
457,-8.00e-03,
458,-4.00e-03,
459,0.00e+00,
460,4.00e-03,
461,-8.00e-03,
462,-1.20e-02,
463,-8.00e-03,
464,-4.00e-03,
465,-4.00e-03,
466,-4.00e-03,
467,-4.00e-03,
468,0.00e+00,
469,-4.00e-03,
470,-8.00e-03,
471,-4.00e-03,
472,-8.00e-03,
473,0.00e+00,
474,-8.00e-03,
475,-4.00e-03,
476,-4.00e-03,
477,0.00e+00,
478,-4.00e-03,
479,-4.00e-03,
480,-1.20e-02,
481,-4.00e-03,
482,0.00e+00,
483,-4.00e-03,
484,0.00e+00,
485,-4.00e-03,
486,-1.20e-02,
487,-4.00e-03,
488,-4.00e-03,
489,0.00e+00,
490,0.00e+00,
491,-4.00e-03,
492,-4.00e-03,
493,-4.00e-03,
494,-8.00e-03,
495,8.00e-03,
496,0.00e+00,
497,0.00e+00,
498,-4.00e-03,
499,-4.00e-03,
500,-4.00e-03,
501,-8.00e-03,
502,-8.00e-03,
503,-4.00e-03,
504,0.00e+00,
505,0.00e+00,
506,0.00e+00,
507,0.00e+00,
508,0.00e+00,
509,-4.00e-03,
510,-1.20e-02,
511,0.00e+00,
512,-1.20e-02,
513,-4.00e-03,
514,-4.00e-03,
515,-8.00e-03,
516,-8.00e-03,
517,-4.00e-03,
518,-8.00e-03,
519,-4.00e-03,
520,-8.00e-03,
521,-8.00e-03,
522,-4.00e-03,
523,-4.00e-03,
524,-8.00e-03,
525,-4.00e-03,
526,0.00e+00,
527,-4.00e-03,
528,-4.00e-03,
529,-4.00e-03,
530,-8.00e-03,
531,-4.00e-03,
532,0.00e+00,
533,-8.00e-03,
534,-8.00e-03,
535,-1.20e-02,
536,-4.00e-03,
537,-4.00e-03,
538,-4.00e-03,
539,-4.00e-03,
540,0.00e+00,
541,0.00e+00,
542,-8.00e-03,
543,-8.00e-03,
544,-4.00e-03,
545,-4.00e-03,
546,-8.00e-03,
547,-8.00e-03,
548,-4.00e-03,
549,-4.00e-03,
550,-4.00e-03,
551,-4.00e-03,
552,0.00e+00,
553,-8.00e-03,
554,-4.00e-03,
555,-4.00e-03,
556,-8.00e-03,
557,-4.00e-03,
558,-8.00e-03,
559,-4.00e-03,
560,0.00e+00,
561,-4.00e-03,
562,-8.00e-03,
563,-1.20e-02,
564,0.00e+00,
565,-4.00e-03,
566,-8.00e-03,
567,-8.00e-03,
568,-2.40e-02,
569,-4.00e-03,
570,-4.00e-03,
571,-1.60e-02,
572,-4.00e-03,
573,-8.00e-03,
574,-4.00e-03,
575,-2.80e-02,
576,-4.00e-03,
577,-8.00e-03,
578,-4.00e-03,
579,0.00e+00,
580,-2.40e-02,
581,4.00e-03,
582,-4.00e-03,
583,-4.00e-03,
584,-8.00e-03,
585,4.00e-03,
586,-4.00e-03,
587,0.00e+00,
588,-4.00e-03,
589,-4.00e-03,
590,-4.00e-03,
591,4.00e-03,
592,0.00e+00,
593,-8.00e-03,
594,-1.60e-02,
595,-2.40e-02,
596,0.00e+00,
597,4.00e-03,
598,8.00e-03,
599,-4.00e-03,
600,-1.20e-02,
601,0.00e+00,
602,-4.00e-03,
603,-8.00e-03,
604,-4.00e-03,
605,-1.20e-02,
606,4.00e-03,
607,4.00e-03,
608,-8.00e-03,
609,-4.00e-03,
610,-8.00e-03,
611,-2.80e-02,
612,-8.00e-03,
613,-4.00e-03,
614,-8.00e-03,
615,0.00e+00,
616,0.00e+00,
617,-8.00e-03,
618,-8.00e-03,
619,-4.00e-03,
620,-1.20e-02,
621,-4.00e-03,
622,-8.00e-03,
623,4.00e-03,
624,-1.20e-02,
625,-4.00e-03,
626,-4.00e-03,
627,-8.00e-03,
628,0.00e+00,
629,-1.20e-02,
630,8.00e-03,
631,0.00e+00,
632,-8.00e-03,
633,-4.00e-03,
634,-8.00e-03,
635,-8.00e-03,
636,-1.20e-02,
637,0.00e+00,
638,-4.00e-03,
639,-8.00e-03,
640,-8.00e-03,
641,0.00e+00,
642,-8.00e-03,
643,-1.60e-02,
644,-4.00e-03,
645,-2.40e-02,
646,-1.20e-02,
647,-1.20e-02,
648,-4.00e-03,
649,4.00e-03,
650,-4.00e-03,
651,4.00e-03,
652,4.00e-03,
653,-8.00e-03,
654,-4.00e-03,
655,-1.20e-02,
656,0.00e+00,
657,-1.60e-02,
658,-1.20e-02,
659,-1.60e-02,
660,-8.00e-03,
661,-8.00e-03,
662,-4.00e-03,
663,-8.00e-03,
664,-8.00e-03,
665,-4.00e-03,
666,-8.00e-03,
667,-4.00e-03,
668,-8.00e-03,
669,-8.00e-03,
670,-8.00e-03,
671,-4.00e-03,
672,0.00e+00,
673,4.00e-03,
674,-4.00e-03,
675,-4.00e-03,
676,-4.00e-03,
677,-8.00e-03,
678,0.00e+00,
679,4.00e-03,
680,-4.00e-03,
681,-4.00e-03,
682,-8.00e-03,
683,0.00e+00,
684,-4.00e-03,
685,-8.00e-03,
686,-4.00e-03,
687,-4.00e-03,
688,-4.00e-03,
689,-8.00e-03,
690,-8.00e-03,
691,-4.00e-03,
692,0.00e+00,
693,0.00e+00,
694,-8.00e-03,
695,-4.00e-03,
696,-8.00e-03,
697,0.00e+00,
698,4.00e-03,
699,-4.00e-03,
700,-8.00e-03,
701,-4.00e-03,
702,-4.00e-03,
703,-4.00e-03,
704,0.00e+00,
705,0.00e+00,
706,-4.00e-03,
707,-4.00e-03,
708,-4.00e-03,
709,-4.00e-03,
710,0.00e+00,
711,-8.00e-03,
712,0.00e+00,
713,0.00e+00,
714,-4.00e-03,
715,-8.00e-03,
716,-8.00e-03,
717,-4.00e-03,
718,-4.00e-03,
719,-4.00e-03,
720,-4.00e-03,
721,-4.00e-03,
722,0.00e+00,
723,-4.00e-03,
724,-4.00e-03,
725,-8.00e-03,
726,-4.00e-03,
727,-4.00e-03,
728,0.00e+00,
729,-4.00e-03,
730,-8.00e-03,
731,-8.00e-03,
732,-4.00e-03,
733,-8.00e-03,
734,-8.00e-03,
735,-4.00e-03,
736,-8.00e-03,
737,-4.00e-03,
738,-8.00e-03,
739,-4.00e-03,
740,-4.00e-03,
741,-8.00e-03,
742,-4.00e-03,
743,-8.00e-03,
744,-8.00e-03,
745,-4.00e-03,
746,-4.00e-03,
747,-1.20e-02,
748,-8.00e-03,
749,-4.00e-03,
750,-8.00e-03,
751,-8.00e-03,
752,-4.00e-03,
753,-8.00e-03,
754,0.00e+00,
755,-4.00e-03,
756,0.00e+00,
757,0.00e+00,
758,-4.00e-03,
759,-4.00e-03,
760,-8.00e-03,
761,0.00e+00,
762,-4.00e-03,
763,8.00e-03,
764,-4.00e-03,
765,-4.00e-03,
766,-8.00e-03,
767,-4.00e-03,
768,-4.00e-03,
769,-4.00e-03,
770,0.00e+00,
771,-4.00e-03,
772,-4.00e-03,
773,-4.00e-03,
774,-8.00e-03,
775,0.00e+00,
776,0.00e+00,
777,1.20e-02,
778,-4.00e-03,
779,0.00e+00,
780,-4.00e-03,
781,-4.00e-03,
782,-8.00e-03,
783,0.00e+00,
784,-8.00e-03,
785,-4.00e-03,
786,-8.00e-03,
787,-8.00e-03,
788,-4.00e-03,
789,0.00e+00,
790,-4.00e-03,
791,-4.00e-03,
792,-4.00e-03,
793,-8.00e-03,
794,-4.00e-03,
795,-8.00e-03,
796,-4.00e-03,
797,-8.00e-03,
798,-1.20e-02,
799,-4.00e-03,
800,-8.00e-03,
801,-4.00e-03,
802,-4.00e-03,
803,-8.00e-03,
804,-8.00e-03,
805,-4.00e-03,
806,-4.00e-03,
807,-8.00e-03,
808,-4.00e-03,
809,-8.00e-03,
810,-8.00e-03,
811,-4.00e-03,
812,0.00e+00,
813,4.00e-03,
814,0.00e+00,
815,-4.00e-03,
816,-4.00e-03,
817,-8.00e-03,
818,-4.00e-03,
819,-4.00e-03,
820,-8.00e-03,
821,-4.00e-03,
822,-4.00e-03,
823,0.00e+00,
824,-8.00e-03,
825,-4.00e-03,
826,-4.00e-03,
827,4.00e-03,
828,-4.00e-03,
829,-4.00e-03,
830,-8.00e-03,
831,-4.00e-03,
832,-8.00e-03,
833,-4.00e-03,
834,0.00e+00,
835,-4.00e-03,
836,-8.00e-03,
837,-8.00e-03,
838,-4.00e-03,
839,-4.00e-03,
840,-4.00e-03,
841,-8.00e-03,
842,-4.00e-03,
843,0.00e+00,
844,-4.00e-03,
845,0.00e+00,
846,-4.00e-03,
847,-4.00e-03,
848,-4.00e-03,
849,-4.00e-03,
850,1.20e-02,
851,-4.00e-03,
852,4.00e-03,
853,-4.00e-03,
854,0.00e+00,
855,0.00e+00,
856,-4.00e-03,
857,-4.00e-03,
858,-1.20e-02,
859,0.00e+00,
860,1.20e-02,
861,0.00e+00,
862,-4.00e-03,
863,-4.00e-03,
864,-4.00e-03,
865,-4.00e-03,
866,0.00e+00,
867,0.00e+00,
868,-4.00e-03,
869,-4.00e-03,
870,4.00e-03,
871,0.00e+00,
872,0.00e+00,
873,-4.00e-03,
874,-4.00e-03,
875,-4.00e-03,
876,-4.00e-03,
877,-8.00e-03,
878,-4.00e-03,
879,-4.00e-03,
880,-4.00e-03,
881,-4.00e-03,
882,0.00e+00,
883,-4.00e-03,
884,-1.20e-02,
885,-4.00e-03,
886,0.00e+00,
887,-8.00e-03,
888,-4.00e-03,
889,-4.00e-03,
890,-4.00e-03,
891,-4.00e-03,
892,-4.00e-03,
893,-8.00e-03,
894,0.00e+00,
895,-8.00e-03,
896,0.00e+00,
897,0.00e+00,
898,-4.00e-03,
899,4.00e-03,
900,-8.00e-03,
901,4.00e-03,
902,4.00e-03,
903,-4.00e-03,
904,-4.00e-03,
905,-4.00e-03,
906,-8.00e-03,
907,-4.00e-03,
908,4.00e-03,
909,-4.00e-03,
910,-4.00e-03,
911,-8.00e-03,
912,-1.20e-02,
913,-1.20e-02,
914,-1.20e-02,
915,-4.00e-03,
916,-4.00e-03,
917,-1.20e-02,
918,-4.00e-03,
919,-4.00e-03,
920,-4.00e-03,
921,-4.00e-03,
922,-4.00e-03,
923,-1.20e-02,
924,0.00e+00,
925,0.00e+00,
926,-4.00e-03,
927,-4.00e-03,
928,-4.00e-03,
929,4.00e-03,
930,-4.00e-03,
931,-4.00e-03,
932,0.00e+00,
933,0.00e+00,
934,-8.00e-03,
935,-4.00e-03,
936,-1.20e-02,
937,-4.00e-03,
938,-8.00e-03,
939,-8.00e-03,
940,-8.00e-03,
941,-4.00e-03,
942,0.00e+00,
943,-8.00e-03,
944,0.00e+00,
945,-1.20e-02,
946,0.00e+00,
947,-1.20e-02,
948,-8.00e-03,
949,-1.20e-02,
950,-4.00e-03,
951,0.00e+00,
952,-4.00e-03,
953,0.00e+00,
954,-4.00e-03,
955,-4.00e-03,
956,-4.00e-03,
957,-8.00e-03,
958,-4.00e-03,
959,-4.00e-03,
960,0.00e+00,
961,-4.00e-03,
962,-8.00e-03,
963,-8.00e-03,
964,-8.00e-03,
965,-4.00e-03,
966,-4.00e-03,
967,-8.00e-03,
968,-4.00e-03,
969,-4.00e-03,
970,-4.00e-03,
971,-4.00e-03,
972,-8.00e-03,
973,-1.20e-02,
974,-8.00e-03,
975,-8.00e-03,
976,-4.00e-03,
977,-4.00e-03,
978,-1.20e-02,
979,-8.00e-03,
980,0.00e+00,
981,-8.00e-03,
982,-2.40e-02,
983,-4.00e-03,
984,-8.00e-03,
985,-8.00e-03,
986,0.00e+00,
987,-8.00e-03,
988,-1.20e-02,
989,-4.00e-03,
990,-4.00e-03,
991,-8.00e-03,
992,-4.00e-03,
993,0.00e+00,
994,0.00e+00,
995,-8.00e-03,
996,-8.00e-03,
997,-4.00e-03,
998,0.00e+00,
999,0.00e+00,
1000,0.00e+00,
1001,-4.00e-03,
1002,-8.00e-03,
1003,-8.00e-03,
1004,-8.00e-03,
1005,-8.00e-03,
1006,-8.00e-03,
1007,-8.00e-03,
1008,-8.00e-03,
1009,-8.00e-03,
1010,-4.00e-03,
1011,-4.00e-03,
1012,-4.00e-03,
1013,-8.00e-03,
1014,-4.00e-03,
1015,-4.00e-03,
1016,4.00e-03,
1017,-8.00e-03,
1018,-4.00e-03,
1019,-8.00e-03,
1020,-4.00e-03,
1021,-4.00e-03,
1022,-4.00e-03,
1023,-8.00e-03,
1024,4.00e-03,
1025,-8.00e-03,
1026,-4.00e-03,
1027,-1.60e-02,
1028,-8.00e-03,
1029,-4.00e-03,
1030,-4.00e-03,
1031,-4.00e-03,
1032,-4.00e-03,
1033,-8.00e-03,
1034,-4.00e-03,
1035,-1.20e-02,
1036,-8.00e-03,
1037,-8.00e-03,
1038,0.00e+00,
1039,-8.00e-03,
1040,-4.00e-03,
1041,-4.00e-03,
1042,-8.00e-03,
1043,-4.00e-03,
1044,-4.00e-03,
1045,-4.00e-03,
1046,0.00e+00,
1047,-4.00e-03,
1048,-8.00e-03,
1049,0.00e+00,
1050,-4.00e-03,
1051,-4.00e-03,
1052,-4.00e-03,
1053,-4.00e-03,
1054,-8.00e-03,
1055,-8.00e-03,
1056,0.00e+00,
1057,-4.00e-03,
1058,-4.00e-03,
1059,-4.00e-03,
1060,-4.00e-03,
1061,-4.00e-03,
1062,-4.00e-03,
1063,-8.00e-03,
1064,-4.00e-03,
1065,-8.00e-03,
1066,4.00e-03,
1067,-1.60e-02,
1068,-8.00e-03,
1069,-1.60e-02,
1070,-4.00e-03,
1071,-8.00e-03,
1072,4.00e-03,
1073,-4.00e-03,
1074,0.00e+00,
1075,-8.00e-03,
1076,4.00e-03,
1077,-1.60e-02,
1078,-4.00e-03,
1079,-4.00e-03,
1080,-4.00e-03,
1081,-4.00e-03,
1082,-4.00e-03,
1083,0.00e+00,
1084,-1.20e-02,
1085,-4.00e-03,
1086,0.00e+00,
1087,-1.20e-02,
1088,-1.20e-02,
1089,-1.20e-02,
1090,-4.00e-03,
1091,-4.00e-03,
1092,0.00e+00,
1093,-8.00e-03,
1094,0.00e+00,
1095,-8.00e-03,
1096,-4.00e-03,
1097,-4.00e-03,
1098,-4.00e-03,
1099,0.00e+00,
1100,-8.00e-03,
1101,4.00e-03,
1102,-4.00e-03,
1103,-8.00e-03,
1104,0.00e+00,
1105,0.00e+00,
1106,-4.00e-03,
1107,-8.00e-03,
1108,0.00e+00,
1109,0.00e+00,
1110,-4.00e-03,
1111,-4.00e-03,
1112,-8.00e-03,
1113,-8.00e-03,
1114,-4.00e-03,
1115,-8.00e-03,
1116,1.20e-02,
1117,0.00e+00,
1118,8.00e-03,
1119,-1.20e-02,
1120,-4.00e-03,
1121,-4.00e-03,
1122,-4.00e-03,
1123,-4.00e-03,
1124,-4.00e-03,
1125,8.00e-03,
1126,-4.00e-03,
1127,8.00e-03,
1128,-4.00e-03,
1129,-8.00e-03,
1130,4.00e-03,
1131,0.00e+00,
1132,0.00e+00,
1133,0.00e+00,
1134,0.00e+00,
1135,-8.00e-03,
1136,0.00e+00,
1137,-8.00e-03,
1138,-4.00e-03,
1139,-1.20e-02,
1140,0.00e+00,
1141,-4.00e-03,
1142,-8.00e-03,
1143,-4.00e-03,
1144,0.00e+00,
1145,-4.00e-03,
1146,-4.00e-03,
1147,0.00e+00,
1148,-1.20e-02,
1149,-4.00e-03,
1150,-8.00e-03,
1151,-4.00e-03,
1152,0.00e+00,
1153,0.00e+00,
1154,-8.00e-03,
1155,-8.00e-03,
1156,-1.20e-02,
1157,-8.00e-03,
1158,0.00e+00,
1159,-4.00e-03,
1160,-8.00e-03,
1161,-4.00e-03,
1162,-8.00e-03,
1163,-1.20e-02,
1164,-1.60e-02,
1165,4.00e-03,
1166,-2.40e-02,
1167,0.00e+00,
1168,-1.20e-02,
1169,-8.00e-03,
1170,0.00e+00,
1171,-8.00e-03,
1172,-1.20e-02,
1173,-8.00e-03,
1174,-8.00e-03,
1175,-4.00e-03,
1176,-8.00e-03,
1177,-8.00e-03,
1178,-8.00e-03,
1179,0.00e+00,
1180,0.00e+00,
1181,4.00e-03,
1182,-8.00e-03,
1183,-4.00e-03,
1184,-4.00e-03,
1185,-8.00e-03,
1186,-4.00e-03,
1187,0.00e+00,
1188,-4.00e-03,
1189,4.00e-03,
1190,-8.00e-03,
1191,-4.00e-03,
1192,-4.00e-03,
1193,8.00e-03,
1194,-8.00e-03,
1195,-8.00e-03,
1196,-1.20e-02,
1197,-8.00e-03,
1198,-4.00e-03,
1199,-8.00e-03,
1200,0.00e+00,
1201,-8.00e-03,
1202,-4.00e-03,
1203,-8.00e-03,
1204,-4.00e-03,
1205,-4.00e-03,
1206,-4.00e-03,
1207,-4.00e-03,
1208,-8.00e-03,
1209,-4.00e-03,
1210,-8.00e-03,
1211,-4.00e-03,
1212,-4.00e-03,
1213,-4.00e-03,
1214,-1.20e-02,
1215,-8.00e-03,
1216,-8.00e-03,
1217,-8.00e-03,
1218,-4.00e-03,
1219,-8.00e-03,
1220,0.00e+00,
1221,-4.00e-03,
1222,-4.00e-03,
1223,-4.00e-03,
1224,-8.00e-03,
1225,-8.00e-03,
1226,-4.00e-03,
1227,0.00e+00,
1228,0.00e+00,
1229,-4.00e-03,
1230,-4.00e-03,
1231,-4.00e-03,
1232,-4.00e-03,
1233,-8.00e-03,
1234,-8.00e-03,
1235,0.00e+00,
1236,-8.00e-03,
1237,-8.00e-03,
1238,-4.00e-03,
1239,-4.00e-03,
1240,-8.00e-03,
1241,-4.00e-03,
1242,-4.00e-03,
1243,4.00e-03,
1244,-4.00e-03,
1245,-1.20e-02,
1246,0.00e+00,
1247,8.00e-03,
1248,0.00e+00,
1249,-4.00e-03,
1250,-4.00e-03,
1251,0.00e+00,
1252,-4.00e-03,
1253,-4.00e-03,
1254,-4.00e-03,
1255,-4.00e-03,
1256,-8.00e-03,
1257,-8.00e-03,
1258,-4.00e-03,
1259,-4.00e-03,
1260,-4.00e-03,
1261,0.00e+00,
1262,-8.00e-03,
1263,-4.00e-03,
1264,-4.00e-03,
1265,0.00e+00,
1266,-8.00e-03,
1267,-4.00e-03,
1268,0.00e+00,
1269,0.00e+00,
1270,-4.00e-03,
1271,0.00e+00,
1272,-4.00e-03,
1273,-4.00e-03,
1274,-4.00e-03,
1275,-4.00e-03,
1276,-4.00e-03,
1277,-4.00e-03,
1278,-8.00e-03,
1279,-4.00e-03,
1280,-4.00e-03,
1281,-8.00e-03,
1282,-4.00e-03,
1283,-4.00e-03,
1284,-4.00e-03,
1285,-8.00e-03,
1286,-4.00e-03,
1287,-8.00e-03,
1288,-4.00e-03,
1289,0.00e+00,
1290,-8.00e-03,
1291,-4.00e-03,
1292,-8.00e-03,
1293,-4.00e-03,
1294,-8.00e-03,
1295,-4.00e-03,
1296,-4.00e-03,
1297,-4.00e-03,
1298,-4.00e-03,
1299,-4.00e-03,
1300,-8.00e-03,
1301,-4.00e-03,
1302,-4.00e-03,
1303,0.00e+00,
1304,-4.00e-03,
1305,-8.00e-03,
1306,0.00e+00,
1307,-4.00e-03,
1308,0.00e+00,
1309,0.00e+00,
1310,-4.00e-03,
1311,0.00e+00,
1312,-4.00e-03,
1313,-4.00e-03,
1314,-4.00e-03,
1315,-8.00e-03,
1316,-8.00e-03,
1317,-4.00e-03,
1318,-4.00e-03,
1319,-4.00e-03,
1320,-4.00e-03,
1321,-4.00e-03,
1322,0.00e+00,
1323,-4.00e-03,
1324,-8.00e-03,
1325,-4.00e-03,
1326,-4.00e-03,
1327,0.00e+00,
1328,0.00e+00,
1329,-4.00e-03,
1330,0.00e+00,
1331,-8.00e-03,
1332,-4.00e-03,
1333,-8.00e-03,
