final_data/6I11.csv

X,CH1,Start,Increment,
Sequence,Volt,-1.200000e+00,4.000000e-05
0,0.00e+00,
1,-8.00e-03,
2,-8.00e-03,
3,-4.00e-03,
4,-4.00e-03,
5,-8.00e-03,
6,-8.00e-03,
7,-8.00e-03,
8,0.00e+00,
9,-8.00e-03,
10,-8.00e-03,
11,-8.00e-03,
12,-1.20e-02,
13,-8.00e-03,
14,-1.20e-02,
15,-8.00e-03,
16,-1.20e-02,
17,-4.00e-03,
18,-8.00e-03,
19,-1.20e-02,
20,4.00e-03,
21,-8.00e-03,
22,0.00e+00,
23,-8.00e-03,
24,-4.00e-03,
25,-8.00e-03,
26,-1.20e-02,
27,-8.00e-03,
28,-4.00e-03,
29,-8.00e-03,
30,-4.00e-03,
31,4.00e-03,
32,-4.00e-03,
33,-8.00e-03,
34,-4.00e-03,
35,-8.00e-03,
36,-4.00e-03,
37,-1.20e-02,
38,-8.00e-03,
39,-8.00e-03,
40,-8.00e-03,
41,-4.00e-03,
42,0.00e+00,
43,-8.00e-03,
44,-1.20e-02,
45,-8.00e-03,
46,-8.00e-03,
47,-4.00e-03,
48,-8.00e-03,
49,-4.00e-03,
50,-8.00e-03,
51,-8.00e-03,
52,0.00e+00,
53,-8.00e-03,
54,-1.20e-02,
55,-8.00e-03,
56,-8.00e-03,
57,-8.00e-03,
58,-8.00e-03,
59,-1.20e-02,
60,-8.00e-03,
61,-4.00e-03,
62,-4.00e-03,
63,-4.00e-03,
64,-4.00e-03,
65,0.00e+00,
66,-8.00e-03,
67,-1.20e-02,
68,-1.20e-02,
69,0.00e+00,
70,-8.00e-03,
71,-4.00e-03,
72,0.00e+00,
73,-8.00e-03,
74,-1.20e-02,
75,-4.00e-03,
76,-8.00e-03,
77,8.00e-03,
78,-1.20e-02,
79,-8.00e-03,
80,-8.00e-03,
81,-8.00e-03,
82,-8.00e-03,
83,-8.00e-03,
84,-4.00e-03,
85,-4.00e-03,
86,-2.40e-02,
87,-1.60e-02,
88,-1.20e-02,
89,-4.00e-03,
90,-4.00e-03,
91,-8.00e-03,
92,-8.00e-03,
93,-4.00e-03,
94,-8.00e-03,
95,-1.20e-02,
96,-4.00e-03,
97,-1.20e-02,
98,-4.00e-03,
99,-8.00e-03,
100,-4.00e-03,
101,-8.00e-03,
102,-4.00e-03,
103,0.00e+00,
104,-4.00e-03,
105,-8.00e-03,
106,-4.00e-03,
107,-8.00e-03,
108,-8.00e-03,
109,-8.00e-03,
110,0.00e+00,
111,-8.00e-03,
112,-8.00e-03,
113,-8.00e-03,
114,-1.60e-02,
115,0.00e+00,
116,-1.20e-02,
117,-1.60e-02,
118,-1.20e-02,
119,-8.00e-03,
120,-4.00e-03,
121,-4.00e-03,
122,-4.00e-03,
123,-8.00e-03,
124,-8.00e-03,
125,-8.00e-03,
126,-8.00e-03,
127,-8.00e-03,
128,-4.00e-03,
129,-4.00e-03,
130,-8.00e-03,
131,-4.00e-03,
132,-8.00e-03,
133,-4.00e-03,
134,-8.00e-03,
135,-4.00e-03,
136,-8.00e-03,
137,-8.00e-03,
138,-8.00e-03,
139,-8.00e-03,
140,-4.00e-03,
141,-8.00e-03,
142,-4.00e-03,
143,-8.00e-03,
144,-8.00e-03,
145,-4.00e-03,
146,-1.60e-02,
147,-8.00e-03,
148,-8.00e-03,
149,-8.00e-03,
150,-4.00e-03,
151,-8.00e-03,
152,4.00e-03,
153,0.00e+00,
154,-8.00e-03,
155,-4.00e-03,
156,-1.20e-02,
157,-8.00e-03,
158,-8.00e-03,
159,-8.00e-03,
160,-1.20e-02,
161,-1.60e-02,
162,-4.00e-03,
163,-2.80e-02,
164,-8.00e-03,
165,-1.20e-02,
166,-4.00e-03,
167,-8.00e-03,
168,0.00e+00,
169,-1.20e-02,
170,-1.60e-02,
171,1.20e-02,
172,-4.00e-03,
173,0.00e+00,
174,-4.00e-03,
175,-4.00e-03,
176,-4.00e-03,
177,-4.00e-03,
178,-8.00e-03,
179,-8.00e-03,
180,0.00e+00,
181,-1.60e-02,
182,-4.00e-03,
183,0.00e+00,
184,4.00e-03,
185,-8.00e-03,
186,-1.60e-02,
187,4.00e-03,
188,-2.40e-02,
189,-2.40e-02,
190,-4.00e-03,
191,-4.00e-03,
192,-8.00e-03,
193,-1.20e-02,
194,-2.40e-02,
195,-1.60e-02,
196,0.00e+00,
197,4.00e-03,
198,-8.00e-03,
199,-1.20e-02,
200,-4.00e-03,
201,-4.00e-03,
202,-1.20e-02,
203,-8.00e-03,
204,-4.00e-03,
205,-8.00e-03,
206,-8.00e-03,
207,-4.00e-03,
208,4.00e-03,
209,-8.00e-03,
210,-8.00e-03,
211,-8.00e-03,
212,4.00e-03,
213,-4.00e-03,
214,-4.00e-03,
215,-4.00e-03,
216,-4.00e-03,
217,-8.00e-03,
218,-8.00e-03,
219,-8.00e-03,
220,-8.00e-03,
221,-8.00e-03,
222,-8.00e-03,
223,-4.00e-03,
224,-1.20e-02,
225,-8.00e-03,
226,-4.00e-03,
227,-4.00e-03,
228,-8.00e-03,
229,-8.00e-03,
230,-4.00e-03,
231,0.00e+00,
232,-8.00e-03,
233,-8.00e-03,
234,-8.00e-03,
235,0.00e+00,
236,-1.20e-02,
237,-4.00e-03,
238,-4.00e-03,
239,-8.00e-03,
240,-4.00e-03,
241,-4.00e-03,
242,0.00e+00,
243,0.00e+00,
244,-8.00e-03,
245,-8.00e-03,
246,-8.00e-03,
247,-4.00e-03,
248,-4.00e-03,
249,-8.00e-03,
250,0.00e+00,
251,-8.00e-03,
252,-1.20e-02,
253,-4.00e-03,
254,-8.00e-03,
255,-4.00e-03,
256,0.00e+00,
257,-4.00e-03,
258,-4.00e-03,
259,-8.00e-03,
260,-8.00e-03,
261,-8.00e-03,
262,-8.00e-03,
263,-4.00e-03,
264,-1.20e-02,
265,-8.00e-03,
266,-1.20e-02,
267,-8.00e-03,
268,0.00e+00,
269,0.00e+00,
270,-4.00e-03,
271,-8.00e-03,
272,-8.00e-03,
273,-4.00e-03,
274,-8.00e-03,
275,-8.00e-03,
276,-8.00e-03,
277,-4.00e-03,
278,-1.20e-02,
279,-8.00e-03,
280,-8.00e-03,
281,-1.20e-02,
282,-8.00e-03,
283,-1.60e-02,
284,-8.00e-03,
285,-4.00e-03,
286,-8.00e-03,
287,0.00e+00,
288,-8.00e-03,
289,-4.00e-03,
290,-8.00e-03,
291,-8.00e-03,
292,-4.00e-03,
293,-8.00e-03,
294,-4.00e-03,
295,-4.00e-03,
296,-4.00e-03,
297,0.00e+00,
298,-4.00e-03,
299,-8.00e-03,
300,-8.00e-03,
301,-8.00e-03,
302,0.00e+00,
303,-8.00e-03,
304,-8.00e-03,
305,-8.00e-03,
306,-1.20e-02,
307,-4.00e-03,
308,-8.00e-03,
309,-8.00e-03,
310,-8.00e-03,
311,-4.00e-03,
312,-4.00e-03,
313,-4.00e-03,
314,-8.00e-03,
315,-8.00e-03,
316,-4.00e-03,
317,-4.00e-03,
318,-8.00e-03,
319,0.00e+00,
320,-4.00e-03,
321,-8.00e-03,
322,-8.00e-03,
323,-4.00e-03,
324,-4.00e-03,
325,0.00e+00,
326,-4.00e-03,
327,-8.00e-03,
328,-8.00e-03,
329,-1.20e-02,
330,-8.00e-03,
331,-4.00e-03,
332,-4.00e-03,
333,-1.20e-02,
334,-4.00e-03,
335,-2.80e-02,
336,0.00e+00,
337,4.00e-03,
338,0.00e+00,
339,-1.60e-02,
340,-1.20e-02,
341,-4.00e-03,
342,-4.00e-03,
343,-1.20e-02,
344,-8.00e-03,
345,-4.00e-03,
346,-8.00e-03,
347,-8.00e-03,
348,-8.00e-03,
349,-8.00e-03,
350,-4.00e-03,
351,-1.20e-02,
352,-1.20e-02,
353,4.00e-03,
354,-1.20e-02,
355,-4.00e-03,
356,-8.00e-03,
357,-8.00e-03,
358,-8.00e-03,
359,-4.00e-03,
360,-4.00e-03,
361,-8.00e-03,
362,-4.00e-03,
363,-1.20e-02,
364,-8.00e-03,
365,-4.00e-03,
366,-8.00e-03,
367,-8.00e-03,
368,-4.00e-03,
369,-8.00e-03,
370,-8.00e-03,
371,4.00e-03,
372,-8.00e-03,
373,-1.20e-02,
374,4.00e-03,
375,-8.00e-03,
376,-4.00e-03,
377,-8.00e-03,
378,-4.00e-03,
379,-4.00e-03,
380,-8.00e-03,
381,0.00e+00,
382,-1.20e-02,
383,-4.00e-03,
384,-4.00e-03,
385,-4.00e-03,
386,-8.00e-03,
387,-1.20e-02,
388,-4.00e-03,
389,-4.00e-03,
390,0.00e+00,
391,-8.00e-03,
392,-8.00e-03,
393,-1.20e-02,
394,-8.00e-03,
395,-8.00e-03,
396,-4.00e-03,
397,-4.00e-03,
398,-8.00e-03,
399,4.00e-03,
400,-4.00e-03,
401,-4.00e-03,
402,-2.80e-02,
403,-8.00e-03,
404,-8.00e-03,
405,-8.00e-03,
406,-1.20e-02,
407,0.00e+00,
408,-8.00e-03,
409,-8.00e-03,
410,0.00e+00,
411,4.00e-03,
412,-4.00e-03,
413,-1.20e-02,
414,-4.00e-03,
415,-1.20e-02,
416,-8.00e-03,
417,-4.00e-03,
418,0.00e+00,
419,-8.00e-03,
420,-4.00e-03,
421,-2.40e-02,
422,-8.00e-03,
423,-4.00e-03,
424,-1.20e-02,
425,-8.00e-03,
426,-4.00e-03,
427,-8.00e-03,
428,-8.00e-03,
429,0.00e+00,
430,-4.00e-03,
431,0.00e+00,
432,0.00e+00,
433,-8.00e-03,
434,-4.00e-03,
435,0.00e+00,
436,-4.00e-03,
437,-2.40e-02,
438,-8.00e-03,
439,-4.00e-03,
440,-2.40e-02,
441,-8.00e-03,
442,-1.60e-02,
443,-8.00e-03,
444,-1.20e-02,
445,0.00e+00,
446,4.00e-03,
447,-4.00e-03,
448,0.00e+00,
449,0.00e+00,
450,-4.00e-03,
451,0.00e+00,
452,-8.00e-03,
453,-8.00e-03,
454,0.00e+00,
455,-8.00e-03,
456,-1.60e-02,
457,0.00e+00,
458,-8.00e-03,
459,-4.00e-03,
460,-4.00e-03,
461,-1.20e-02,
462,-8.00e-03,
463,-8.00e-03,
464,-8.00e-03,
465,-1.20e-02,
466,-1.20e-02,
467,0.00e+00,
468,-8.00e-03,
469,-8.00e-03,
470,-4.00e-03,
471,-8.00e-03,
472,-4.00e-03,
473,-4.00e-03,
474,0.00e+00,
475,-8.00e-03,
476,-8.00e-03,
477,-8.00e-03,
478,-8.00e-03,
479,-8.00e-03,
480,-4.00e-03,
481,-8.00e-03,
482,-4.00e-03,
483,-4.00e-03,
484,-8.00e-03,
485,-4.00e-03,
486,-4.00e-03,
487,-4.00e-03,
488,-4.00e-03,
489,-1.20e-02,
490,-4.00e-03,
491,-8.00e-03,
492,-1.20e-02,
493,-4.00e-03,
494,-8.00e-03,
495,-1.20e-02,
496,-1.20e-02,
497,-4.00e-03,
498,-1.20e-02,
499,-4.00e-03,
500,-8.00e-03,
501,-1.60e-02,
502,-1.20e-02,
503,-8.00e-03,
504,-4.00e-03,
505,-4.00e-03,
506,-8.00e-03,
507,-8.00e-03,
508,-8.00e-03,
509,-4.00e-03,
510,-4.00e-03,
511,-4.00e-03,
512,-8.00e-03,
513,-1.20e-02,
514,-4.00e-03,
515,-8.00e-03,
516,-1.20e-02,
517,-4.00e-03,
518,-8.00e-03,
519,-1.20e-02,
520,-4.00e-03,
521,-1.60e-02,
522,-4.00e-03,
523,-8.00e-03,
524,-8.00e-03,
525,-8.00e-03,
526,-4.00e-03,
527,-8.00e-03,
528,-8.00e-03,
529,-8.00e-03,
530,-1.20e-02,
531,-8.00e-03,
532,4.00e-03,
533,-1.20e-02,
534,-8.00e-03,
535,-8.00e-03,
536,-4.00e-03,
537,-8.00e-03,
538,-4.00e-03,
539,-4.00e-03,
540,-8.00e-03,
541,-8.00e-03,
542,-4.00e-03,
543,-8.00e-03,
544,-4.00e-03,
545,-4.00e-03,
546,-8.00e-03,
547,-8.00e-03,
548,-8.00e-03,
549,-8.00e-03,
550,-4.00e-03,
551,-4.00e-03,
552,-4.00e-03,
553,-4.00e-03,
554,-8.00e-03,
555,-1.20e-02,
556,-4.00e-03,
557,-8.00e-03,
558,-4.00e-03,
559,-8.00e-03,
560,-8.00e-03,
561,-4.00e-03,
562,-8.00e-03,
563,-8.00e-03,
564,-8.00e-03,
565,0.00e+00,
566,-8.00e-03,
567,-8.00e-03,
568,-8.00e-03,
569,-8.00e-03,
570,-8.00e-03,
571,-8.00e-03,
572,0.00e+00,
573,-1.20e-02,
574,4.00e-03,
575,-4.00e-03,
576,0.00e+00,
577,-8.00e-03,
578,-4.00e-03,
579,-8.00e-03,
580,-1.20e-02,
581,-8.00e-03,
582,-8.00e-03,
583,-8.00e-03,
584,0.00e+00,
585,-2.40e-02,
586,-8.00e-03,
587,-8.00e-03,
588,0.00e+00,
589,0.00e+00,
590,-1.20e-02,
591,-4.00e-03,
592,-4.00e-03,
593,-1.20e-02,
594,-4.00e-03,
595,-4.00e-03,
596,-4.00e-03,
597,-8.00e-03,
598,-4.00e-03,
599,8.00e-03,
600,-8.00e-03,
601,4.00e-03,
602,0.00e+00,
603,-4.00e-03,
604,-8.00e-03,
605,-8.00e-03,
606,-4.00e-03,
607,-4.00e-03,
608,-8.00e-03,
609,-8.00e-03,
610,8.00e-03,
611,0.00e+00,
612,-8.00e-03,
613,-8.00e-03,
614,-4.00e-03,
615,-4.00e-03,
616,-8.00e-03,
617,-8.00e-03,
618,-8.00e-03,
619,-8.00e-03,
620,-4.00e-03,
621,-4.00e-03,
622,-4.00e-03,
623,-4.00e-03,
624,0.00e+00,
625,-8.00e-03,
626,-4.00e-03,
627,-4.00e-03,
628,-4.00e-03,
629,-8.00e-03,
630,-8.00e-03,
631,-4.00e-03,
632,-8.00e-03,
633,-8.00e-03,
634,-4.00e-03,
635,-8.00e-03,
636,-8.00e-03,
637,-8.00e-03,
638,-8.00e-03,
639,-4.00e-03,
640,-8.00e-03,
641,-1.60e-02,
642,-1.60e-02,
643,-8.00e-03,
644,-8.00e-03,
645,-4.00e-03,
646,-8.00e-03,
647,-2.40e-02,
648,-8.00e-03,
649,-4.00e-03,
650,-4.00e-03,
651,-2.40e-02,
652,-8.00e-03,
653,-8.00e-03,
654,-1.20e-02,
655,-8.00e-03,
656,-4.00e-03,
657,-8.00e-03,
658,-8.00e-03,
659,-4.00e-03,
660,-1.20e-02,
661,-4.00e-03,
662,-2.40e-02,
663,-1.20e-02,
664,-4.00e-03,
665,-1.20e-02,
666,-2.40e-02,
667,-1.20e-02,
668,-4.00e-03,
669,-4.00e-03,
670,-1.20e-02,
671,-4.00e-03,
672,-4.00e-03,
673,-1.20e-02,
674,-1.20e-02,
675,-1.60e-02,
676,0.00e+00,
677,-1.20e-02,
678,0.00e+00,
679,-2.80e-02,
680,8.00e-03,
681,-1.60e-02,
682,-4.00e-03,
683,4.00e-03,
684,-1.20e-02,
685,-1.20e-02,
686,-8.00e-03,
687,-8.00e-03,
688,-4.00e-03,
689,-8.00e-03,
690,-8.00e-03,
691,-8.00e-03,
692,-8.00e-03,
693,-1.20e-02,
694,-4.00e-03,
695,-8.00e-03,
696,-8.00e-03,
697,-8.00e-03,
698,-8.00e-03,
699,0.00e+00,
700,-8.00e-03,
701,-1.20e-02,
702,-4.00e-03,
703,0.00e+00,
704,-1.60e-02,
705,-4.00e-03,
706,-8.00e-03,
707,-8.00e-03,
708,-4.00e-03,
709,-8.00e-03,
710,-8.00e-03,
711,-8.00e-03,
712,-8.00e-03,
713,-8.00e-03,
714,-8.00e-03,
715,-4.00e-03,
716,-8.00e-03,
717,-8.00e-03,
718,-2.80e-02,
719,-4.00e-03,
720,-8.00e-03,
721,-8.00e-03,
722,-4.00e-03,
723,-8.00e-03,
724,-8.00e-03,
725,-1.20e-02,
726,-4.00e-03,
727,-8.00e-03,
728,-8.00e-03,
729,-8.00e-03,
730,-8.00e-03,
731,-1.20e-02,
732,-4.00e-03,
733,-1.60e-02,
734,-8.00e-03,
735,-8.00e-03,
736,-4.00e-03,
737,-1.20e-02,
738,-4.00e-03,
739,-4.00e-03,
740,-8.00e-03,
741,-8.00e-03,
742,-8.00e-03,
743,-8.00e-03,
744,-4.00e-03,
745,-4.00e-03,
746,-8.00e-03,
747,-1.20e-02,
748,-8.00e-03,
749,-4.00e-03,
750,0.00e+00,
751,-8.00e-03,
752,-4.00e-03,
753,-8.00e-03,
754,-4.00e-03,
755,-8.00e-03,
756,-4.00e-03,
757,-4.00e-03,
758,-4.00e-03,
759,-8.00e-03,
760,-8.00e-03,
761,-8.00e-03,
762,-8.00e-03,
763,-8.00e-03,
764,-1.20e-02,
765,-1.20e-02,
766,-4.00e-03,
767,-8.00e-03,
768,-4.00e-03,
769,-4.00e-03,
770,-1.60e-02,
771,-4.00e-03,
772,-8.00e-03,
773,-4.00e-03,
774,-4.00e-03,
775,-4.00e-03,
776,-4.00e-03,
777,-4.00e-03,
778,-4.00e-03,
779,-1.20e-02,
780,0.00e+00,
781,-8.00e-03,
782,-4.00e-03,
783,-8.00e-03,
784,-8.00e-03,
785,-8.00e-03,
786,-4.00e-03,
787,-4.00e-03,
788,-8.00e-03,
789,-4.00e-03,
790,-4.00e-03,
791,-4.00e-03,
792,-8.00e-03,
793,-8.00e-03,
794,-8.00e-03,
795,-4.00e-03,
796,-4.00e-03,
797,-8.00e-03,
798,-8.00e-03,
799,-8.00e-03,
800,-8.00e-03,
801,-4.00e-03,
802,-8.00e-03,
803,-2.40e-02,
804,0.00e+00,
805,-8.00e-03,
806,-8.00e-03,
807,0.00e+00,
808,-4.00e-03,
809,-8.00e-03,
810,-1.20e-02,
811,-8.00e-03,
812,-4.00e-03,
813,-8.00e-03,
814,-1.60e-02,
815,-4.00e-03,
816,-8.00e-03,
817,-4.00e-03,
818,-4.00e-03,
819,-4.00e-03,
820,-8.00e-03,
821,-1.20e-02,
822,-8.00e-03,
823,-4.00e-03,
824,-4.00e-03,
825,-1.60e-02,
826,-8.00e-03,
827,-1.20e-02,
828,-4.00e-03,
829,-8.00e-03,
830,-4.00e-03,
831,-4.00e-03,
832,-1.20e-02,
833,-8.00e-03,
834,-4.00e-03,
835,-4.00e-03,
836,-8.00e-03,
837,-1.20e-02,
838,-1.20e-02,
839,4.00e-03,
840,4.00e-03,
841,-2.40e-02,
842,-8.00e-03,
843,-8.00e-03,
844,-4.00e-03,
845,-8.00e-03,
846,-8.00e-03,
847,-8.00e-03,
848,-8.00e-03,
849,-8.00e-03,
850,-8.00e-03,
851,-8.00e-03,
852,-8.00e-03,
853,-8.00e-03,
854,-4.00e-03,
855,-8.00e-03,
856,-4.00e-03,
857,0.00e+00,
858,4.00e-03,
859,-8.00e-03,
860,-4.00e-03,
861,0.00e+00,
862,-8.00e-03,
863,-4.00e-03,
864,-4.00e-03,
865,-8.00e-03,
866,-1.20e-02,
867,-4.00e-03,
868,-4.00e-03,
869,-8.00e-03,
870,0.00e+00,
871,-4.00e-03,
872,-1.60e-02,
873,-8.00e-03,
874,0.00e+00,
875,-4.00e-03,
876,-4.00e-03,
877,-4.00e-03,
878,-8.00e-03,
879,-8.00e-03,
880,-8.00e-03,
881,-4.00e-03,
882,-8.00e-03,
883,-8.00e-03,
884,-4.00e-03,
885,-4.00e-03,
886,-8.00e-03,
887,-8.00e-03,
888,-8.00e-03,
889,-8.00e-03,
890,-8.00e-03,
891,-1.60e-02,
892,-8.00e-03,
893,-8.00e-03,
894,-8.00e-03,
895,-8.00e-03,
896,-4.00e-03,
897,-8.00e-03,
898,8.00e-03,
899,-8.00e-03,
900,0.00e+00,
901,-4.00e-03,
902,-8.00e-03,
903,-4.00e-03,
904,-8.00e-03,
905,0.00e+00,
906,-4.00e-03,
907,-8.00e-03,
908,-4.00e-03,
909,-8.00e-03,
910,-8.00e-03,
911,-8.00e-03,
912,1.20e-02,
913,-8.00e-03,
914,-8.00e-03,
915,-8.00e-03,
916,-1.60e-02,
917,-4.00e-03,
918,-8.00e-03,
919,-8.00e-03,
920,4.00e-03,
921,-4.00e-03,
922,-8.00e-03,
923,-4.00e-03,
924,-1.20e-02,
925,-4.00e-03,
926,-4.00e-03,
927,0.00e+00,
928,4.00e-03,
929,4.00e-03,
930,0.00e+00,
931,2.00e-02,
932,1.20e-02,
933,-1.60e-02,
934,-4.00e-03,
935,-1.20e-02,
936,-1.60e-02,
937,-1.20e-02,
938,0.00e+00,
939,0.00e+00,
940,0.00e+00,
941,-4.00e-03,
942,-4.00e-03,
943,-1.20e-02,
944,-4.00e-03,
945,-4.00e-03,
946,0.00e+00,
947,-4.00e-03,
948,-1.60e-02,
949,-4.00e-03,
950,0.00e+00,
951,-1.20e-02,
952,-1.20e-02,
953,-4.00e-03,
954,-8.00e-03,
955,-4.00e-03,
956,-8.00e-03,
957,-8.00e-03,
958,-1.20e-02,
959,4.00e-03,
960,-8.00e-03,
961,-8.00e-03,
962,-8.00e-03,
963,-4.00e-03,
964,4.00e-03,
965,-8.00e-03,
966,-8.00e-03,
967,-8.00e-03,
968,-4.00e-03,
969,-4.00e-03,
970,-4.00e-03,
971,-8.00e-03,
972,-8.00e-03,
973,-8.00e-03,
974,-8.00e-03,
975,-4.00e-03,
976,-1.20e-02,
977,-8.00e-03,
978,-8.00e-03,
979,-8.00e-03,
980,-8.00e-03,
981,-4.00e-03,
982,-4.00e-03,
983,-4.00e-03,
984,-8.00e-03,
985,-4.00e-03,
986,-8.00e-03,
987,-8.00e-03,
988,-8.00e-03,
989,-8.00e-03,
990,-8.00e-03,
991,-8.00e-03,
992,-8.00e-03,
993,-8.00e-03,
994,-4.00e-03,
995,-4.00e-03,
996,-8.00e-03,
997,-4.00e-03,
998,-1.20e-02,
999,-8.00e-03,
1000,-4.00e-03,
1001,-8.00e-03,
1002,-8.00e-03,
1003,-1.60e-02,
1004,-4.00e-03,
1005,-4.00e-03,
1006,-8.00e-03,
1007,-8.00e-03,
1008,-8.00e-03,
1009,-8.00e-03,
1010,-8.00e-03,
1011,-8.00e-03,
1012,-4.00e-03,
1013,-8.00e-03,
1014,-8.00e-03,
1015,0.00e+00,
1016,-8.00e-03,
1017,-8.00e-03,
1018,-4.00e-03,
1019,-8.00e-03,
1020,-4.00e-03,
1021,-8.00e-03,
1022,-8.00e-03,
1023,-8.00e-03,
1024,-1.20e-02,
1025,-8.00e-03,
1026,-8.00e-03,
1027,-4.00e-03,
1028,-8.00e-03,
1029,-4.00e-03,
1030,-8.00e-03,
1031,-4.00e-03,
1032,-1.20e-02,
1033,-4.00e-03,
1034,-8.00e-03,
1035,-4.00e-03,
1036,-8.00e-03,
1037,-4.00e-03,
1038,-4.00e-03,
1039,-4.00e-03,
1040,-4.00e-03,
1041,-4.00e-03,
1042,-8.00e-03,
1043,-8.00e-03,
1044,-1.20e-02,
1045,-4.00e-03,
1046,0.00e+00,
1047,-4.00e-03,
1048,-4.00e-03,
1049,-8.00e-03,
1050,-4.00e-03,
1051,-8.00e-03,
1052,4.00e-03,
1053,0.00e+00,
1054,0.00e+00,
1055,-4.00e-03,
1056,-8.00e-03,
1057,-8.00e-03,
1058,-1.20e-02,
1059,-8.00e-03,
1060,-8.00e-03,
1061,-8.00e-03,
1062,-4.00e-03,
1063,0.00e+00,
1064,-8.00e-03,
1065,-8.00e-03,
1066,-4.00e-03,
1067,-8.00e-03,
1068,-4.00e-03,
1069,-4.00e-03,
1070,-8.00e-03,
1071,-8.00e-03,
1072,-8.00e-03,
1073,-8.00e-03,
1074,-4.00e-03,
1075,-1.20e-02,
1076,8.00e-03,
1077,-4.00e-03,
1078,0.00e+00,
1079,-1.20e-02,
1080,4.00e-03,
1081,-4.00e-03,
1082,-4.00e-03,
1083,-8.00e-03,
1084,-1.20e-02,
1085,-8.00e-03,
1086,-4.00e-03,
1087,-8.00e-03,
1088,-1.20e-02,
1089,4.00e-03,
1090,-1.20e-02,
1091,-4.00e-03,
1092,0.00e+00,
1093,-4.00e-03,
1094,-4.00e-03,
1095,-4.00e-03,
1096,-4.00e-03,
1097,-1.60e-02,
1098,-8.00e-03,
1099,-4.00e-03,
1100,-8.00e-03,
1101,-1.20e-02,
1102,-8.00e-03,
1103,-8.00e-03,
1104,0.00e+00,
1105,-8.00e-03,
1106,-1.20e-02,
1107,-1.20e-02,
1108,-1.20e-02,
1109,-8.00e-03,
1110,-1.60e-02,
1111,-8.00e-03,
1112,-8.00e-03,
1113,-8.00e-03,
1114,-4.00e-03,
1115,-8.00e-03,
1116,-4.00e-03,
1117,-4.00e-03,
1118,-4.00e-03,
1119,-8.00e-03,
1120,4.00e-03,
1121,-4.00e-03,
1122,-4.00e-03,
1123,-1.20e-02,
1124,-4.00e-03,
1125,-8.00e-03,
1126,-4.00e-03,
1127,0.00e+00,
1128,-8.00e-03,
1129,-8.00e-03,
1130,0.00e+00,
1131,-8.00e-03,
1132,-1.20e-02,
1133,-4.00e-03,
1134,-8.00e-03,
1135,-8.00e-03,
1136,-8.00e-03,
1137,-4.00e-03,
1138,-8.00e-03,
1139,-1.20e-02,
1140,-8.00e-03,
1141,-4.00e-03,
1142,-8.00e-03,
1143,-4.00e-03,
1144,-4.00e-03,
1145,-4.00e-03,
1146,-4.00e-03,
1147,-4.00e-03,
1148,0.00e+00,
1149,-1.20e-02,
1150,-8.00e-03,
1151,-2.40e-02,
1152,-4.00e-03,
1153,-4.00e-03,
1154,-1.20e-02,
1155,-1.20e-02,
1156,-8.00e-03,
1157,-4.00e-03,
1158,-8.00e-03,
1159,-8.00e-03,
1160,-8.00e-03,
1161,-2.40e-02,
1162,-2.40e-02,
1163,-4.00e-03,
1164,0.00e+00,
1165,-4.00e-03,
1166,-1.60e-02,
1167,-4.00e-03,
1168,-1.20e-02,
1169,-8.00e-03,
1170,-1.20e-02,
1171,-4.00e-03,
1172,-4.00e-03,
1173,-8.00e-03,
1174,-4.00e-03,
1175,4.00e-03,
1176,-8.00e-03,
1177,-4.00e-03,
1178,0.00e+00,
1179,-1.20e-02,
1180,4.00e-03,
1181,-4.00e-03,
1182,0.00e+00,
1183,-2.40e-02,
1184,-3.60e-02,
1185,4.00e-03,
1186,4.00e-03,
1187,-4.00e-03,
1188,-1.20e-02,
1189,-4.00e-03,
1190,-8.00e-03,
1191,4.00e-03,
1192,-4.00e-03,
1193,-1.20e-02,
1194,-1.60e-02,
1195,-1.60e-02,
1196,-4.00e-03,
1197,1.20e-02,
1198,0.00e+00,
1199,-2.40e-02,
1200,-4.00e-03,
1201,4.00e-03,
1202,-4.00e-03,
1203,-8.00e-03,
1204,-4.00e-03,
1205,-8.00e-03,
1206,-4.00e-03,
1207,-1.20e-02,
1208,-1.20e-02,
1209,-4.00e-03,
1210,-8.00e-03,
1211,-8.00e-03,
1212,-8.00e-03,
1213,-8.00e-03,
1214,-8.00e-03,
1215,-8.00e-03,
1216,-8.00e-03,
1217,-8.00e-03,
1218,-8.00e-03,
1219,-1.20e-02,
1220,-8.00e-03,
1221,-8.00e-03,
1222,-8.00e-03,
1223,-8.00e-03,
1224,-1.60e-02,
1225,-8.00e-03,
1226,-4.00e-03,
1227,-4.00e-03,
1228,-8.00e-03,
1229,-4.00e-03,
1230,-8.00e-03,
1231,-4.00e-03,
1232,-8.00e-03,
1233,-8.00e-03,
1234,-8.00e-03,
1235,-8.00e-03,
1236,-4.00e-03,
1237,-1.20e-02,
1238,-8.00e-03,
1239,-8.00e-03,
1240,-8.00e-03,
1241,-4.00e-03,
1242,-4.00e-03,
1243,-1.20e-02,
1244,-1.20e-02,
1245,-4.00e-03,
1246,-8.00e-03,
1247,-8.00e-03,
1248,-8.00e-03,
1249,-4.00e-03,
1250,-8.00e-03,
1251,-8.00e-03,
1252,-4.00e-03,
1253,-4.00e-03,
1254,-8.00e-03,
1255,-8.00e-03,
1256,-8.00e-03,
1257,-4.00e-03,
1258,-4.00e-03,
1259,0.00e+00,
1260,-1.20e-02,
1261,-1.20e-02,
1262,-4.00e-03,
1263,-4.00e-03,
1264,-8.00e-03,
1265,-4.00e-03,
1266,-4.00e-03,
1267,-8.00e-03,
1268,0.00e+00,
1269,4.00e-03,
1270,-4.00e-03,
1271,-8.00e-03,
1272,-4.00e-03,
1273,-4.00e-03,
1274,-8.00e-03,
1275,-4.00e-03,
1276,-1.20e-02,
1277,0.00e+00,
1278,-4.00e-03,
1279,-8.00e-03,
1280,-4.00e-03,
1281,-1.20e-02,
1282,-4.00e-03,
1283,-4.00e-03,
1284,-4.00e-03,
1285,-4.00e-03,
1286,-4.00e-03,
1287,0.00e+00,
1288,-8.00e-03,
1289,-4.00e-03,
1290,-1.20e-02,
1291,-4.00e-03,
1292,-8.00e-03,
1293,-1.20e-02,
1294,-4.00e-03,
1295,-8.00e-03,
1296,-8.00e-03,
1297,-8.00e-03,
1298,-8.00e-03,
1299,0.00e+00,
1300,-8.00e-03,
1301,-8.00e-03,
1302,-4.00e-03,
1303,-8.00e-03,
1304,-4.00e-03,
1305,-4.00e-03,
1306,-4.00e-03,
1307,-4.00e-03,
1308,-8.00e-03,
1309,-1.20e-02,
1310,0.00e+00,
1311,-4.00e-03,
1312,-8.00e-03,
1313,0.00e+00,
1314,4.00e-03,
1315,-4.00e-03,
1316,-4.00e-03,
1317,-8.00e-03,
1318,-4.00e-03,
1319,-1.20e-02,
1320,-8.00e-03,
1321,-8.00e-03,
1322,-8.00e-03,
1323,-8.00e-03,
