final_data/6I12.csv

X,CH1,Start,Increment,
Sequence,Volt,-1.200000e+00,4.000000e-05
0,0.00e+00,
1,-4.00e-03,
2,-4.00e-03,
3,-4.00e-03,
4,-4.00e-03,
5,-4.00e-03,
6,-1.20e-02,
7,0.00e+00,
8,-4.00e-03,
9,0.00e+00,
10,-4.00e-03,
11,0.00e+00,
12,8.00e-03,
13,-4.00e-03,
14,4.00e-03,
15,-4.00e-03,
16,-8.00e-03,
17,0.00e+00,
18,-4.00e-03,
19,-8.00e-03,
20,-8.00e-03,
21,-4.00e-03,
22,0.00e+00,
23,-4.00e-03,
24,0.00e+00,
25,-8.00e-03,
26,-8.00e-03,
27,0.00e+00,
28,-4.00e-03,
29,0.00e+00,
30,0.00e+00,
31,-4.00e-03,
32,0.00e+00,
33,0.00e+00,
34,-4.00e-03,
35,-4.00e-03,
36,-8.00e-03,
37,-4.00e-03,
38,-4.00e-03,
39,-4.00e-03,
40,0.00e+00,
41,0.00e+00,
42,-4.00e-03,
43,0.00e+00,
44,0.00e+00,
45,-4.00e-03,
46,-4.00e-03,
47,0.00e+00,
48,0.00e+00,
49,0.00e+00,
50,4.00e-03,
51,0.00e+00,
52,0.00e+00,
53,0.00e+00,
54,0.00e+00,
55,-4.00e-03,
56,-1.60e-02,
57,-4.00e-03,
58,-4.00e-03,
59,-2.40e-02,
60,-4.00e-03,
61,-4.00e-03,
62,0.00e+00,
63,0.00e+00,
64,-1.60e-02,
65,-4.00e-03,
66,-4.00e-03,
67,-4.00e-03,
68,-4.00e-03,
69,4.00e-03,
70,-4.00e-03,
71,4.00e-03,
72,-4.00e-03,
73,4.00e-03,
74,8.00e-03,
75,4.00e-03,
76,-8.00e-03,
77,-4.00e-03,
78,4.00e-03,
79,0.00e+00,
80,-8.00e-03,
81,-1.20e-02,
82,-4.00e-03,
83,4.00e-03,
84,-2.80e-02,
85,8.00e-03,
86,-8.00e-03,
87,8.00e-03,
88,-8.00e-03,
89,-4.00e-03,
90,8.00e-03,
91,0.00e+00,
92,-4.00e-03,
93,-4.00e-03,
94,0.00e+00,
95,0.00e+00,
96,0.00e+00,
97,-4.00e-03,
98,0.00e+00,
99,0.00e+00,
100,0.00e+00,
101,0.00e+00,
102,-4.00e-03,
103,-4.00e-03,
104,0.00e+00,
105,-4.00e-03,
106,0.00e+00,
107,-8.00e-03,
108,-1.20e-02,
109,0.00e+00,
110,4.00e-03,
111,-8.00e-03,
112,0.00e+00,
113,-4.00e-03,
114,-1.20e-02,
115,0.00e+00,
116,-4.00e-03,
117,0.00e+00,
118,0.00e+00,
119,-4.00e-03,
120,0.00e+00,
121,-4.00e-03,
122,-4.00e-03,
123,-4.00e-03,
124,0.00e+00,
125,0.00e+00,
126,0.00e+00,
127,0.00e+00,
128,0.00e+00,
129,0.00e+00,
130,-4.00e-03,
131,-4.00e-03,
132,-4.00e-03,
133,0.00e+00,
134,0.00e+00,
135,-4.00e-03,
136,-4.00e-03,
137,0.00e+00,
138,-4.00e-03,
139,-4.00e-03,
140,8.00e-03,
141,0.00e+00,
142,-4.00e-03,
143,0.00e+00,
144,-4.00e-03,
145,4.00e-03,
146,-4.00e-03,
147,0.00e+00,
148,0.00e+00,
149,0.00e+00,
150,0.00e+00,
151,0.00e+00,
152,0.00e+00,
153,-4.00e-03,
154,0.00e+00,
155,0.00e+00,
156,0.00e+00,
157,0.00e+00,
158,0.00e+00,
159,-4.00e-03,
160,-4.00e-03,
161,-4.00e-03,
162,-4.00e-03,
163,-4.00e-03,
164,-4.00e-03,
165,-4.00e-03,
166,-4.00e-03,
167,0.00e+00,
168,0.00e+00,
169,-4.00e-03,
170,-4.00e-03,
171,4.00e-03,
172,-4.00e-03,
173,-4.00e-03,
174,-4.00e-03,
175,4.00e-03,
176,4.00e-03,
177,-4.00e-03,
178,-4.00e-03,
179,0.00e+00,
180,-4.00e-03,
181,0.00e+00,
182,8.00e-03,
183,-4.00e-03,
184,-4.00e-03,
185,-8.00e-03,
186,-4.00e-03,
187,-4.00e-03,
188,-4.00e-03,
189,-4.00e-03,
190,-4.00e-03,
191,1.20e-02,
192,-4.00e-03,
193,-4.00e-03,
194,0.00e+00,
195,0.00e+00,
196,0.00e+00,
197,-8.00e-03,
198,0.00e+00,
199,-4.00e-03,
200,4.00e-03,
201,-4.00e-03,
202,-4.00e-03,
203,0.00e+00,
204,-4.00e-03,
205,0.00e+00,
206,-4.00e-03,
207,0.00e+00,
208,0.00e+00,
209,-4.00e-03,
210,0.00e+00,
211,4.00e-03,
212,0.00e+00,
213,-4.00e-03,
214,-4.00e-03,
215,0.00e+00,
216,-4.00e-03,
217,0.00e+00,
218,-4.00e-03,
219,0.00e+00,
220,-4.00e-03,
221,-4.00e-03,
222,-4.00e-03,
223,0.00e+00,
224,0.00e+00,
225,4.00e-03,
226,0.00e+00,
227,-4.00e-03,
228,-4.00e-03,
229,-4.00e-03,
230,0.00e+00,
231,-4.00e-03,
232,-4.00e-03,
233,-1.20e-02,
234,-8.00e-03,
235,4.00e-03,
236,0.00e+00,
237,-4.00e-03,
238,-4.00e-03,
239,-4.00e-03,
240,-4.00e-03,
241,0.00e+00,
242,0.00e+00,
243,0.00e+00,
244,0.00e+00,
245,-4.00e-03,
246,-8.00e-03,
247,4.00e-03,
248,-4.00e-03,
249,-1.20e-02,
250,4.00e-03,
251,-4.00e-03,
252,-1.20e-02,
253,-4.00e-03,
254,-4.00e-03,
255,-4.00e-03,
256,0.00e+00,
257,-4.00e-03,
258,0.00e+00,
259,-8.00e-03,
260,0.00e+00,
261,0.00e+00,
262,-4.00e-03,
263,-1.20e-02,
264,0.00e+00,
265,4.00e-03,
266,4.00e-03,
267,-4.00e-03,
268,-4.00e-03,
269,0.00e+00,
270,0.00e+00,
271,0.00e+00,
272,-4.00e-03,
273,-4.00e-03,
274,-4.00e-03,
275,0.00e+00,
276,0.00e+00,
277,0.00e+00,
278,0.00e+00,
279,0.00e+00,
280,4.00e-03,
281,-4.00e-03,
282,-4.00e-03,
283,0.00e+00,
284,4.00e-03,
285,0.00e+00,
286,0.00e+00,
287,-8.00e-03,
288,-4.00e-03,
289,0.00e+00,
290,4.00e-03,
291,-8.00e-03,
292,-4.00e-03,
293,-4.00e-03,
294,-4.00e-03,
295,-4.00e-03,
296,-4.00e-03,
297,0.00e+00,
298,-4.00e-03,
299,0.00e+00,
300,0.00e+00,
301,-4.00e-03,
302,-4.00e-03,
303,0.00e+00,
304,0.00e+00,
305,4.00e-03,
306,0.00e+00,
307,-4.00e-03,
308,-4.00e-03,
309,0.00e+00,
310,-4.00e-03,
311,0.00e+00,
312,0.00e+00,
313,8.00e-03,
314,-4.00e-03,
315,-8.00e-03,
316,0.00e+00,
317,-1.20e-02,
318,4.00e-03,
319,-8.00e-03,
320,-8.00e-03,
321,-4.00e-03,
322,0.00e+00,
323,-4.00e-03,
324,-4.00e-03,
325,0.00e+00,
326,-4.00e-03,
327,-4.00e-03,
328,-4.00e-03,
329,-4.00e-03,
330,0.00e+00,
331,-4.00e-03,
332,0.00e+00,
333,8.00e-03,
334,-4.00e-03,
335,0.00e+00,
336,-1.20e-02,
337,0.00e+00,
338,1.20e-02,
339,0.00e+00,
340,-4.00e-03,
341,-2.40e-02,
342,-4.00e-03,
343,0.00e+00,
344,-8.00e-03,
345,0.00e+00,
346,4.00e-03,
347,0.00e+00,
348,0.00e+00,
349,4.00e-03,
350,-4.00e-03,
351,4.00e-03,
352,4.00e-03,
353,-4.00e-03,
354,0.00e+00,
355,1.20e-02,
356,-8.00e-03,
357,-8.00e-03,
358,-8.00e-03,
359,-4.00e-03,
360,-1.20e-02,
361,4.00e-03,
362,4.00e-03,
363,-8.00e-03,
364,-4.00e-03,
365,-4.00e-03,
366,4.00e-03,
367,-4.00e-03,
368,0.00e+00,
369,0.00e+00,
370,-4.00e-03,
371,-4.00e-03,
372,4.00e-03,
373,-4.00e-03,
374,-4.00e-03,
375,-8.00e-03,
376,-8.00e-03,
377,-4.00e-03,
378,-4.00e-03,
379,-4.00e-03,
380,-4.00e-03,
381,-4.00e-03,
382,0.00e+00,
383,-4.00e-03,
384,-4.00e-03,
385,-4.00e-03,
386,-1.20e-02,
387,-4.00e-03,
388,-4.00e-03,
389,0.00e+00,
390,-4.00e-03,
391,4.00e-03,
392,-4.00e-03,
393,-4.00e-03,
394,0.00e+00,
395,-4.00e-03,
396,0.00e+00,
397,-4.00e-03,
398,-8.00e-03,
399,-4.00e-03,
400,0.00e+00,
401,0.00e+00,
402,0.00e+00,
403,0.00e+00,
404,-4.00e-03,
405,-4.00e-03,
406,4.00e-03,
407,0.00e+00,
408,-4.00e-03,
409,0.00e+00,
410,0.00e+00,
411,0.00e+00,
412,-4.00e-03,
413,-4.00e-03,
414,-4.00e-03,
415,-4.00e-03,
416,0.00e+00,
417,0.00e+00,
418,0.00e+00,
419,0.00e+00,
420,0.00e+00,
421,0.00e+00,
422,-8.00e-03,
423,0.00e+00,
424,-4.00e-03,
425,-4.00e-03,
426,-4.00e-03,
427,-4.00e-03,
428,0.00e+00,
429,0.00e+00,
430,-4.00e-03,
431,-4.00e-03,
432,0.00e+00,
433,0.00e+00,
434,0.00e+00,
435,-4.00e-03,
436,0.00e+00,
437,-4.00e-03,
438,-4.00e-03,
439,0.00e+00,
440,-4.00e-03,
441,0.00e+00,
442,0.00e+00,
443,-4.00e-03,
444,-4.00e-03,
445,0.00e+00,
446,-4.00e-03,
447,0.00e+00,
448,-4.00e-03,
449,-4.00e-03,
450,-4.00e-03,
451,0.00e+00,
452,-4.00e-03,
453,-4.00e-03,
454,-4.00e-03,
455,0.00e+00,
456,0.00e+00,
457,-4.00e-03,
458,0.00e+00,
459,-4.00e-03,
460,-1.20e-02,
461,-4.00e-03,
462,-4.00e-03,
463,-4.00e-03,
464,0.00e+00,
465,-8.00e-03,
466,0.00e+00,
467,-4.00e-03,
468,0.00e+00,
469,0.00e+00,
470,0.00e+00,
471,0.00e+00,
472,0.00e+00,
473,4.00e-03,
474,4.00e-03,
475,-4.00e-03,
476,0.00e+00,
477,-4.00e-03,
478,0.00e+00,
479,-8.00e-03,
480,-4.00e-03,
481,4.00e-03,
482,-8.00e-03,
483,-4.00e-03,
484,-8.00e-03,
485,-8.00e-03,
486,-4.00e-03,
487,-8.00e-03,
488,-4.00e-03,
489,-4.00e-03,
490,-4.00e-03,
491,-8.00e-03,
492,0.00e+00,
493,-4.00e-03,
494,0.00e+00,
495,-4.00e-03,
496,-4.00e-03,
497,-4.00e-03,
498,-4.00e-03,
499,0.00e+00,
500,-8.00e-03,
501,0.00e+00,
502,0.00e+00,
503,4.00e-03,
504,-4.00e-03,
505,-8.00e-03,
506,-4.00e-03,
507,-1.60e-02,
508,0.00e+00,
509,-1.20e-02,
510,-4.00e-03,
511,4.00e-03,
512,0.00e+00,
513,0.00e+00,
514,-4.00e-03,
515,-4.00e-03,
516,4.00e-03,
517,-4.00e-03,
518,-4.00e-03,
519,0.00e+00,
520,0.00e+00,
521,-8.00e-03,
522,0.00e+00,
523,-8.00e-03,
524,0.00e+00,
525,0.00e+00,
526,-4.00e-03,
527,0.00e+00,
528,0.00e+00,
529,0.00e+00,
530,0.00e+00,
531,0.00e+00,
532,0.00e+00,
533,0.00e+00,
534,0.00e+00,
535,-1.20e-02,
536,-8.00e-03,
537,-4.00e-03,
538,-4.00e-03,
539,0.00e+00,
540,-4.00e-03,
541,4.00e-03,
542,4.00e-03,
543,-4.00e-03,
544,-4.00e-03,
545,0.00e+00,
546,0.00e+00,
547,-4.00e-03,
548,0.00e+00,
549,0.00e+00,
550,0.00e+00,
551,0.00e+00,
552,-4.00e-03,
553,0.00e+00,
554,0.00e+00,
555,-8.00e-03,
556,-4.00e-03,
557,0.00e+00,
558,-8.00e-03,
559,-4.00e-03,
560,1.20e-02,
561,0.00e+00,
562,4.00e-03,
563,0.00e+00,
564,0.00e+00,
565,-2.40e-02,
566,8.00e-03,
567,-8.00e-03,
568,-4.00e-03,
569,-8.00e-03,
570,-8.00e-03,
571,0.00e+00,
572,-4.00e-03,
573,4.00e-03,
574,-1.20e-02,
575,0.00e+00,
576,8.00e-03,
577,-4.00e-03,
578,-8.00e-03,
579,-8.00e-03,
580,-2.40e-02,
581,-1.20e-02,
582,4.00e-03,
583,4.00e-03,
584,-4.00e-03,
585,-8.00e-03,
586,0.00e+00,
587,-4.00e-03,
588,4.00e-03,
589,-4.00e-03,
590,0.00e+00,
591,-4.00e-03,
592,-4.00e-03,
593,-4.00e-03,
594,-8.00e-03,
595,-4.00e-03,
596,0.00e+00,
597,0.00e+00,
598,0.00e+00,
599,-4.00e-03,
600,4.00e-03,
601,0.00e+00,
602,4.00e-03,
603,-4.00e-03,
604,-4.00e-03,
605,4.00e-03,
606,0.00e+00,
607,-4.00e-03,
608,-4.00e-03,
609,0.00e+00,
610,0.00e+00,
611,0.00e+00,
612,8.00e-03,
613,-8.00e-03,
614,8.00e-03,
615,0.00e+00,
616,0.00e+00,
617,-4.00e-03,
618,-8.00e-03,
619,4.00e-03,
620,-4.00e-03,
621,0.00e+00,
622,-4.00e-03,
623,-4.00e-03,
624,-4.00e-03,
625,0.00e+00,
626,-4.00e-03,
627,0.00e+00,
628,0.00e+00,
629,-4.00e-03,
630,-4.00e-03,
631,0.00e+00,
632,0.00e+00,
633,-8.00e-03,
634,-8.00e-03,
635,-4.00e-03,
636,-4.00e-03,
637,-4.00e-03,
638,0.00e+00,
639,0.00e+00,
640,0.00e+00,
641,-4.00e-03,
642,0.00e+00,
643,-8.00e-03,
644,-4.00e-03,
645,-8.00e-03,
646,0.00e+00,
647,-4.00e-03,
648,0.00e+00,
649,0.00e+00,
650,0.00e+00,
651,-4.00e-03,
652,0.00e+00,
653,0.00e+00,
654,-8.00e-03,
655,0.00e+00,
656,0.00e+00,
657,0.00e+00,
658,-4.00e-03,
659,0.00e+00,
660,4.00e-03,
661,0.00e+00,
662,4.00e-03,
663,-4.00e-03,
664,0.00e+00,
665,-4.00e-03,
666,-4.00e-03,
667,-8.00e-03,
668,-1.20e-02,
669,-4.00e-03,
670,-4.00e-03,
671,0.00e+00,
672,0.00e+00,
673,0.00e+00,
674,0.00e+00,
675,0.00e+00,
676,-4.00e-03,
677,-4.00e-03,
678,0.00e+00,
679,-4.00e-03,
680,-4.00e-03,
681,0.00e+00,
682,0.00e+00,
683,4.00e-03,
684,-8.00e-03,
685,-4.00e-03,
686,-4.00e-03,
687,0.00e+00,
688,0.00e+00,
689,-4.00e-03,
690,0.00e+00,
691,-4.00e-03,
692,0.00e+00,
693,0.00e+00,
694,-8.00e-03,
695,-4.00e-03,
696,4.00e-03,
697,-4.00e-03,
698,-4.00e-03,
699,-8.00e-03,
700,-4.00e-03,
701,-4.00e-03,
702,-4.00e-03,
703,-4.00e-03,
704,-1.20e-02,
705,0.00e+00,
706,-4.00e-03,
707,-4.00e-03,
708,-4.00e-03,
709,0.00e+00,
710,-4.00e-03,
711,4.00e-03,
712,0.00e+00,
713,-4.00e-03,
714,-4.00e-03,
715,0.00e+00,
716,-4.00e-03,
717,0.00e+00,
718,-4.00e-03,
719,-4.00e-03,
720,4.00e-03,
721,-8.00e-03,
722,-4.00e-03,
723,-4.00e-03,
724,4.00e-03,
725,-4.00e-03,
726,-8.00e-03,
727,-8.00e-03,
728,-4.00e-03,
729,-8.00e-03,
730,0.00e+00,
731,4.00e-03,
732,4.00e-03,
733,-4.00e-03,
734,4.00e-03,
735,-4.00e-03,
736,4.00e-03,
737,-1.20e-02,
738,-4.00e-03,
739,-4.00e-03,
740,4.00e-03,
741,0.00e+00,
742,-4.00e-03,
743,8.00e-03,
744,0.00e+00,
745,0.00e+00,
746,0.00e+00,
747,-4.00e-03,
748,-8.00e-03,
749,8.00e-03,
750,4.00e-03,
751,-1.20e-02,
752,4.00e-03,
753,0.00e+00,
754,-4.00e-03,
755,0.00e+00,
756,-4.00e-03,
757,-4.00e-03,
758,0.00e+00,
759,-4.00e-03,
760,1.20e-02,
761,0.00e+00,
762,-8.00e-03,
763,-1.20e-02,
764,0.00e+00,
765,0.00e+00,
766,4.00e-03,
767,-4.00e-03,
768,0.00e+00,
769,-8.00e-03,
770,-4.00e-03,
771,-8.00e-03,
772,-4.00e-03,
773,-4.00e-03,
774,-4.00e-03,
775,-4.00e-03,
776,-4.00e-03,
777,0.00e+00,
778,0.00e+00,
779,-4.00e-03,
780,0.00e+00,
781,-4.00e-03,
782,-4.00e-03,
783,-4.00e-03,
784,0.00e+00,
785,0.00e+00,
786,-4.00e-03,
787,0.00e+00,
788,-4.00e-03,
789,-4.00e-03,
790,0.00e+00,
791,-4.00e-03,
792,-4.00e-03,
793,-4.00e-03,
794,-4.00e-03,
795,0.00e+00,
796,-4.00e-03,
797,0.00e+00,
798,0.00e+00,
799,0.00e+00,
800,0.00e+00,
801,0.00e+00,
802,-8.00e-03,
803,-4.00e-03,
804,-1.20e-02,
805,4.00e-03,
806,-4.00e-03,
807,0.00e+00,
808,8.00e-03,
809,-8.00e-03,
810,0.00e+00,
811,-4.00e-03,
812,-4.00e-03,
813,-4.00e-03,
814,0.00e+00,
815,-4.00e-03,
816,-4.00e-03,
817,-4.00e-03,
818,0.00e+00,
819,-8.00e-03,
820,-1.60e-02,
821,-4.00e-03,
822,-8.00e-03,
823,0.00e+00,
824,4.00e-03,
825,-4.00e-03,
826,8.00e-03,
827,-4.00e-03,
828,-1.60e-02,
829,4.00e-03,
830,8.00e-03,
831,8.00e-03,
832,2.00e-02,
833,2.00e-02,
834,0.00e+00,
835,-1.20e-02,
836,1.20e-02,
837,-8.00e-03,
838,-4.00e-03,
839,8.00e-03,
840,0.00e+00,
841,0.00e+00,
842,0.00e+00,
843,-8.00e-03,
844,4.00e-03,
845,-8.00e-03,
846,-8.00e-03,
847,0.00e+00,
848,-8.00e-03,
849,0.00e+00,
850,-4.00e-03,
851,-8.00e-03,
852,-8.00e-03,
853,4.00e-03,
854,-4.00e-03,
855,-8.00e-03,
856,-4.00e-03,
857,-4.00e-03,
858,0.00e+00,
859,-4.00e-03,
860,4.00e-03,
861,-4.00e-03,
862,-4.00e-03,
863,-4.00e-03,
864,0.00e+00,
865,-4.00e-03,
866,0.00e+00,
867,-4.00e-03,
868,0.00e+00,
869,-4.00e-03,
870,0.00e+00,
871,-4.00e-03,
872,-4.00e-03,
873,-4.00e-03,
874,-4.00e-03,
875,-4.00e-03,
876,0.00e+00,
877,-4.00e-03,
878,0.00e+00,
879,-4.00e-03,
880,0.00e+00,
881,-4.00e-03,
882,-4.00e-03,
883,-4.00e-03,
884,-8.00e-03,
885,-4.00e-03,
886,-8.00e-03,
887,-4.00e-03,
888,-4.00e-03,
889,0.00e+00,
890,0.00e+00,
891,-4.00e-03,
892,0.00e+00,
893,0.00e+00,
894,-4.00e-03,
895,-4.00e-03,
896,-8.00e-03,
897,-4.00e-03,
898,0.00e+00,
899,-4.00e-03,
900,-8.00e-03,
901,0.00e+00,
902,-4.00e-03,
903,-4.00e-03,
904,0.00e+00,
905,0.00e+00,
906,0.00e+00,
907,-4.00e-03,
908,-4.00e-03,
909,-8.00e-03,
910,-4.00e-03,
911,0.00e+00,
912,-4.00e-03,
913,-4.00e-03,
914,-4.00e-03,
915,0.00e+00,
916,-8.00e-03,
917,-4.00e-03,
918,-4.00e-03,
919,-4.00e-03,
920,-4.00e-03,
921,-4.00e-03,
922,-4.00e-03,
923,0.00e+00,
924,-8.00e-03,
925,0.00e+00,
926,-4.00e-03,
927,4.00e-03,
928,4.00e-03,
929,0.00e+00,
930,-4.00e-03,
931,-4.00e-03,
932,0.00e+00,
933,-4.00e-03,
934,0.00e+00,
935,-4.00e-03,
936,0.00e+00,
937,-4.00e-03,
938,-8.00e-03,
939,-4.00e-03,
940,0.00e+00,
941,0.00e+00,
942,0.00e+00,
943,-8.00e-03,
944,0.00e+00,
945,-4.00e-03,
946,-4.00e-03,
947,-4.00e-03,
948,0.00e+00,
949,-4.00e-03,
950,0.00e+00,
951,-4.00e-03,
952,-1.20e-02,
953,-4.00e-03,
954,-4.00e-03,
955,-4.00e-03,
956,0.00e+00,
957,-4.00e-03,
958,0.00e+00,
959,-4.00e-03,
960,0.00e+00,
961,8.00e-03,
962,-4.00e-03,
963,0.00e+00,
964,-8.00e-03,
965,4.00e-03,
966,-4.00e-03,
967,2.00e-02,
968,-4.00e-03,
969,-8.00e-03,
970,0.00e+00,
971,-4.00e-03,
972,-4.00e-03,
973,0.00e+00,
974,8.00e-03,
975,4.00e-03,
976,4.00e-03,
977,0.00e+00,
978,0.00e+00,
979,-8.00e-03,
980,4.00e-03,
981,0.00e+00,
982,-4.00e-03,
983,0.00e+00,
984,0.00e+00,
985,0.00e+00,
986,8.00e-03,
987,0.00e+00,
988,-4.00e-03,
989,-8.00e-03,
990,0.00e+00,
991,0.00e+00,
992,-4.00e-03,
993,-4.00e-03,
994,0.00e+00,
995,0.00e+00,
996,0.00e+00,
997,-4.00e-03,
998,0.00e+00,
999,-4.00e-03,
1000,-4.00e-03,
1001,-4.00e-03,
1002,-8.00e-03,
1003,4.00e-03,
1004,-4.00e-03,
1005,-4.00e-03,
1006,-4.00e-03,
1007,-4.00e-03,
1008,0.00e+00,
1009,0.00e+00,
1010,0.00e+00,
1011,0.00e+00,
1012,0.00e+00,
1013,0.00e+00,
1014,-4.00e-03,
1015,-4.00e-03,
1016,4.00e-03,
1017,-8.00e-03,
1018,-4.00e-03,
1019,-4.00e-03,
1020,-4.00e-03,
1021,-8.00e-03,
1022,4.00e-03,
1023,0.00e+00,
1024,0.00e+00,
1025,0.00e+00,
1026,-4.00e-03,
1027,0.00e+00,
1028,0.00e+00,
1029,0.00e+00,
1030,-4.00e-03,
1031,-8.00e-03,
1032,-4.00e-03,
1033,-4.00e-03,
1034,-4.00e-03,
1035,-4.00e-03,
1036,4.00e-03,
1037,0.00e+00,
1038,-4.00e-03,
1039,-4.00e-03,
1040,-4.00e-03,
1041,-4.00e-03,
1042,-4.00e-03,
1043,-8.00e-03,
1044,0.00e+00,
1045,0.00e+00,
1046,-4.00e-03,
1047,-4.00e-03,
1048,-4.00e-03,
1049,-4.00e-03,
1050,0.00e+00,
1051,-1.60e-02,
1052,-4.00e-03,
1053,0.00e+00,
1054,-4.00e-03,
1055,8.00e-03,
1056,-4.00e-03,
1057,1.20e-02,
1058,-4.00e-03,
1059,-4.00e-03,
1060,1.20e-02,
1061,0.00e+00,
1062,-4.00e-03,
1063,-8.00e-03,
1064,-4.00e-03,
1065,-8.00e-03,
1066,-1.60e-02,
1067,-1.60e-02,
1068,0.00e+00,
1069,-8.00e-03,
1070,0.00e+00,
1071,2.00e-02,
1072,4.00e-03,
1073,-4.00e-03,
1074,0.00e+00,
1075,-8.00e-03,
1076,-4.00e-03,
1077,0.00e+00,
1078,8.00e-03,
1079,-4.00e-03,
1080,-4.00e-03,
1081,-4.00e-03,
1082,0.00e+00,
1083,0.00e+00,
1084,-8.00e-03,
1085,4.00e-03,
1086,-4.00e-03,
1087,-8.00e-03,
1088,-8.00e-03,
1089,-8.00e-03,
1090,0.00e+00,
1091,-4.00e-03,
1092,8.00e-03,
1093,4.00e-03,
1094,2.00e-02,
1095,-4.00e-03,
1096,-8.00e-03,
1097,-4.00e-03,
1098,-4.00e-03,
1099,-8.00e-03,
1100,-8.00e-03,
1101,-8.00e-03,
1102,-8.00e-03,
1103,0.00e+00,
1104,1.20e-02,
1105,0.00e+00,
1106,-8.00e-03,
1107,-4.00e-03,
1108,1.20e-02,
1109,-4.00e-03,
1110,-4.00e-03,
1111,0.00e+00,
1112,0.00e+00,
1113,-4.00e-03,
1114,0.00e+00,
1115,-4.00e-03,
1116,0.00e+00,
1117,0.00e+00,
1118,0.00e+00,
1119,-4.00e-03,
1120,-4.00e-03,
1121,0.00e+00,
1122,0.00e+00,
1123,-4.00e-03,
1124,-4.00e-03,
1125,0.00e+00,
1126,-8.00e-03,
1127,-1.20e-02,
1128,0.00e+00,
1129,0.00e+00,
1130,-4.00e-03,
1131,4.00e-03,
1132,0.00e+00,
1133,-4.00e-03,
1134,0.00e+00,
1135,0.00e+00,
1136,-4.00e-03,
1137,0.00e+00,
1138,0.00e+00,
1139,-4.00e-03,
1140,0.00e+00,
1141,0.00e+00,
1142,0.00e+00,
1143,0.00e+00,
1144,-4.00e-03,
1145,-8.00e-03,
1146,4.00e-03,
1147,-4.00e-03,
1148,-8.00e-03,
1149,-4.00e-03,
1150,-4.00e-03,
1151,-4.00e-03,
1152,0.00e+00,
1153,4.00e-03,
1154,0.00e+00,
1155,-4.00e-03,
1156,0.00e+00,
1157,-8.00e-03,
1158,0.00e+00,
1159,-4.00e-03,
1160,-4.00e-03,
1161,-4.00e-03,
1162,0.00e+00,
1163,0.00e+00,
1164,-8.00e-03,
1165,-8.00e-03,
1166,-4.00e-03,
1167,0.00e+00,
1168,4.00e-03,
1169,-4.00e-03,
1170,0.00e+00,
1171,0.00e+00,
1172,-4.00e-03,
1173,-4.00e-03,
1174,0.00e+00,
1175,0.00e+00,
1176,0.00e+00,
1177,4.00e-03,
1178,4.00e-03,
1179,0.00e+00,
1180,0.00e+00,
1181,0.00e+00,
1182,-4.00e-03,
1183,-8.00e-03,
1184,-8.00e-03,
1185,-8.00e-03,
1186,-4.00e-03,
1187,0.00e+00,
1188,0.00e+00,
1189,-4.00e-03,
1190,0.00e+00,
1191,0.00e+00,
1192,-4.00e-03,
1193,-8.00e-03,
1194,-4.00e-03,
1195,-4.00e-03,
1196,-4.00e-03,
1197,0.00e+00,
1198,0.00e+00,
1199,-4.00e-03,
1200,-4.00e-03,
1201,-4.00e-03,
1202,-4.00e-03,
1203,0.00e+00,
1204,-8.00e-03,
1205,-4.00e-03,
1206,-4.00e-03,
1207,0.00e+00,
1208,0.00e+00,
1209,-4.00e-03,
1210,4.00e-03,
1211,-4.00e-03,
1212,-4.00e-03,
1213,-8.00e-03,
1214,4.00e-03,
1215,0.00e+00,
1216,-4.00e-03,
1217,-4.00e-03,
1218,0.00e+00,
1219,0.00e+00,
1220,4.00e-03,
1221,8.00e-03,
1222,0.00e+00,
1223,4.00e-03,
1224,-8.00e-03,
1225,0.00e+00,
1226,-8.00e-03,
1227,-4.00e-03,
1228,0.00e+00,
1229,0.00e+00,
1230,0.00e+00,
1231,1.20e-02,
1232,4.00e-03,
1233,4.00e-03,
1234,4.00e-03,
1235,0.00e+00,
1236,0.00e+00,
1237,0.00e+00,
1238,-4.00e-03,
1239,4.00e-03,
1240,-4.00e-03,
1241,0.00e+00,
1242,0.00e+00,
1243,0.00e+00,
1244,-8.00e-03,
1245,0.00e+00,
1246,4.00e-03,
1247,-8.00e-03,
1248,-8.00e-03,
1249,-8.00e-03,
1250,0.00e+00,
1251,0.00e+00,
1252,-4.00e-03,
1253,-4.00e-03,
1254,-4.00e-03,
1255,0.00e+00,
1256,0.00e+00,
1257,0.00e+00,
1258,-4.00e-03,
1259,0.00e+00,
1260,-4.00e-03,
1261,-8.00e-03,
1262,-1.20e-02,
1263,0.00e+00,
1264,0.00e+00,
1265,0.00e+00,
1266,-8.00e-03,
1267,0.00e+00,
1268,-4.00e-03,
1269,0.00e+00,
1270,-1.20e-02,
1271,-4.00e-03,
1272,0.00e+00,
1273,0.00e+00,
1274,0.00e+00,
1275,0.00e+00,
1276,-4.00e-03,
1277,0.00e+00,
1278,0.00e+00,
1279,-4.00e-03,
1280,0.00e+00,
1281,-4.00e-03,
1282,-4.00e-03,
1283,0.00e+00,
1284,0.00e+00,
1285,-4.00e-03,
1286,4.00e-03,
1287,-4.00e-03,
1288,0.00e+00,
1289,0.00e+00,
1290,-4.00e-03,
1291,0.00e+00,
1292,0.00e+00,
1293,-4.00e-03,
1294,-4.00e-03,
1295,-4.00e-03,
1296,-4.00e-03,
1297,-8.00e-03,
1298,-4.00e-03,
1299,-4.00e-03,
1300,4.00e-03,
1301,-4.00e-03,
1302,-8.00e-03,
1303,-4.00e-03,
1304,8.00e-03,
1305,0.00e+00,
1306,4.00e-03,
1307,0.00e+00,
1308,-1.60e-02,
1309,-4.00e-03,
1310,-4.00e-03,
1311,0.00e+00,
1312,8.00e-03,
1313,-8.00e-03,
1314,-1.20e-02,
1315,-4.00e-03,
1316,0.00e+00,
1317,0.00e+00,
1318,-8.00e-03,
1319,0.00e+00,
1320,0.00e+00,
1321,4.00e-03,
1322,-4.00e-03,
1323,0.00e+00,
1324,4.00e-03,
1325,-8.00e-03,
1326,8.00e-03,
1327,-4.00e-03,
1328,4.00e-03,
1329,1.20e-02,
1330,-4.00e-03,
1331,0.00e+00,
1332,4.00e-03,
1333,-4.00e-03,
1334,4.00e-03,
1335,-1.20e-02,
1336,4.00e-03,
1337,-4.00e-03,
1338,0.00e+00,
1339,-8.00e-03,
1340,-8.00e-03,
1341,-4.00e-03,
1342,-1.60e-02,
1343,-8.00e-03,
1344,4.00e-03,
1345,0.00e+00,
1346,0.00e+00,
1347,0.00e+00,
1348,0.00e+00,
1349,0.00e+00,
1350,0.00e+00,
1351,4.00e-03,
1352,0.00e+00,
1353,8.00e-03,
1354,0.00e+00,
