final_data/6J12.csv

X,CH1,Start,Increment,
Sequence,Volt,-1.200000e+00,4.000000e-05
0,4.00e-03,
1,1.20e-02,
2,0.00e+00,
3,-4.00e-03,
4,-8.00e-03,
5,-4.00e-03,
6,-8.00e-03,
7,-4.00e-03,
8,-4.00e-03,
9,0.00e+00,
10,-4.00e-03,
11,-4.00e-03,
12,8.00e-03,
13,8.00e-03,
14,-1.60e-02,
15,-8.00e-03,
16,-8.00e-03,
17,-4.00e-03,
18,-8.00e-03,
19,-8.00e-03,
20,-4.00e-03,
21,0.00e+00,
22,-1.20e-02,
23,-8.00e-03,
24,-4.00e-03,
25,-8.00e-03,
26,4.00e-03,
27,4.00e-03,
28,-4.00e-03,
29,0.00e+00,
30,-8.00e-03,
31,-8.00e-03,
32,0.00e+00,
33,-4.00e-03,
34,-1.20e-02,
35,0.00e+00,
36,-4.00e-03,
37,4.00e-03,
38,0.00e+00,
39,-4.00e-03,
40,0.00e+00,
41,0.00e+00,
42,-4.00e-03,
43,-4.00e-03,
44,-4.00e-03,
45,-8.00e-03,
46,-4.00e-03,
47,-4.00e-03,
48,4.00e-03,
49,-4.00e-03,
50,0.00e+00,
51,8.00e-03,
52,-8.00e-03,
53,-4.00e-03,
54,-4.00e-03,
55,-8.00e-03,
56,0.00e+00,
57,-1.20e-02,
58,0.00e+00,
59,0.00e+00,
60,-4.00e-03,
61,-4.00e-03,
62,-4.00e-03,
63,-4.00e-03,
64,-1.20e-02,
65,-4.00e-03,
66,-4.00e-03,
67,-8.00e-03,
68,-1.60e-02,
69,-4.00e-03,
70,-4.00e-03,
71,0.00e+00,
72,0.00e+00,
73,-4.00e-03,
74,-4.00e-03,
75,-4.00e-03,
76,-4.00e-03,
77,0.00e+00,
78,-4.00e-03,
79,-4.00e-03,
80,0.00e+00,
81,0.00e+00,
82,0.00e+00,
83,-2.40e-02,
84,0.00e+00,
85,-4.00e-03,
86,1.20e-02,
87,-2.80e-02,
88,-4.00e-03,
89,-8.00e-03,
90,-4.00e-03,
91,-2.40e-02,
92,4.00e-03,
93,0.00e+00,
94,4.00e-03,
95,-1.20e-02,
96,0.00e+00,
97,-8.00e-03,
98,-4.00e-03,
99,-4.00e-03,
100,-8.00e-03,
101,0.00e+00,
102,0.00e+00,
103,-4.00e-03,
104,1.20e-02,
105,4.00e-03,
106,-4.00e-03,
107,-4.00e-03,
108,0.00e+00,
109,-4.00e-03,
110,-4.00e-03,
111,-8.00e-03,
112,4.00e-03,
113,-4.00e-03,
114,0.00e+00,
115,-4.00e-03,
116,-4.00e-03,
117,-1.20e-02,
118,4.00e-03,
119,0.00e+00,
120,-8.00e-03,
121,4.00e-03,
122,-4.00e-03,
123,-8.00e-03,
124,-4.00e-03,
125,-8.00e-03,
126,-8.00e-03,
127,-1.20e-02,
128,-8.00e-03,
129,4.00e-03,
130,0.00e+00,
131,-4.00e-03,
132,0.00e+00,
133,-4.00e-03,
134,-4.00e-03,
135,0.00e+00,
136,-4.00e-03,
137,-8.00e-03,
138,0.00e+00,
139,-4.00e-03,
140,-4.00e-03,
141,0.00e+00,
142,-8.00e-03,
143,-4.00e-03,
144,0.00e+00,
145,-4.00e-03,
146,-4.00e-03,
147,0.00e+00,
148,-8.00e-03,
149,-4.00e-03,
150,-4.00e-03,
151,0.00e+00,
152,-4.00e-03,
153,-4.00e-03,
154,-4.00e-03,
155,-4.00e-03,
156,0.00e+00,
157,-4.00e-03,
158,-4.00e-03,
159,0.00e+00,
160,-4.00e-03,
161,-4.00e-03,
162,-4.00e-03,
163,4.00e-03,
164,-4.00e-03,
165,0.00e+00,
166,4.00e-03,
167,-4.00e-03,
168,0.00e+00,
169,0.00e+00,
170,-4.00e-03,
171,-4.00e-03,
172,-4.00e-03,
173,-8.00e-03,
174,-4.00e-03,
175,-8.00e-03,
176,-8.00e-03,
177,-8.00e-03,
178,0.00e+00,
179,-4.00e-03,
180,-4.00e-03,
181,-8.00e-03,
182,4.00e-03,
183,-8.00e-03,
184,0.00e+00,
185,0.00e+00,
186,0.00e+00,
187,-4.00e-03,
188,0.00e+00,
189,0.00e+00,
190,0.00e+00,
191,0.00e+00,
192,0.00e+00,
193,-4.00e-03,
194,-4.00e-03,
195,0.00e+00,
196,-8.00e-03,
197,-8.00e-03,
198,-8.00e-03,
199,-4.00e-03,
200,-4.00e-03,
201,-4.00e-03,
202,-4.00e-03,
203,0.00e+00,
204,-4.00e-03,
205,0.00e+00,
206,-4.00e-03,
207,0.00e+00,
208,-4.00e-03,
209,0.00e+00,
210,-4.00e-03,
211,-8.00e-03,
212,-4.00e-03,
213,0.00e+00,
214,-8.00e-03,
215,-8.00e-03,
216,-4.00e-03,
217,-8.00e-03,
218,0.00e+00,
219,-1.20e-02,
220,0.00e+00,
221,-4.00e-03,
222,-4.00e-03,
223,0.00e+00,
224,0.00e+00,
225,0.00e+00,
226,-8.00e-03,
227,0.00e+00,
228,-4.00e-03,
229,-4.00e-03,
230,-4.00e-03,
231,-4.00e-03,
232,-8.00e-03,
233,-4.00e-03,
234,-1.20e-02,
235,-4.00e-03,
236,-4.00e-03,
237,-8.00e-03,
238,0.00e+00,
239,-4.00e-03,
240,-4.00e-03,
241,-4.00e-03,
242,0.00e+00,
243,-8.00e-03,
244,-4.00e-03,
245,-8.00e-03,
246,-4.00e-03,
247,0.00e+00,
248,0.00e+00,
249,0.00e+00,
250,-4.00e-03,
251,-4.00e-03,
252,-4.00e-03,
253,-4.00e-03,
254,8.00e-03,
255,0.00e+00,
256,-4.00e-03,
257,-1.20e-02,
258,4.00e-03,
259,-4.00e-03,
260,-4.00e-03,
261,0.00e+00,
262,0.00e+00,
263,-8.00e-03,
264,-4.00e-03,
265,-4.00e-03,
266,4.00e-03,
267,-8.00e-03,
268,-4.00e-03,
269,8.00e-03,
270,-4.00e-03,
271,4.00e-03,
272,-4.00e-03,
273,4.00e-03,
274,-4.00e-03,
275,-4.00e-03,
276,-4.00e-03,
277,-4.00e-03,
278,-8.00e-03,
279,-8.00e-03,
280,0.00e+00,
281,-4.00e-03,
282,-8.00e-03,
283,-8.00e-03,
284,-8.00e-03,
285,-8.00e-03,
286,-4.00e-03,
287,-4.00e-03,
288,-4.00e-03,
289,-8.00e-03,
290,-4.00e-03,
291,0.00e+00,
292,-4.00e-03,
293,0.00e+00,
294,-4.00e-03,
295,-4.00e-03,
296,-4.00e-03,
297,-4.00e-03,
298,-8.00e-03,
299,-4.00e-03,
300,-1.20e-02,
301,-8.00e-03,
302,-4.00e-03,
303,-4.00e-03,
304,-4.00e-03,
305,4.00e-03,
306,0.00e+00,
307,-8.00e-03,
308,0.00e+00,
309,-4.00e-03,
310,-1.20e-02,
311,-4.00e-03,
312,-4.00e-03,
313,-4.00e-03,
314,-4.00e-03,
315,0.00e+00,
316,-8.00e-03,
317,-4.00e-03,
318,-4.00e-03,
319,-4.00e-03,
320,0.00e+00,
321,0.00e+00,
322,0.00e+00,
323,0.00e+00,
324,-4.00e-03,
325,-4.00e-03,
326,0.00e+00,
327,-1.20e-02,
328,4.00e-03,
329,-4.00e-03,
330,-4.00e-03,
331,0.00e+00,
332,-4.00e-03,
333,0.00e+00,
334,-8.00e-03,
335,0.00e+00,
336,-8.00e-03,
337,4.00e-03,
338,8.00e-03,
339,-1.60e-02,
340,1.20e-02,
341,-1.20e-02,
342,0.00e+00,
343,0.00e+00,
344,0.00e+00,
345,-8.00e-03,
346,-4.00e-03,
347,-4.00e-03,
348,4.00e-03,
349,-4.00e-03,
350,-4.00e-03,
351,4.00e-03,
352,4.00e-03,
353,4.00e-03,
354,0.00e+00,
355,-8.00e-03,
356,-8.00e-03,
357,-8.00e-03,
358,-4.00e-03,
359,-8.00e-03,
360,-4.00e-03,
361,-4.00e-03,
362,8.00e-03,
363,0.00e+00,
364,-4.00e-03,
365,-4.00e-03,
366,-8.00e-03,
367,-4.00e-03,
368,0.00e+00,
369,0.00e+00,
370,-8.00e-03,
371,0.00e+00,
372,0.00e+00,
373,-8.00e-03,
374,0.00e+00,
375,-4.00e-03,
376,-4.00e-03,
377,-4.00e-03,
378,-1.20e-02,
379,-8.00e-03,
380,-4.00e-03,
381,0.00e+00,
382,0.00e+00,
383,-8.00e-03,
384,-4.00e-03,
385,-8.00e-03,
386,-4.00e-03,
387,-4.00e-03,
388,-4.00e-03,
389,0.00e+00,
390,0.00e+00,
391,-8.00e-03,
392,0.00e+00,
393,-4.00e-03,
394,0.00e+00,
395,0.00e+00,
396,0.00e+00,
397,-4.00e-03,
398,-8.00e-03,
399,-8.00e-03,
400,-4.00e-03,
401,-8.00e-03,
402,0.00e+00,
403,-4.00e-03,
404,-8.00e-03,
405,-4.00e-03,
406,-4.00e-03,
407,-4.00e-03,
408,0.00e+00,
409,0.00e+00,
410,-1.20e-02,
411,0.00e+00,
412,-8.00e-03,
413,-8.00e-03,
414,0.00e+00,
415,-4.00e-03,
416,0.00e+00,
417,0.00e+00,
418,4.00e-03,
419,-4.00e-03,
420,-4.00e-03,
421,-4.00e-03,
422,0.00e+00,
423,-4.00e-03,
424,-4.00e-03,
425,-8.00e-03,
426,0.00e+00,
427,0.00e+00,
428,0.00e+00,
429,1.20e-02,
430,0.00e+00,
431,-8.00e-03,
432,-4.00e-03,
433,-4.00e-03,
434,0.00e+00,
435,-4.00e-03,
436,-4.00e-03,
437,-4.00e-03,
438,-4.00e-03,
439,-4.00e-03,
440,-4.00e-03,
441,0.00e+00,
442,0.00e+00,
443,-4.00e-03,
444,-8.00e-03,
445,-4.00e-03,
446,0.00e+00,
447,-4.00e-03,
448,-4.00e-03,
449,0.00e+00,
450,0.00e+00,
451,0.00e+00,
452,0.00e+00,
453,8.00e-03,
454,-4.00e-03,
455,-4.00e-03,
456,-4.00e-03,
457,4.00e-03,
458,-4.00e-03,
459,4.00e-03,
460,0.00e+00,
461,-4.00e-03,
462,-4.00e-03,
463,-4.00e-03,
464,-4.00e-03,
465,-8.00e-03,
466,-4.00e-03,
467,-4.00e-03,
468,-4.00e-03,
469,-4.00e-03,
470,-4.00e-03,
471,-4.00e-03,
472,0.00e+00,
473,0.00e+00,
474,0.00e+00,
475,-4.00e-03,
476,-4.00e-03,
477,-4.00e-03,
478,-8.00e-03,
479,0.00e+00,
480,-4.00e-03,
481,0.00e+00,
482,-4.00e-03,
483,-8.00e-03,
484,0.00e+00,
485,-4.00e-03,
486,-8.00e-03,
487,-4.00e-03,
488,-4.00e-03,
489,-4.00e-03,
490,0.00e+00,
491,-4.00e-03,
492,0.00e+00,
493,4.00e-03,
494,-4.00e-03,
495,-4.00e-03,
496,-1.20e-02,
497,-4.00e-03,
498,0.00e+00,
499,-8.00e-03,
500,4.00e-03,
501,-4.00e-03,
502,0.00e+00,
503,4.00e-03,
504,4.00e-03,
505,-8.00e-03,
506,-4.00e-03,
507,-8.00e-03,
508,-4.00e-03,
509,-8.00e-03,
510,-8.00e-03,
511,0.00e+00,
512,-4.00e-03,
513,0.00e+00,
514,-8.00e-03,
515,-8.00e-03,
516,-4.00e-03,
517,8.00e-03,
518,-4.00e-03,
519,0.00e+00,
520,-4.00e-03,
521,0.00e+00,
522,-4.00e-03,
523,-8.00e-03,
524,-4.00e-03,
525,-4.00e-03,
526,0.00e+00,
527,-4.00e-03,
528,-4.00e-03,
529,-4.00e-03,
530,-8.00e-03,
531,-8.00e-03,
532,-1.20e-02,
533,0.00e+00,
534,-4.00e-03,
535,-8.00e-03,
536,-1.20e-02,
537,0.00e+00,
538,0.00e+00,
539,8.00e-03,
540,0.00e+00,
541,4.00e-03,
542,4.00e-03,
543,0.00e+00,
544,-1.60e-02,
545,-4.00e-03,
546,0.00e+00,
547,4.00e-03,
548,-4.00e-03,
549,-4.00e-03,
550,-4.00e-03,
551,-4.00e-03,
552,-4.00e-03,
553,-4.00e-03,
554,-8.00e-03,
555,-4.00e-03,
556,-4.00e-03,
557,0.00e+00,
558,-4.00e-03,
559,-4.00e-03,
560,-4.00e-03,
561,-1.20e-02,
562,0.00e+00,
563,0.00e+00,
564,0.00e+00,
565,0.00e+00,
566,-4.00e-03,
567,0.00e+00,
568,0.00e+00,
569,0.00e+00,
570,-4.00e-03,
571,0.00e+00,
572,-4.00e-03,
573,-4.00e-03,
574,-4.00e-03,
575,0.00e+00,
576,-4.00e-03,
577,-4.00e-03,
578,-8.00e-03,
579,-4.00e-03,
580,-4.00e-03,
581,0.00e+00,
582,-4.00e-03,
583,-4.00e-03,
584,0.00e+00,
585,0.00e+00,
586,0.00e+00,
587,-4.00e-03,
588,-4.00e-03,
589,-8.00e-03,
590,-4.00e-03,
591,-8.00e-03,
592,-8.00e-03,
593,4.00e-03,
594,0.00e+00,
595,4.00e-03,
596,-4.00e-03,
597,0.00e+00,
598,-1.60e-02,
599,0.00e+00,
600,-4.00e-03,
601,0.00e+00,
602,0.00e+00,
603,4.00e-03,
604,0.00e+00,
605,-4.00e-03,
606,-8.00e-03,
607,-8.00e-03,
608,-8.00e-03,
609,0.00e+00,
610,0.00e+00,
611,-8.00e-03,
612,-8.00e-03,
613,8.00e-03,
614,8.00e-03,
615,8.00e-03,
616,-1.60e-02,
617,-2.40e-02,
618,8.00e-03,
619,2.00e-02,
620,-1.20e-02,
621,-1.60e-02,
622,-4.00e-03,
623,-1.20e-02,
624,-1.20e-02,
625,-1.20e-02,
626,-1.20e-02,
627,-1.60e-02,
628,-1.60e-02,
629,-8.00e-03,
630,0.00e+00,
631,-8.00e-03,
632,-8.00e-03,
633,4.00e-03,
634,4.00e-03,
635,-1.20e-02,
636,0.00e+00,
637,-4.00e-03,
638,-8.00e-03,
639,0.00e+00,
640,-8.00e-03,
641,-4.00e-03,
642,-4.00e-03,
643,0.00e+00,
644,-4.00e-03,
645,-4.00e-03,
646,0.00e+00,
647,0.00e+00,
648,0.00e+00,
649,-1.60e-02,
650,0.00e+00,
651,-8.00e-03,
652,-4.00e-03,
653,-4.00e-03,
654,-4.00e-03,
655,0.00e+00,
656,-4.00e-03,
657,-8.00e-03,
658,-8.00e-03,
659,-8.00e-03,
660,0.00e+00,
661,-4.00e-03,
662,0.00e+00,
663,-4.00e-03,
664,-4.00e-03,
665,-4.00e-03,
666,-4.00e-03,
667,-8.00e-03,
668,-4.00e-03,
669,-4.00e-03,
670,8.00e-03,
671,-4.00e-03,
672,0.00e+00,
673,-8.00e-03,
674,0.00e+00,
675,0.00e+00,
676,0.00e+00,
677,0.00e+00,
678,-4.00e-03,
679,-4.00e-03,
680,-4.00e-03,
681,-4.00e-03,
682,-4.00e-03,
683,-4.00e-03,
684,0.00e+00,
685,0.00e+00,
686,-8.00e-03,
687,-4.00e-03,
688,-4.00e-03,
689,-8.00e-03,
690,-8.00e-03,
691,-4.00e-03,
692,-4.00e-03,
693,4.00e-03,
694,4.00e-03,
695,-4.00e-03,
696,0.00e+00,
697,0.00e+00,
698,-4.00e-03,
699,-4.00e-03,
700,-4.00e-03,
701,-4.00e-03,
702,-4.00e-03,
703,0.00e+00,
704,0.00e+00,
705,0.00e+00,
706,-8.00e-03,
707,0.00e+00,
708,-4.00e-03,
709,0.00e+00,
710,4.00e-03,
711,-8.00e-03,
712,-8.00e-03,
713,0.00e+00,
714,-4.00e-03,
715,-4.00e-03,
716,-4.00e-03,
717,0.00e+00,
718,-4.00e-03,
719,-4.00e-03,
720,-4.00e-03,
721,-8.00e-03,
722,-8.00e-03,
723,-4.00e-03,
724,0.00e+00,
725,-4.00e-03,
726,-4.00e-03,
727,-4.00e-03,
728,-4.00e-03,
729,-4.00e-03,
730,-4.00e-03,
731,0.00e+00,
732,-4.00e-03,
733,-4.00e-03,
734,0.00e+00,
735,0.00e+00,
736,-4.00e-03,
737,-4.00e-03,
738,0.00e+00,
739,0.00e+00,
740,-4.00e-03,
741,0.00e+00,
742,-4.00e-03,
743,-4.00e-03,
744,-4.00e-03,
745,-1.20e-02,
746,-8.00e-03,
747,-8.00e-03,
748,0.00e+00,
749,-4.00e-03,
750,-8.00e-03,
751,0.00e+00,
752,0.00e+00,
753,-4.00e-03,
754,-4.00e-03,
755,-4.00e-03,
756,8.00e-03,
757,-8.00e-03,
758,-4.00e-03,
759,-4.00e-03,
760,-4.00e-03,
761,-8.00e-03,
762,0.00e+00,
763,-4.00e-03,
764,0.00e+00,
765,-4.00e-03,
766,-4.00e-03,
767,-4.00e-03,
768,0.00e+00,
769,-4.00e-03,
770,-1.20e-02,
771,4.00e-03,
772,-8.00e-03,
773,0.00e+00,
774,-4.00e-03,
775,-4.00e-03,
776,-4.00e-03,
777,4.00e-03,
778,0.00e+00,
779,0.00e+00,
780,-8.00e-03,
781,-8.00e-03,
782,-4.00e-03,
783,0.00e+00,
784,0.00e+00,
785,8.00e-03,
786,-1.20e-02,
787,4.00e-03,
788,-4.00e-03,
789,-4.00e-03,
790,-4.00e-03,
791,-4.00e-03,
792,-4.00e-03,
793,-8.00e-03,
794,0.00e+00,
795,-4.00e-03,
796,-4.00e-03,
797,-4.00e-03,
798,-8.00e-03,
799,-4.00e-03,
800,-4.00e-03,
801,4.00e-03,
802,0.00e+00,
803,-1.20e-02,
804,-8.00e-03,
805,-4.00e-03,
806,-1.20e-02,
807,-4.00e-03,
808,0.00e+00,
809,-4.00e-03,
810,-8.00e-03,
811,0.00e+00,
812,-4.00e-03,
813,-8.00e-03,
814,-1.20e-02,
815,0.00e+00,
816,0.00e+00,
817,0.00e+00,
818,-8.00e-03,
819,0.00e+00,
820,0.00e+00,
821,-4.00e-03,
822,-4.00e-03,
823,-4.00e-03,
824,-8.00e-03,
825,-4.00e-03,
826,-1.20e-02,
827,-4.00e-03,
828,0.00e+00,
829,-2.80e-02,
830,-1.20e-02,
831,0.00e+00,
832,-1.60e-02,
833,-4.00e-03,
834,0.00e+00,
835,4.00e-03,
836,-4.00e-03,
837,-8.00e-03,
838,-4.00e-03,
839,-8.00e-03,
840,-4.00e-03,
841,0.00e+00,
842,-4.00e-03,
843,0.00e+00,
844,2.00e-02,
845,0.00e+00,
846,0.00e+00,
847,-4.00e-03,
848,-8.00e-03,
849,-8.00e-03,
850,0.00e+00,
851,-1.60e-02,
852,-4.00e-03,
853,1.20e-02,
854,0.00e+00,
855,0.00e+00,
856,0.00e+00,
857,-1.60e-02,
858,4.00e-03,
859,0.00e+00,
860,4.00e-03,
861,-1.20e-02,
862,-2.40e-02,
863,8.00e-03,
864,-1.60e-02,
865,-1.20e-02,
866,-4.00e-03,
867,0.00e+00,
868,-4.00e-03,
869,0.00e+00,
870,-4.00e-03,
871,0.00e+00,
872,-4.00e-03,
873,-4.00e-03,
874,-4.00e-03,
875,-4.00e-03,
876,-8.00e-03,
877,-4.00e-03,
878,0.00e+00,
879,0.00e+00,
880,-4.00e-03,
881,-4.00e-03,
882,0.00e+00,
883,8.00e-03,
884,-8.00e-03,
885,-1.20e-02,
886,4.00e-03,
887,-4.00e-03,
888,-8.00e-03,
889,4.00e-03,
890,-8.00e-03,
891,-8.00e-03,
892,0.00e+00,
893,-8.00e-03,
894,0.00e+00,
895,-4.00e-03,
896,-4.00e-03,
897,-4.00e-03,
898,-4.00e-03,
899,0.00e+00,
900,-4.00e-03,
901,-4.00e-03,
902,-4.00e-03,
903,-8.00e-03,
904,-4.00e-03,
905,0.00e+00,
906,0.00e+00,
907,-4.00e-03,
908,0.00e+00,
909,-8.00e-03,
910,-4.00e-03,
911,-4.00e-03,
912,0.00e+00,
913,-4.00e-03,
914,-4.00e-03,
915,-4.00e-03,
916,0.00e+00,
917,0.00e+00,
918,-4.00e-03,
919,0.00e+00,
920,-8.00e-03,
921,-4.00e-03,
922,-8.00e-03,
923,4.00e-03,
924,0.00e+00,
925,-4.00e-03,
926,-4.00e-03,
927,-4.00e-03,
928,-4.00e-03,
929,-4.00e-03,
930,-4.00e-03,
931,-8.00e-03,
932,0.00e+00,
933,-4.00e-03,
934,-4.00e-03,
935,-4.00e-03,
936,0.00e+00,
937,4.00e-03,
938,0.00e+00,
939,-4.00e-03,
940,-8.00e-03,
941,0.00e+00,
942,0.00e+00,
943,4.00e-03,
944,-4.00e-03,
945,-4.00e-03,
946,-8.00e-03,
947,-4.00e-03,
948,4.00e-03,
949,-4.00e-03,
950,-4.00e-03,
951,-8.00e-03,
952,-4.00e-03,
953,-4.00e-03,
954,0.00e+00,
955,4.00e-03,
956,-4.00e-03,
957,0.00e+00,
958,-4.00e-03,
959,0.00e+00,
960,0.00e+00,
961,-8.00e-03,
962,0.00e+00,
963,-4.00e-03,
964,-4.00e-03,
965,0.00e+00,
966,0.00e+00,
967,-8.00e-03,
968,-4.00e-03,
969,8.00e-03,
970,-4.00e-03,
971,-4.00e-03,
972,-4.00e-03,
973,-4.00e-03,
974,-4.00e-03,
975,-4.00e-03,
976,-1.20e-02,
977,0.00e+00,
978,4.00e-03,
979,8.00e-03,
980,0.00e+00,
981,-8.00e-03,
982,-4.00e-03,
983,-4.00e-03,
984,0.00e+00,
985,-8.00e-03,
986,-8.00e-03,
987,-4.00e-03,
988,-4.00e-03,
989,0.00e+00,
990,0.00e+00,
991,-8.00e-03,
992,0.00e+00,
993,-4.00e-03,
994,-4.00e-03,
995,-4.00e-03,
996,4.00e-03,
997,4.00e-03,
998,-1.20e-02,
999,-1.20e-02,
1000,-8.00e-03,
1001,-8.00e-03,
1002,-4.00e-03,
1003,-4.00e-03,
1004,-4.00e-03,
1005,-4.00e-03,
1006,-4.00e-03,
1007,-4.00e-03,
1008,0.00e+00,
1009,0.00e+00,
1010,-1.20e-02,
1011,-4.00e-03,
1012,-4.00e-03,
1013,0.00e+00,
1014,0.00e+00,
1015,0.00e+00,
1016,-4.00e-03,
1017,-8.00e-03,
1018,0.00e+00,
1019,-4.00e-03,
1020,-4.00e-03,
1021,-8.00e-03,
1022,0.00e+00,
1023,-4.00e-03,
1024,8.00e-03,
1025,4.00e-03,
1026,-1.20e-02,
1027,-4.00e-03,
1028,-4.00e-03,
1029,-1.20e-02,
1030,4.00e-03,
1031,0.00e+00,
1032,0.00e+00,
1033,0.00e+00,
1034,0.00e+00,
1035,0.00e+00,
1036,-4.00e-03,
1037,-4.00e-03,
1038,0.00e+00,
1039,4.00e-03,
1040,-1.60e-02,
1041,-4.00e-03,
1042,4.00e-03,
1043,0.00e+00,
1044,-4.00e-03,
1045,4.00e-03,
1046,0.00e+00,
1047,-4.00e-03,
1048,-1.20e-02,
1049,0.00e+00,
1050,0.00e+00,
1051,0.00e+00,
1052,0.00e+00,
1053,-8.00e-03,
1054,0.00e+00,
1055,0.00e+00,
1056,-8.00e-03,
1057,0.00e+00,
1058,-4.00e-03,
1059,0.00e+00,
1060,-4.00e-03,
1061,-4.00e-03,
1062,0.00e+00,
1063,-1.20e-02,
1064,-8.00e-03,
1065,0.00e+00,
1066,-4.00e-03,
1067,-4.00e-03,
1068,0.00e+00,
1069,-4.00e-03,
1070,-4.00e-03,
1071,-4.00e-03,
1072,-4.00e-03,
1073,-4.00e-03,
1074,-4.00e-03,
1075,-4.00e-03,
1076,0.00e+00,
1077,-4.00e-03,
1078,0.00e+00,
1079,-4.00e-03,
1080,0.00e+00,
1081,-4.00e-03,
1082,-1.60e-02,
1083,-4.00e-03,
1084,-4.00e-03,
1085,0.00e+00,
1086,-8.00e-03,
1087,-8.00e-03,
1088,-4.00e-03,
1089,-8.00e-03,
1090,4.00e-03,
1091,-1.20e-02,
1092,-4.00e-03,
1093,0.00e+00,
1094,-8.00e-03,
1095,4.00e-03,
1096,0.00e+00,
1097,4.00e-03,
1098,-8.00e-03,
1099,8.00e-03,
1100,-4.00e-03,
1101,0.00e+00,
1102,-8.00e-03,
1103,-8.00e-03,
1104,-4.00e-03,
1105,8.00e-03,
1106,4.00e-03,
1107,0.00e+00,
1108,-8.00e-03,
1109,-8.00e-03,
1110,0.00e+00,
1111,4.00e-03,
1112,-4.00e-03,
1113,4.00e-03,
1114,-4.00e-03,
1115,4.00e-03,
1116,0.00e+00,
1117,-4.00e-03,
1118,-4.00e-03,
1119,-8.00e-03,
1120,4.00e-03,
1121,0.00e+00,
1122,-4.00e-03,
1123,-8.00e-03,
1124,4.00e-03,
1125,1.20e-02,
1126,4.00e-03,
1127,-1.20e-02,
1128,4.00e-03,
1129,0.00e+00,
1130,-4.00e-03,
1131,-8.00e-03,
1132,-4.00e-03,
1133,-4.00e-03,
1134,-8.00e-03,
1135,-4.00e-03,
1136,-4.00e-03,
1137,-4.00e-03,
1138,-4.00e-03,
1139,-4.00e-03,
1140,0.00e+00,
1141,-4.00e-03,
1142,-4.00e-03,
1143,-8.00e-03,
1144,0.00e+00,
1145,-8.00e-03,
1146,-4.00e-03,
1147,0.00e+00,
1148,-4.00e-03,
1149,0.00e+00,
1150,0.00e+00,
1151,-4.00e-03,
1152,-4.00e-03,
1153,0.00e+00,
1154,-1.20e-02,
1155,-4.00e-03,
1156,0.00e+00,
1157,0.00e+00,
1158,0.00e+00,
1159,-4.00e-03,
1160,0.00e+00,
1161,0.00e+00,
1162,-4.00e-03,
1163,-4.00e-03,
1164,-4.00e-03,
1165,-4.00e-03,
1166,-4.00e-03,
1167,-4.00e-03,
1168,-4.00e-03,
1169,0.00e+00,
1170,0.00e+00,
1171,-4.00e-03,
1172,-4.00e-03,
1173,0.00e+00,
1174,-8.00e-03,
1175,-4.00e-03,
1176,0.00e+00,
1177,0.00e+00,
1178,-4.00e-03,
1179,0.00e+00,
1180,-4.00e-03,
1181,-4.00e-03,
1182,-4.00e-03,
1183,0.00e+00,
1184,0.00e+00,
1185,-4.00e-03,
1186,-4.00e-03,
1187,0.00e+00,
1188,0.00e+00,
1189,0.00e+00,
1190,0.00e+00,
1191,-4.00e-03,
1192,0.00e+00,
1193,0.00e+00,
1194,-8.00e-03,
1195,-4.00e-03,
1196,-4.00e-03,
1197,-4.00e-03,
1198,4.00e-03,
1199,-8.00e-03,
1200,4.00e-03,
1201,-4.00e-03,
1202,-8.00e-03,
1203,-4.00e-03,
1204,0.00e+00,
1205,-4.00e-03,
1206,0.00e+00,
1207,0.00e+00,
1208,-4.00e-03,
1209,0.00e+00,
1210,-4.00e-03,
1211,-4.00e-03,
1212,0.00e+00,
1213,-8.00e-03,
1214,-4.00e-03,
1215,0.00e+00,
1216,-4.00e-03,
1217,4.00e-03,
1218,0.00e+00,
1219,-4.00e-03,
1220,0.00e+00,
1221,-4.00e-03,
1222,-8.00e-03,
1223,-4.00e-03,
1224,0.00e+00,
1225,-8.00e-03,
1226,-8.00e-03,
1227,0.00e+00,
1228,-4.00e-03,
1229,-4.00e-03,
1230,4.00e-03,
1231,-8.00e-03,
1232,-8.00e-03,
1233,-4.00e-03,
1234,-8.00e-03,
1235,-4.00e-03,
1236,0.00e+00,
1237,4.00e-03,
1238,-8.00e-03,
1239,0.00e+00,
1240,-8.00e-03,
1241,-4.00e-03,
1242,0.00e+00,
1243,0.00e+00,
1244,4.00e-03,
1245,0.00e+00,
1246,-4.00e-03,
1247,1.20e-02,
1248,-4.00e-03,
1249,-4.00e-03,
1250,0.00e+00,
1251,-8.00e-03,
1252,-1.60e-02,
1253,-1.20e-02,
1254,-8.00e-03,
1255,0.00e+00,
1256,-8.00e-03,
1257,0.00e+00,
1258,-4.00e-03,
1259,-4.00e-03,
1260,-4.00e-03,
1261,-4.00e-03,
1262,0.00e+00,
1263,-1.20e-02,
1264,-1.20e-02,
1265,-4.00e-03,
1266,4.00e-03,
1267,0.00e+00,
1268,-8.00e-03,
1269,0.00e+00,
1270,0.00e+00,
1271,0.00e+00,
1272,-8.00e-03,
1273,0.00e+00,
1274,0.00e+00,
1275,-4.00e-03,
1276,8.00e-03,
1277,-8.00e-03,
1278,-4.00e-03,
1279,-1.20e-02,
1280,0.00e+00,
1281,8.00e-03,
1282,0.00e+00,
1283,-4.00e-03,
1284,0.00e+00,
1285,-8.00e-03,
1286,-4.00e-03,
1287,4.00e-03,
1288,0.00e+00,
1289,-1.20e-02,
1290,-4.00e-03,
1291,-8.00e-03,
1292,-4.00e-03,
1293,0.00e+00,
1294,-4.00e-03,
1295,0.00e+00,
1296,-4.00e-03,
1297,-4.00e-03,
1298,-8.00e-03,
1299,8.00e-03,
1300,0.00e+00,
1301,0.00e+00,
1302,0.00e+00,
1303,-4.00e-03,
1304,-4.00e-03,
1305,4.00e-03,
1306,0.00e+00,
1307,-1.60e-02,
1308,-4.00e-03,
1309,-4.00e-03,
1310,-1.20e-02,
1311,0.00e+00,
1312,0.00e+00,
1313,0.00e+00,
1314,-4.00e-03,
1315,-1.20e-02,
1316,-4.00e-03,
1317,0.00e+00,
1318,-4.00e-03,
1319,-4.00e-03,
1320,0.00e+00,
1321,-4.00e-03,
1322,-4.00e-03,
1323,-4.00e-03,
1324,0.00e+00,
1325,0.00e+00,
1326,0.00e+00,
1327,-8.00e-03,
1328,0.00e+00,
1329,-4.00e-03,
1330,-4.00e-03,
1331,-4.00e-03,
1332,-4.00e-03,
1333,0.00e+00,
1334,0.00e+00,
1335,0.00e+00,
1336,4.00e-03,
1337,-4.00e-03,
1338,8.00e-03,
1339,4.00e-03,
1340,2.40e-02,
1341,2.00e-02,
1342,-1.60e-02,
1343,4.00e-03,
1344,0.00e+00,
1345,-4.00e-03,
1346,4.00e-03,
