final_data/6J13.csv

X,CH1,Start,Increment,
Sequence,Volt,-1.200000e+00,4.000000e-05
0,-4.00e-03,
1,-8.00e-03,
2,-4.00e-03,
3,-4.00e-03,
4,-4.00e-03,
5,-8.00e-03,
6,-4.00e-03,
7,8.00e-03,
8,4.00e-03,
9,4.00e-03,
10,0.00e+00,
11,-4.00e-03,
12,-4.00e-03,
13,0.00e+00,
14,-8.00e-03,
15,4.00e-03,
16,-4.00e-03,
17,0.00e+00,
18,-4.00e-03,
19,-8.00e-03,
20,-4.00e-03,
21,-4.00e-03,
22,-1.20e-02,
23,-4.00e-03,
24,0.00e+00,
25,-4.00e-03,
26,-4.00e-03,
27,0.00e+00,
28,-4.00e-03,
29,-4.00e-03,
30,-4.00e-03,
31,-4.00e-03,
32,-4.00e-03,
33,-4.00e-03,
34,-4.00e-03,
35,0.00e+00,
36,-4.00e-03,
37,0.00e+00,
38,0.00e+00,
39,-4.00e-03,
40,-4.00e-03,
41,-4.00e-03,
42,-4.00e-03,
43,-4.00e-03,
44,0.00e+00,
45,0.00e+00,
46,0.00e+00,
47,-4.00e-03,
48,4.00e-03,
49,-4.00e-03,
50,-4.00e-03,
51,0.00e+00,
52,-4.00e-03,
53,-8.00e-03,
54,0.00e+00,
55,0.00e+00,
56,-8.00e-03,
57,-8.00e-03,
58,-4.00e-03,
59,0.00e+00,
60,0.00e+00,
61,0.00e+00,
62,-4.00e-03,
63,-1.60e-02,
64,-4.00e-03,
65,4.00e-03,
66,0.00e+00,
67,-8.00e-03,
68,-4.00e-03,
69,-4.00e-03,
70,-4.00e-03,
71,-4.00e-03,
72,0.00e+00,
73,4.00e-03,
74,-4.00e-03,
75,-4.00e-03,
76,-4.00e-03,
77,0.00e+00,
78,-8.00e-03,
79,-1.20e-02,
80,4.00e-03,
81,0.00e+00,
82,-4.00e-03,
83,-8.00e-03,
84,-4.00e-03,
85,-4.00e-03,
86,-4.00e-03,
87,-4.00e-03,
88,-8.00e-03,
89,-8.00e-03,
90,-4.00e-03,
91,-4.00e-03,
92,-4.00e-03,
93,-8.00e-03,
94,-1.20e-02,
95,4.00e-03,
96,-8.00e-03,
97,0.00e+00,
98,-8.00e-03,
99,8.00e-03,
100,4.00e-03,
101,-4.00e-03,
102,-4.00e-03,
103,0.00e+00,
104,-4.00e-03,
105,-8.00e-03,
106,0.00e+00,
107,-8.00e-03,
108,-4.00e-03,
109,-1.60e-02,
110,-4.00e-03,
111,-8.00e-03,
112,0.00e+00,
113,-1.20e-02,
114,-8.00e-03,
115,-4.00e-03,
116,-4.00e-03,
117,0.00e+00,
118,-8.00e-03,
119,0.00e+00,
120,-8.00e-03,
121,-4.00e-03,
122,0.00e+00,
123,-4.00e-03,
124,4.00e-03,
125,-4.00e-03,
126,0.00e+00,
127,0.00e+00,
128,0.00e+00,
129,-4.00e-03,
130,-4.00e-03,
131,-8.00e-03,
132,-4.00e-03,
133,-4.00e-03,
134,-4.00e-03,
135,-4.00e-03,
136,-4.00e-03,
137,4.00e-03,
138,-1.20e-02,
139,-4.00e-03,
140,-4.00e-03,
141,-2.40e-02,
142,4.00e-03,
143,-8.00e-03,
144,-8.00e-03,
145,-8.00e-03,
146,0.00e+00,
147,-8.00e-03,
148,1.20e-02,
149,-4.00e-03,
150,-8.00e-03,
151,0.00e+00,
152,-8.00e-03,
153,-1.20e-02,
154,1.20e-02,
155,-1.20e-02,
156,0.00e+00,
157,-8.00e-03,
158,-4.00e-03,
159,-1.20e-02,
160,0.00e+00,
161,-1.20e-02,
162,-1.60e-02,
163,-4.00e-03,
164,-4.00e-03,
165,0.00e+00,
166,-8.00e-03,
167,8.00e-03,
168,-8.00e-03,
169,0.00e+00,
170,-4.00e-03,
171,-4.00e-03,
172,0.00e+00,
173,-4.00e-03,
174,-4.00e-03,
175,4.00e-03,
176,-1.20e-02,
177,-4.00e-03,
178,-8.00e-03,
179,0.00e+00,
180,0.00e+00,
181,-4.00e-03,
182,-4.00e-03,
183,0.00e+00,
184,-4.00e-03,
185,0.00e+00,
186,0.00e+00,
187,0.00e+00,
188,0.00e+00,
189,4.00e-03,
190,-4.00e-03,
191,-1.20e-02,
192,0.00e+00,
193,-4.00e-03,
194,-4.00e-03,
195,-8.00e-03,
196,-4.00e-03,
197,0.00e+00,
198,-8.00e-03,
199,-4.00e-03,
200,-8.00e-03,
201,-4.00e-03,
202,0.00e+00,
203,-4.00e-03,
204,-4.00e-03,
205,0.00e+00,
206,-4.00e-03,
207,0.00e+00,
208,-4.00e-03,
209,0.00e+00,
210,0.00e+00,
211,-4.00e-03,
212,0.00e+00,
213,0.00e+00,
214,-4.00e-03,
215,-8.00e-03,
216,-4.00e-03,
217,0.00e+00,
218,-4.00e-03,
219,-4.00e-03,
220,8.00e-03,
221,-8.00e-03,
222,0.00e+00,
223,-8.00e-03,
224,4.00e-03,
225,0.00e+00,
226,-4.00e-03,
227,0.00e+00,
228,-8.00e-03,
229,-4.00e-03,
230,-8.00e-03,
231,-4.00e-03,
232,-4.00e-03,
233,-4.00e-03,
234,-4.00e-03,
235,-4.00e-03,
236,0.00e+00,
237,0.00e+00,
238,-4.00e-03,
239,-4.00e-03,
240,-4.00e-03,
241,-4.00e-03,
242,-8.00e-03,
243,-8.00e-03,
244,-4.00e-03,
245,0.00e+00,
246,0.00e+00,
247,-4.00e-03,
248,-8.00e-03,
249,-8.00e-03,
250,-4.00e-03,
251,0.00e+00,
252,-4.00e-03,
253,-4.00e-03,
254,-4.00e-03,
255,0.00e+00,
256,0.00e+00,
257,-4.00e-03,
258,-4.00e-03,
259,-4.00e-03,
260,-4.00e-03,
261,0.00e+00,
262,-4.00e-03,
263,-4.00e-03,
264,0.00e+00,
265,-8.00e-03,
266,-4.00e-03,
267,4.00e-03,
268,0.00e+00,
269,-8.00e-03,
270,-4.00e-03,
271,0.00e+00,
272,0.00e+00,
273,-4.00e-03,
274,-8.00e-03,
275,-4.00e-03,
276,0.00e+00,
277,0.00e+00,
278,4.00e-03,
279,-4.00e-03,
280,0.00e+00,
281,-4.00e-03,
282,0.00e+00,
283,-4.00e-03,
284,0.00e+00,
285,0.00e+00,
286,-4.00e-03,
287,0.00e+00,
288,-4.00e-03,
289,-4.00e-03,
290,0.00e+00,
291,-4.00e-03,
292,8.00e-03,
293,0.00e+00,
294,-4.00e-03,
295,-4.00e-03,
296,-4.00e-03,
297,-4.00e-03,
298,0.00e+00,
299,0.00e+00,
300,-4.00e-03,
301,-4.00e-03,
302,-4.00e-03,
303,0.00e+00,
304,-4.00e-03,
305,0.00e+00,
306,4.00e-03,
307,0.00e+00,
308,-8.00e-03,
309,-1.20e-02,
310,-8.00e-03,
311,0.00e+00,
312,-4.00e-03,
313,0.00e+00,
314,-4.00e-03,
315,-8.00e-03,
316,0.00e+00,
317,-1.20e-02,
318,-4.00e-03,
319,-8.00e-03,
320,-4.00e-03,
321,-4.00e-03,
322,-4.00e-03,
323,-8.00e-03,
324,0.00e+00,
325,0.00e+00,
326,-4.00e-03,
327,-1.20e-02,
328,8.00e-03,
329,0.00e+00,
330,-4.00e-03,
331,-8.00e-03,
332,-1.20e-02,
333,-4.00e-03,
334,0.00e+00,
335,-4.00e-03,
336,-4.00e-03,
337,-4.00e-03,
338,0.00e+00,
339,-4.00e-03,
340,-4.00e-03,
341,-4.00e-03,
342,-1.20e-02,
343,0.00e+00,
344,8.00e-03,
345,0.00e+00,
346,-4.00e-03,
347,-8.00e-03,
348,0.00e+00,
349,-4.00e-03,
350,-8.00e-03,
351,-4.00e-03,
352,-8.00e-03,
353,-4.00e-03,
354,0.00e+00,
355,-4.00e-03,
356,-4.00e-03,
357,-4.00e-03,
358,0.00e+00,
359,-8.00e-03,
360,-4.00e-03,
361,-4.00e-03,
362,-4.00e-03,
363,-8.00e-03,
364,2.00e-02,
365,0.00e+00,
366,-4.00e-03,
367,0.00e+00,
368,0.00e+00,
369,-1.20e-02,
370,0.00e+00,
371,0.00e+00,
372,-4.00e-03,
373,4.00e-03,
374,-4.00e-03,
375,0.00e+00,
376,-4.00e-03,
377,-8.00e-03,
378,-1.60e-02,
379,0.00e+00,
380,-4.00e-03,
381,-4.00e-03,
382,-8.00e-03,
383,-4.00e-03,
384,0.00e+00,
385,4.00e-03,
386,-4.00e-03,
387,-8.00e-03,
388,-4.00e-03,
389,-4.00e-03,
390,4.00e-03,
391,-8.00e-03,
392,-4.00e-03,
393,-2.40e-02,
394,-4.00e-03,
395,-4.00e-03,
396,-4.00e-03,
397,-8.00e-03,
398,1.20e-02,
399,-4.00e-03,
400,-1.60e-02,
401,-1.60e-02,
402,-8.00e-03,
403,-1.20e-02,
404,-4.00e-03,
405,-8.00e-03,
406,-4.00e-03,
407,-8.00e-03,
408,4.00e-03,
409,-4.00e-03,
410,-4.00e-03,
411,-1.20e-02,
412,-4.00e-03,
413,4.00e-03,
414,4.00e-03,
415,-2.40e-02,
416,-4.00e-03,
417,-4.00e-03,
418,-4.00e-03,
419,8.00e-03,
420,-1.20e-02,
421,0.00e+00,
422,-4.00e-03,
423,0.00e+00,
424,-2.40e-02,
425,1.20e-02,
426,-1.60e-02,
427,0.00e+00,
428,4.00e-03,
429,4.00e-03,
430,-8.00e-03,
431,8.00e-03,
432,0.00e+00,
433,-4.00e-03,
434,-4.00e-03,
435,-8.00e-03,
436,-4.00e-03,
437,0.00e+00,
438,4.00e-03,
439,-4.00e-03,
440,8.00e-03,
441,8.00e-03,
442,-8.00e-03,
443,4.00e-03,
444,4.00e-03,
445,-8.00e-03,
446,-8.00e-03,
447,0.00e+00,
448,-8.00e-03,
449,-2.40e-02,
450,0.00e+00,
451,0.00e+00,
452,-4.00e-03,
453,-8.00e-03,
454,0.00e+00,
455,0.00e+00,
456,-4.00e-03,
457,-4.00e-03,
458,-4.00e-03,
459,-4.00e-03,
460,-4.00e-03,
461,-8.00e-03,
462,4.00e-03,
463,-8.00e-03,
464,0.00e+00,
465,-4.00e-03,
466,0.00e+00,
467,-4.00e-03,
468,-4.00e-03,
469,-4.00e-03,
470,0.00e+00,
471,-4.00e-03,
472,-4.00e-03,
473,-4.00e-03,
474,0.00e+00,
475,-4.00e-03,
476,-8.00e-03,
477,-4.00e-03,
478,0.00e+00,
479,0.00e+00,
480,0.00e+00,
481,-4.00e-03,
482,-4.00e-03,
483,0.00e+00,
484,-8.00e-03,
485,-4.00e-03,
486,-4.00e-03,
487,-8.00e-03,
488,-4.00e-03,
489,-4.00e-03,
490,-8.00e-03,
491,-8.00e-03,
492,-4.00e-03,
493,-4.00e-03,
494,-4.00e-03,
495,-4.00e-03,
496,-4.00e-03,
497,0.00e+00,
498,-1.20e-02,
499,-1.20e-02,
500,-8.00e-03,
501,0.00e+00,
502,-4.00e-03,
503,-4.00e-03,
504,0.00e+00,
505,0.00e+00,
506,-1.20e-02,
507,-4.00e-03,
508,0.00e+00,
509,8.00e-03,
510,-8.00e-03,
511,-4.00e-03,
512,-4.00e-03,
513,-4.00e-03,
514,-4.00e-03,
515,-8.00e-03,
516,-8.00e-03,
517,4.00e-03,
518,-4.00e-03,
519,8.00e-03,
520,-4.00e-03,
521,-1.20e-02,
522,-4.00e-03,
523,0.00e+00,
524,-4.00e-03,
525,0.00e+00,
526,-4.00e-03,
527,-4.00e-03,
528,-8.00e-03,
529,-4.00e-03,
530,-8.00e-03,
531,-4.00e-03,
532,-8.00e-03,
533,-4.00e-03,
534,-4.00e-03,
535,0.00e+00,
536,-4.00e-03,
537,-8.00e-03,
538,-4.00e-03,
539,-4.00e-03,
540,-8.00e-03,
541,-4.00e-03,
542,-4.00e-03,
543,0.00e+00,
544,-4.00e-03,
545,-4.00e-03,
546,-4.00e-03,
547,-4.00e-03,
548,0.00e+00,
549,-4.00e-03,
550,-4.00e-03,
551,-8.00e-03,
552,-4.00e-03,
553,-4.00e-03,
554,-4.00e-03,
555,-4.00e-03,
556,-8.00e-03,
557,-4.00e-03,
558,-4.00e-03,
559,-8.00e-03,
560,-1.20e-02,
561,-4.00e-03,
562,-4.00e-03,
563,-4.00e-03,
564,-4.00e-03,
565,-4.00e-03,
566,-4.00e-03,
567,-4.00e-03,
568,-8.00e-03,
569,-4.00e-03,
570,0.00e+00,
571,-1.20e-02,
572,-8.00e-03,
573,0.00e+00,
574,0.00e+00,
575,-4.00e-03,
576,-4.00e-03,
577,-4.00e-03,
578,-4.00e-03,
579,-8.00e-03,
580,0.00e+00,
581,-4.00e-03,
582,-8.00e-03,
583,0.00e+00,
584,-8.00e-03,
585,-1.20e-02,
586,4.00e-03,
587,0.00e+00,
588,-4.00e-03,
589,0.00e+00,
590,-8.00e-03,
591,-4.00e-03,
592,0.00e+00,
593,-4.00e-03,
594,-4.00e-03,
595,-8.00e-03,
596,0.00e+00,
597,-8.00e-03,
598,-4.00e-03,
599,-4.00e-03,
600,0.00e+00,
601,4.00e-03,
602,-4.00e-03,
603,4.00e-03,
604,-4.00e-03,
605,-1.20e-02,
606,-4.00e-03,
607,0.00e+00,
608,-4.00e-03,
609,0.00e+00,
610,0.00e+00,
611,-4.00e-03,
612,-8.00e-03,
613,-4.00e-03,
614,0.00e+00,
615,0.00e+00,
616,0.00e+00,
617,-4.00e-03,
618,-4.00e-03,
619,-8.00e-03,
620,0.00e+00,
621,-4.00e-03,
622,-4.00e-03,
623,-8.00e-03,
624,0.00e+00,
625,-4.00e-03,
626,-4.00e-03,
627,0.00e+00,
628,-4.00e-03,
629,-4.00e-03,
630,-4.00e-03,
631,-4.00e-03,
632,0.00e+00,
633,-4.00e-03,
634,0.00e+00,
635,-4.00e-03,
636,-8.00e-03,
637,-4.00e-03,
638,-4.00e-03,
639,-8.00e-03,
640,-8.00e-03,
641,-4.00e-03,
642,8.00e-03,
643,0.00e+00,
644,-4.00e-03,
645,-4.00e-03,
646,1.20e-02,
647,-4.00e-03,
648,0.00e+00,
649,0.00e+00,
650,0.00e+00,
651,-4.00e-03,
652,0.00e+00,
653,-4.00e-03,
654,-4.00e-03,
655,-8.00e-03,
656,4.00e-03,
657,-8.00e-03,
658,4.00e-03,
659,-4.00e-03,
660,8.00e-03,
661,0.00e+00,
662,4.00e-03,
663,4.00e-03,
664,-4.00e-03,
665,-8.00e-03,
666,1.20e-02,
667,-8.00e-03,
668,-4.00e-03,
669,0.00e+00,
670,-4.00e-03,
671,-8.00e-03,
672,0.00e+00,
673,-1.20e-02,
674,0.00e+00,
675,-4.00e-03,
676,0.00e+00,
677,-8.00e-03,
678,-4.00e-03,
679,-4.00e-03,
680,4.00e-03,
681,-4.00e-03,
682,-4.00e-03,
683,-4.00e-03,
684,-8.00e-03,
685,-4.00e-03,
686,0.00e+00,
687,-4.00e-03,
688,0.00e+00,
689,0.00e+00,
690,-1.20e-02,
691,-4.00e-03,
692,-4.00e-03,
693,0.00e+00,
694,-4.00e-03,
695,-8.00e-03,
696,-4.00e-03,
697,-4.00e-03,
698,0.00e+00,
699,-8.00e-03,
700,-2.40e-02,
701,-4.00e-03,
702,-4.00e-03,
703,0.00e+00,
704,-8.00e-03,
705,-8.00e-03,
706,0.00e+00,
707,-8.00e-03,
708,4.00e-03,
709,4.00e-03,
710,0.00e+00,
711,-8.00e-03,
712,-8.00e-03,
713,4.00e-03,
714,-4.00e-03,
715,-4.00e-03,
716,0.00e+00,
717,-4.00e-03,
718,0.00e+00,
719,-8.00e-03,
720,-8.00e-03,
721,0.00e+00,
722,-4.00e-03,
723,-4.00e-03,
724,0.00e+00,
725,-8.00e-03,
726,-8.00e-03,
727,8.00e-03,
728,-8.00e-03,
729,-4.00e-03,
730,-4.00e-03,
731,-4.00e-03,
732,0.00e+00,
733,0.00e+00,
734,0.00e+00,
735,0.00e+00,
736,-4.00e-03,
737,-4.00e-03,
738,-4.00e-03,
739,-4.00e-03,
740,-4.00e-03,
741,-4.00e-03,
742,-8.00e-03,
743,-4.00e-03,
744,-4.00e-03,
745,-4.00e-03,
746,0.00e+00,
747,-4.00e-03,
748,-4.00e-03,
749,0.00e+00,
750,-4.00e-03,
751,0.00e+00,
752,0.00e+00,
753,-4.00e-03,
754,0.00e+00,
755,-4.00e-03,
756,-4.00e-03,
757,0.00e+00,
758,-8.00e-03,
759,-4.00e-03,
760,-4.00e-03,
761,-8.00e-03,
762,-4.00e-03,
763,-4.00e-03,
764,-8.00e-03,
765,4.00e-03,
766,-4.00e-03,
767,-4.00e-03,
768,-4.00e-03,
769,-4.00e-03,
770,-4.00e-03,
771,-4.00e-03,
772,-4.00e-03,
773,-4.00e-03,
774,-4.00e-03,
775,-4.00e-03,
776,-4.00e-03,
777,0.00e+00,
778,0.00e+00,
779,-4.00e-03,
780,0.00e+00,
781,0.00e+00,
782,0.00e+00,
783,-4.00e-03,
784,-4.00e-03,
785,-8.00e-03,
786,0.00e+00,
787,-8.00e-03,
788,-4.00e-03,
789,-4.00e-03,
790,-4.00e-03,
791,-8.00e-03,
792,0.00e+00,
793,-4.00e-03,
794,8.00e-03,
795,0.00e+00,
796,-4.00e-03,
797,-4.00e-03,
798,-4.00e-03,
799,0.00e+00,
800,-8.00e-03,
801,-8.00e-03,
802,-4.00e-03,
803,-4.00e-03,
804,0.00e+00,
805,4.00e-03,
806,-4.00e-03,
807,-8.00e-03,
808,-8.00e-03,
809,0.00e+00,
810,4.00e-03,
811,-1.20e-02,
812,0.00e+00,
813,0.00e+00,
814,-8.00e-03,
815,0.00e+00,
816,8.00e-03,
817,-4.00e-03,
818,-4.00e-03,
819,-8.00e-03,
820,0.00e+00,
821,-8.00e-03,
822,-4.00e-03,
823,-4.00e-03,
824,-4.00e-03,
825,-4.00e-03,
826,-4.00e-03,
827,-8.00e-03,
828,4.00e-03,
829,8.00e-03,
830,0.00e+00,
831,-8.00e-03,
832,-4.00e-03,
833,-4.00e-03,
834,0.00e+00,
835,-4.00e-03,
836,0.00e+00,
837,-4.00e-03,
838,0.00e+00,
839,-4.00e-03,
840,-4.00e-03,
841,-4.00e-03,
842,-4.00e-03,
843,0.00e+00,
844,-1.20e-02,
845,-4.00e-03,
846,0.00e+00,
847,-4.00e-03,
848,0.00e+00,
849,4.00e-03,
850,-1.20e-02,
851,-8.00e-03,
852,0.00e+00,
853,-4.00e-03,
854,0.00e+00,
855,-4.00e-03,
856,0.00e+00,
857,-4.00e-03,
858,-1.20e-02,
859,-4.00e-03,
860,0.00e+00,
861,-8.00e-03,
862,-8.00e-03,
863,4.00e-03,
864,-4.00e-03,
865,-4.00e-03,
866,-4.00e-03,
867,0.00e+00,
868,8.00e-03,
869,0.00e+00,
870,0.00e+00,
871,-8.00e-03,
872,-4.00e-03,
873,-4.00e-03,
874,-4.00e-03,
875,0.00e+00,
876,-8.00e-03,
877,-8.00e-03,
878,-4.00e-03,
879,-4.00e-03,
880,-4.00e-03,
881,-4.00e-03,
882,-4.00e-03,
883,-8.00e-03,
884,-8.00e-03,
885,-8.00e-03,
886,-4.00e-03,
887,0.00e+00,
888,-4.00e-03,
889,-4.00e-03,
890,0.00e+00,
891,-8.00e-03,
892,-8.00e-03,
893,4.00e-03,
894,-4.00e-03,
895,8.00e-03,
896,-4.00e-03,
897,-8.00e-03,
898,0.00e+00,
899,0.00e+00,
900,8.00e-03,
901,-1.20e-02,
902,0.00e+00,
903,-4.00e-03,
904,-4.00e-03,
905,-4.00e-03,
906,4.00e-03,
907,8.00e-03,
908,-8.00e-03,
909,4.00e-03,
910,-8.00e-03,
911,-4.00e-03,
912,-8.00e-03,
913,-2.40e-02,
914,-4.00e-03,
915,4.00e-03,
916,-2.40e-02,
917,8.00e-03,
918,-8.00e-03,
919,-4.00e-03,
920,-8.00e-03,
921,-8.00e-03,
922,-4.00e-03,
923,-4.00e-03,
924,0.00e+00,
925,-8.00e-03,
926,-4.00e-03,
927,-4.00e-03,
928,-4.00e-03,
929,-4.00e-03,
930,-4.00e-03,
931,-4.00e-03,
932,4.00e-03,
933,0.00e+00,
934,4.00e-03,
935,0.00e+00,
936,8.00e-03,
937,0.00e+00,
938,0.00e+00,
939,0.00e+00,
940,-8.00e-03,
941,0.00e+00,
942,0.00e+00,
943,-4.00e-03,
944,-4.00e-03,
945,-4.00e-03,
946,0.00e+00,
947,-8.00e-03,
948,-4.00e-03,
949,-4.00e-03,
950,-8.00e-03,
951,0.00e+00,
952,-1.20e-02,
953,0.00e+00,
954,-4.00e-03,
955,-4.00e-03,
956,-8.00e-03,
957,-4.00e-03,
958,-4.00e-03,
959,0.00e+00,
960,-4.00e-03,
961,-4.00e-03,
962,-4.00e-03,
963,-4.00e-03,
964,4.00e-03,
965,-4.00e-03,
966,0.00e+00,
967,0.00e+00,
968,-4.00e-03,
969,-8.00e-03,
970,-4.00e-03,
971,-4.00e-03,
972,-4.00e-03,
973,0.00e+00,
974,-4.00e-03,
975,-8.00e-03,
976,-4.00e-03,
977,0.00e+00,
978,0.00e+00,
979,-4.00e-03,
980,-4.00e-03,
981,-8.00e-03,
982,-4.00e-03,
983,-4.00e-03,
984,-8.00e-03,
985,-4.00e-03,
986,-4.00e-03,
987,-8.00e-03,
988,-4.00e-03,
989,-4.00e-03,
990,-4.00e-03,
991,0.00e+00,
992,0.00e+00,
993,-1.20e-02,
994,-4.00e-03,
995,0.00e+00,
996,-8.00e-03,
997,-8.00e-03,
998,0.00e+00,
999,-1.20e-02,
1000,-4.00e-03,
1001,-4.00e-03,
1002,-4.00e-03,
1003,0.00e+00,
1004,-4.00e-03,
1005,-4.00e-03,
1006,0.00e+00,
1007,-4.00e-03,
1008,0.00e+00,
1009,-4.00e-03,
1010,-4.00e-03,
1011,-8.00e-03,
1012,-4.00e-03,
1013,-4.00e-03,
1014,-4.00e-03,
1015,-1.20e-02,
1016,0.00e+00,
1017,-8.00e-03,
1018,-8.00e-03,
1019,0.00e+00,
1020,-4.00e-03,
1021,-4.00e-03,
1022,-8.00e-03,
1023,-4.00e-03,
1024,-4.00e-03,
1025,0.00e+00,
1026,-4.00e-03,
1027,-4.00e-03,
1028,0.00e+00,
1029,-4.00e-03,
1030,-4.00e-03,
1031,0.00e+00,
1032,-8.00e-03,
1033,-4.00e-03,
1034,0.00e+00,
1035,-8.00e-03,
1036,-8.00e-03,
1037,-4.00e-03,
1038,-8.00e-03,
1039,0.00e+00,
1040,-4.00e-03,
1041,-1.20e-02,
1042,-8.00e-03,
1043,0.00e+00,
1044,0.00e+00,
1045,-4.00e-03,
1046,-8.00e-03,
1047,0.00e+00,
1048,-4.00e-03,
1049,0.00e+00,
1050,-4.00e-03,
1051,-4.00e-03,
1052,-8.00e-03,
1053,-8.00e-03,
1054,-4.00e-03,
1055,-4.00e-03,
1056,-1.20e-02,
1057,0.00e+00,
1058,-4.00e-03,
1059,-4.00e-03,
1060,-4.00e-03,
1061,-8.00e-03,
1062,0.00e+00,
1063,-8.00e-03,
1064,0.00e+00,
1065,-4.00e-03,
1066,-4.00e-03,
1067,0.00e+00,
1068,-8.00e-03,
1069,-4.00e-03,
1070,-8.00e-03,
1071,-4.00e-03,
1072,-4.00e-03,
1073,-4.00e-03,
1074,-4.00e-03,
1075,-4.00e-03,
1076,-4.00e-03,
1077,0.00e+00,
1078,-4.00e-03,
1079,-4.00e-03,
1080,8.00e-03,
1081,0.00e+00,
1082,-4.00e-03,
1083,-8.00e-03,
1084,-4.00e-03,
1085,-4.00e-03,
1086,-1.60e-02,
1087,-1.20e-02,
1088,0.00e+00,
1089,-4.00e-03,
1090,0.00e+00,
1091,-8.00e-03,
1092,-4.00e-03,
1093,-4.00e-03,
1094,-1.20e-02,
1095,0.00e+00,
1096,-4.00e-03,
1097,0.00e+00,
1098,4.00e-03,
1099,0.00e+00,
1100,-1.60e-02,
1101,-8.00e-03,
1102,4.00e-03,
1103,-4.00e-03,
1104,-1.60e-02,
1105,0.00e+00,
1106,0.00e+00,
1107,-4.00e-03,
1108,-4.00e-03,
1109,8.00e-03,
1110,-8.00e-03,
1111,0.00e+00,
1112,4.00e-03,
1113,-8.00e-03,
1114,-4.00e-03,
1115,0.00e+00,
1116,-1.20e-02,
1117,0.00e+00,
1118,0.00e+00,
1119,-4.00e-03,
1120,-8.00e-03,
1121,-8.00e-03,
1122,-4.00e-03,
1123,-4.00e-03,
1124,-4.00e-03,
1125,0.00e+00,
1126,-4.00e-03,
1127,-4.00e-03,
1128,-4.00e-03,
1129,0.00e+00,
1130,-4.00e-03,
1131,-4.00e-03,
1132,-4.00e-03,
1133,-4.00e-03,
1134,0.00e+00,
1135,-4.00e-03,
1136,-4.00e-03,
1137,-4.00e-03,
1138,4.00e-03,
1139,-4.00e-03,
1140,4.00e-03,
1141,-4.00e-03,
1142,-4.00e-03,
1143,0.00e+00,
1144,1.20e-02,
1145,0.00e+00,
1146,4.00e-03,
1147,8.00e-03,
1148,1.20e-02,
1149,-8.00e-03,
1150,0.00e+00,
1151,0.00e+00,
1152,2.00e-02,
1153,0.00e+00,
1154,-4.00e-03,
1155,4.00e-03,
1156,-4.00e-03,
1157,-4.00e-03,
1158,4.00e-03,
1159,0.00e+00,
1160,-4.00e-03,
1161,-4.00e-03,
1162,-4.00e-03,
1163,-4.00e-03,
1164,0.00e+00,
1165,-1.20e-02,
1166,4.00e-03,
1167,0.00e+00,
1168,-4.00e-03,
1169,-4.00e-03,
1170,-4.00e-03,
1171,-8.00e-03,
1172,4.00e-03,
1173,-8.00e-03,
1174,-4.00e-03,
1175,-8.00e-03,
1176,0.00e+00,
1177,-1.60e-02,
1178,-8.00e-03,
1179,8.00e-03,
1180,0.00e+00,
1181,0.00e+00,
1182,0.00e+00,
1183,-8.00e-03,
1184,-1.20e-02,
1185,-1.20e-02,
1186,-1.60e-02,
1187,-1.20e-02,
1188,-1.20e-02,
1189,-4.00e-03,
1190,4.00e-03,
1191,0.00e+00,
1192,-4.00e-03,
1193,0.00e+00,
1194,4.00e-03,
1195,0.00e+00,
1196,-4.00e-03,
1197,-8.00e-03,
1198,-8.00e-03,
1199,-4.00e-03,
1200,-4.00e-03,
1201,-4.00e-03,
1202,-4.00e-03,
1203,0.00e+00,
1204,-8.00e-03,
1205,0.00e+00,
1206,-4.00e-03,
1207,0.00e+00,
1208,-4.00e-03,
1209,-4.00e-03,
1210,4.00e-03,
1211,-1.20e-02,
1212,0.00e+00,
1213,0.00e+00,
1214,-4.00e-03,
1215,-4.00e-03,
1216,0.00e+00,
1217,0.00e+00,
1218,0.00e+00,
1219,-4.00e-03,
1220,-4.00e-03,
1221,-1.20e-02,
1222,-8.00e-03,
1223,0.00e+00,
1224,0.00e+00,
1225,0.00e+00,
1226,0.00e+00,
1227,-4.00e-03,
1228,-4.00e-03,
1229,-4.00e-03,
1230,-4.00e-03,
1231,0.00e+00,
1232,0.00e+00,
1233,0.00e+00,
1234,-4.00e-03,
1235,-4.00e-03,
1236,0.00e+00,
1237,-4.00e-03,
1238,-4.00e-03,
1239,0.00e+00,
1240,-4.00e-03,
1241,0.00e+00,
1242,0.00e+00,
1243,-8.00e-03,
1244,-8.00e-03,
1245,-8.00e-03,
1246,0.00e+00,
1247,-4.00e-03,
1248,-4.00e-03,
1249,0.00e+00,
1250,0.00e+00,
1251,-4.00e-03,
1252,0.00e+00,
1253,-4.00e-03,
1254,-4.00e-03,
1255,-4.00e-03,
1256,0.00e+00,
1257,0.00e+00,
1258,4.00e-03,
1259,-4.00e-03,
1260,0.00e+00,
1261,-4.00e-03,
1262,-4.00e-03,
1263,-4.00e-03,
1264,0.00e+00,
1265,0.00e+00,
1266,0.00e+00,
1267,-4.00e-03,
1268,-4.00e-03,
1269,-4.00e-03,
1270,-4.00e-03,
1271,-4.00e-03,
1272,-8.00e-03,
1273,-4.00e-03,
1274,-4.00e-03,
1275,-4.00e-03,
1276,-4.00e-03,
1277,-1.60e-02,
1278,-4.00e-03,
1279,4.00e-03,
1280,-4.00e-03,
1281,-8.00e-03,
1282,-8.00e-03,
1283,0.00e+00,
1284,0.00e+00,
1285,-8.00e-03,
1286,-8.00e-03,
1287,-4.00e-03,
1288,-4.00e-03,
1289,-4.00e-03,
1290,-4.00e-03,
1291,-4.00e-03,
1292,-4.00e-03,
1293,-4.00e-03,
1294,-4.00e-03,
1295,-4.00e-03,
1296,1.20e-02,
1297,-4.00e-03,
1298,0.00e+00,
1299,-4.00e-03,
1300,-4.00e-03,
1301,-4.00e-03,
1302,-4.00e-03,
1303,-4.00e-03,
1304,-4.00e-03,
1305,-4.00e-03,
1306,-4.00e-03,
1307,0.00e+00,
1308,-4.00e-03,
1309,0.00e+00,
1310,-4.00e-03,
1311,-4.00e-03,
1312,0.00e+00,
1313,0.00e+00,
1314,0.00e+00,
1315,-4.00e-03,
1316,0.00e+00,
1317,1.20e-02,
1318,4.00e-03,
1319,0.00e+00,
1320,-4.00e-03,
1321,0.00e+00,
1322,-4.00e-03,
1323,-8.00e-03,
1324,0.00e+00,
1325,-8.00e-03,
1326,-4.00e-03,
1327,0.00e+00,
1328,-1.60e-02,
1329,0.00e+00,
1330,8.00e-03,
1331,4.00e-03,
1332,-4.00e-03,
1333,-4.00e-03,
1334,0.00e+00,
1335,-8.00e-03,
1336,-4.00e-03,
1337,-8.00e-03,
1338,4.00e-03,
1339,-4.00e-03,
1340,0.00e+00,
1341,-4.00e-03,
1342,-4.00e-03,
